revolution = {
	potential = {
		NOT = { has_country_flag = had_revolution }
		NOT = { tag = PAP }
		NOT = { tag = FRA }		#todo, adapt french events
		is_free_or_tributary_trigger = yes
		uses_doom = no
		capital_scope = { continent = europe } # technology_group = western
		num_of_cities = 30
		NOT = { revolution_target_exists = yes }
		is_year = 1700
	}
	
	
	can_start = {
		has_any_disaster = no
		NOT = { stability = 0 }
		is_year = 1750
	}
	
	can_stop = {
		OR = {
			has_any_disaster = yes
			stability = 3
		}
	}
	
	
	progress = {
		modifier = {
			factor = 1
			NOT = { prestige = 0 }
		}
		modifier = {
			factor = 1
			war_exhaustion = 5
		}
		modifier = {
			factor = 0.5
			num_of_loans = 10
			NOT = { num_of_loans = 25 }
		}
		modifier = {
			factor = 1
			num_of_loans = 25
		}
		modifier = {
			factor = 2
			is_bankrupt = yes
		}
	}
	
	can_end = {
		stability = 1
		NOT = { num_of_revolts = 1 }
	}
	
	modifier = {
		global_unrest = 10
		stability_cost_modifier = 0.1
	}
	
	on_start = revolution.1
	on_end = revolution.9
	
	on_monthly = {
		events = {
			revolution.10
			revolution.15
		}
		random_events = {
			1000 = 0
			100 = revolution.2
			100 = revolution.3
			100 = revolution.4
			100 = revolution.5
			100 = revolution.6
			# 100 = revolution.7
			100 = revolution.8
		}
	}
}

