#Spain; too centralized
union = {
	first = SPA
	second = BUR
	start_date = 1522.1.1
	end_date = 1678.9.19
}

#France
#Modena-Fererra
union = {
	first = MOD
	second = FER
	start_date = 1530.1.1
	end_date = 1597.10.28
}

#Austria
union = {
	first = HAB
	second = FRE
	start_date = 1368.1.2
	end_date = 1797.10.17
}
