#The electorate of Hanover came about because the von Welfs all died out
country_event = {
	id = welfs_dynastic.1
	
	title = "welfs_dynastic.1.t"
	desc = "welfs_dynastic.1.d"
	
	picture = SIEGE_eventPicture
	
	is_triggered_only = yes
	#hidden = yes
	
	trigger = {
		has_country_flag = welf_succession
		OR = {
			tag = LUN
			tag = BRU
			tag = GTG
		}
		NOT = { dynasty = "von Welf" }
		HAN = {
			dynasty = "von Welf"
		}
	}
	
	option = {
		trigger = {
			ai = yes
		}
		name = "hindustani_unification.2a"
		clr_country_flag = welf_succession
		HAN = {
			inherit = ROOT
		}
	}
	
	option = {
		trigger = {
			ai = no
		}
		name = "hindustani_unification.2a"
		clr_country_flag = welf_succession
		hidden_effect = {
			HAN = {
				country_event = {
					id = welfs_dynastic.6
					days = 1
				}
			}
		}
		switch_tag = HAN
	}
}

#country_event = {
#	id = welfs_dynastic.2
#	
#	title = "welfs_dynastic.1.t"
#	desc = "welfs_dynastic.1.d"
#	
#	picture = SIEGE_eventPicture
#	
#	is_triggered_only = yes
#	#hidden = yes
#	
#	trigger = {
#		has_country_flag = welf_succession
#		OR = {
#			tag = HAN
#			tag = LUN
#			tag = BRU
#			tag = GTG
#		}
#		NOT = { dynasty = "von Welf" }
#		HAN = {
#			dynasty = "von Welf"
#		}
#		NOT = {
#			HAN = {
#				dynasty = "von Welf"
#			}
#		}
#	}
#		
#	option = {
#		trigger = {
#			ai = yes
#		}
#		name = "hindustani_unification.2a"
#		clr_country_flag = welf_succession
#		HAN = {
#			inherit = ROOT
#		}
#	}
#		
#	option = {
#		trigger = {
#			ai = no
#		}
#		name = "hindustani_unification.2a"
#		clr_country_flag = welf_succession
#		hidden_effect = {
#			HAN = {
#				country_event = {
#					id = welfs_dynastic.6
#					days = 1
#				}
#			}
#		}
#		switch_tag = HAN
#	}
#}

country_event = {
	id = welfs_dynastic.3
	
	title = "welfs_dynastic.1.t"
	desc = "welfs_dynastic.1.d"
	
	picture = SIEGE_eventPicture
	
	is_triggered_only = yes
	#hidden = yes
	
	trigger = {
		has_country_flag = welf_succession
		OR = {
			tag = HAN
			tag = BRU
			tag = GTG
		}
		NOT = { dynasty = "von Welf" }
		LUN = {
			dynasty = "von Welf"
		}
		NOT = {
			HAN = {
				dynasty = "von Welf"
			}
		}
	}
	
	option = {
		trigger = {
			ai = yes
		}
		name = "hindustani_unification.2a"
		clr_country_flag = welf_succession
		LUN = {
			country_event = {
				id = welfs_dynastic.6
				days = 1
			}
		}
	}
	
	option = {
		trigger = {
			ai = no
		}
		name = "hindustani_unification.2a"
		clr_country_flag = welf_succession
		hidden_effect = {
			LUN = {
				country_event = {
					id = welfs_dynastic.6
					days = 1
				}
			}
		}
		switch_tag = LUN
	}
}

country_event = {
	id = welfs_dynastic.4
	
	title = "welfs_dynastic.1.t"
	desc = "welfs_dynastic.1.d"
	
	picture = SIEGE_eventPicture
	
	is_triggered_only = yes
	#hidden = yes
	
	trigger = {
		has_country_flag = welf_succession
		OR = {
			tag = HAN
			tag = LUN
			tag = GTG
		}
		NOT = { dynasty = "von Welf" }
		BRU = {
			dynasty = "von Welf"
		}
		NOT = {
			HAN = {
				dynasty = "von Welf"
			}
		}
		NOT = {
			LUN = {
				dynasty = "von Welf"
			}
		}
	}
	
	option = {
		trigger = {
			ai = yes
		}
		name = "hindustani_unification.2a"
		clr_country_flag = welf_succession
		BRU = {
			country_event = {
				id = welfs_dynastic.6
				days = 1
			}
		}
	}
	
	option = {
		trigger = {
			ai = no
		}
		name = "hindustani_unification.2a"
		clr_country_flag = welf_succession
		hidden_effect = {
			BRU = {
				country_event = {
					id = welfs_dynastic.6
					days = 1
				}
			}
		}
		switch_tag = BRU
	}
}

country_event = {
	id = welfs_dynastic.5
	
	title = "welfs_dynastic.1.t"
	desc = "welfs_dynastic.1.d"
	
	picture = SIEGE_eventPicture
	
	is_triggered_only = yes
	#hidden = yes
	
	trigger = {
		has_country_flag = welf_succession
		OR = {
			tag = HAN
			tag = LUN
			tag = BRU
		}
		NOT = { dynasty = "von Welf" }
		GTG = {
			dynasty = "von Welf"
		}
		NOT = {
			HAN = {
				dynasty = "von Welf"
			}
		}
		NOT = {
			LUN = {
				dynasty = "von Welf"
			}
		}
		NOT = {
			BRU = {
				dynasty = "von Welf"
			}
		}
	}
	
	option = {
		trigger = {
			ai = yes
		}
		name = "hindustani_unification.2a"
		clr_country_flag = welf_succession
		GTG = {
			inherit = ROOT
		}
	}
	
	option = {
		trigger = {
			ai = no
		}
		name = "hindustani_unification.2a"
		clr_country_flag = welf_succession
		hidden_effect = {
			GTG = {
				country_event = {
					id = welfs_dynastic.6
					days = 1
				}
			}
		}
		switch_tag = GTG
	}
}

country_event = {
	id = welfs_dynastic.6
	
	title = "welfs_dynastic.1.t"
	desc = "welfs_dynastic.1.d"
	
	picture = SIEGE_eventPicture
	
	is_triggered_only = yes
	hidden = yes
	
	option = {
		name = "hindustani_unification.2a"
		inherit = FROM
	}
}
