########################################
# Natural Disasters
########################################

country_event = {
	id = naturaldisaster.001
	title = "naturaldisaster.001.name"
	desc = "naturaldisaster.001.desc"
	picture = EARTHQUAKE_eventPicture
	
	trigger = { owns = 102 } # Nissa
	
	is_triggered_only = yes
	hidden = yes
	
	option = {
		name = "naturaldisaster.001.opta"
		random_list = {
			10 = {
				random_province = {
					limit = {
						province_group = sismic_group
						AND = {
							superregion = japan_superregion
							NOT = { region = korea_region }
						}
						NOT = { is_empty = yes }
					}
					province_event = {
						id = naturaldisaster.002
						days = 1
						random = 200
					}
					102 = { change_variable = { which = japan_earthquakes_around_the_world value = 1 } }
				}
			}
			15 = {
				random_province = {
					limit = {
						province_group = sismic_group
						superregion = north_china_superregion
						NOT = { is_empty = yes }
					}
					province_event = {
						id = naturaldisaster.002
						days = 1
						random = 200
					}
					102 = { change_variable = { which = china_earthquakes_around_the_world value = 1 } }
				}
			}
			15 = {
				random_province = {
					limit = {
						province_group = sismic_group
						superregion = east_china_superregion
						NOT = { is_empty = yes }
					}
					province_event = {
						id = naturaldisaster.002
						days = 1
						random = 200
					}
					102 = { change_variable = { which = china_earthquakes_around_the_world value = 1 } }
				}
			}
			15 = {
				random_province = {
					limit = {
						province_group = sismic_group
						superregion = southwest_china_superregion
						NOT = { is_empty = yes }
					}
					province_event = {
						id = naturaldisaster.002
						days = 1
						random = 200
					}
					102 = { change_variable = { which = china_earthquakes_around_the_world value = 1 } }
				}
			}
			6 = {
				random_province = {
					limit = {
						province_group = sismic_group
						superregion = east_indies_superregion
						NOT = { is_empty = yes }
					}
					province_event = {
						id = naturaldisaster.002
						days = 1
						random = 200
					}
					102 = { change_variable = { which = archipelago_earthquakes_around_the_world value = 1 } }
				}
			}
			5 = {
				random_province = {
					limit = {
						province_group = sismic_group
						superregion = southeast_asia_superregion
						NOT = { is_empty = yes }
					}
					province_event = {
						id = naturaldisaster.002
						days = 1
						random = 200
					}
					102 = { change_variable = { which = archipelago_earthquakes_around_the_world value = 1 } }
				}
			}
			5 = {
				random_province = {
					limit = {
						province_group = sismic_group
						region = tibet_region
						NOT = { is_empty = yes }
					}
					province_event = {
						id = naturaldisaster.002
						days = 1
						random = 200
					}
					102 = {
						change_variable = { which = himalaya_earthquakes_around_the_world value = 1 }
					}
				}
			}
			5 = {
				random_province = {
					limit = {
						province_group = sismic_group
						area = kashmir_area
						NOT = { is_empty = yes }
					}
					province_event = {
						id = naturaldisaster.002
						days = 1
						random = 200
					}
					102 = { change_variable = { which = himalaya_earthquakes_around_the_world value = 1 } }
				}
			}
			10 = {
				random_province = {
					limit = {
						province_group = sismic_group
						superregion = persia_superregion
						NOT = { is_empty = yes }
					}
					province_event = {
						id = naturaldisaster.002
						days = 1
						random = 200
					}
					102 = { change_variable = { which = central_asia_earthquakes_around_the_world value = 1 } }
				}
			}
			5 = {
				random_province = {
					limit = {
						province_group = sismic_group
						superregion = east_africa_superregion
						NOT = { is_empty = yes }
					}
					province_event = {
						id = naturaldisaster.002
						days = 1
						random = 200
					}
					102 = { change_variable = { which = east_africa_earthquakes_around_the_world value = 1 } }
				}
			}
			1 = {
				random_province = {
					limit = {
						province_group = sismic_group
						superregion = near_east_superregion
						NOT = { is_empty = yes }
					}
					province_event = {
						id = naturaldisaster.002
						days = 1
						random = 200
					}
					102 = { change_variable = { which = near_east_earthquakes_around_the_world value = 1 } }
				}
			}
			3 = {
				random_province = {
					limit = {
						province_group = sismic_group
						superregion = north_africa_superregion
						NOT = { is_empty = yes }
					}
					province_event = {
						id = naturaldisaster.002
						days = 1
						random = 200
					}
					102 = { change_variable = { which = north_africa_earthquakes_around_the_world value = 1 } }
				}
			}
			5 = {
				random_province = {
					limit = {
						province_group = sismic_group
						continent = europe
						NOT = { is_empty = yes }
					}
					province_event = {
						id = naturaldisaster.002
						days = 1
						random = 200
					}
					102 = { change_variable = { which = europe_earthquakes_around_the_world value = 1 } }
				}
			}
			5 = {
				random_province = {
					limit = {
						province_group = sismic_group
						superregion = central_america_superregion
						NOT = { is_empty = yes }
					}
					province_event = {
						id = naturaldisaster.002
						days = 1
						random = 200
					}
					102 = { change_variable = { which = america_earthquakes_around_the_world value = 1 } }
				}
			}
			5 = {
				random_province = {
					limit = {
						province_group = sismic_group
						superregion = western_south_america_superregion
						NOT = { is_empty = yes }
					}
					province_event = {
						id = naturaldisaster.002
						days = 1
						random = 200
					}
					102 = { change_variable = { which = america_earthquakes_around_the_world value = 1 } }
				}
			}
		}
	}
}

province_event = {
	id = naturaldisaster.002
	title = "naturaldisaster.002.name"
	desc = "naturaldisaster.002.desc"
	picture = EARTHQUAKE_eventPicture
	
	is_triggered_only = yes
	hidden = yes
	
	immediate = {
		save_event_target_as = earthquake_epicenter
	}
	
	option = {
		name = "naturaldisaster.002.opta"
		random_list = {
			60 = {
				sismic_chaos_minor_effect = yes
				102 = { change_variable = { which = minor_earthquakes_around_the_world value = 1 } }
			}
			30 = {
				sismic_chaos_mild_effect = yes
				random = {
					chance = 10
					set_variable = { which = rural_population_removed value = 0.001 }
					remove_rural_population_DEVS = yes
					set_variable = { which = urban_population_removed value = 0.001 }
					remove_urban_population_DEVS = yes
					update_base_values = yes
				}
				102 = { change_variable = { which = medium_earthquakes_around_the_world value = 1 } }
			}
			10 = {
				sismic_chaos_major_effect = yes
				random = {
					chance = 10
					set_variable = { which = rural_population_removed value = 0.001 }
					remove_rural_population_DEVS = yes
					set_variable = { which = urban_population_removed value = 0.001 }
					remove_urban_population_DEVS = yes
					update_base_values = yes
				}
				every_neighbor_province = {
					limit = {
						has_province_modifier = sismic_chaos_minor
					}
					random = {
						chance = 10
						set_variable = { which = rural_population_removed value = 0.001 }
						remove_rural_population_DEVS = yes
						set_variable = { which = urban_population_removed value = 0.001 }
						remove_urban_population_DEVS = yes
						update_base_values = yes
					}
				}
				102 = { change_variable = { which = major_earthquakes_around_the_world value = 1 } }
			}
		}
		owner = {
			country_event = { id = naturaldisaster.003 days = 0 }
			every_neighbor_country = {
				limit = {
					any_owned_province = { OR = { has_province_modifier = sismic_chaos_minor has_province_modifier = sismic_chaos_mild has_province_modifier = sismic_chaos_major } }
				}
				country_event = { id = naturaldisaster.003 days = 0 }
			}
		}
	}
}

country_event = {
	id = naturaldisaster.003
	title = "naturaldisaster.003.name"
	desc = "naturaldisaster.003.desc"
	picture = EARTHQUAKE_eventPicture
	
	is_triggered_only = yes
	
	option = {
		name = "naturaldisaster.003.opta"
		ai_chance = { factor = 20 modifier = { NOT = { treasury = 200 } factor = 0 } }
		trigger = { adm_tech = 35 }
		natural_disaster_help_effect = yes
	}
	option = {
		name = "naturaldisaster.003.optb"
		ai_chance = { factor = 75 }
		trigger = { adm_tech = 35 }
		natural_disaster_relief_effect = yes
	}
	option = {
		name = "naturaldisaster.003.optc"
		ai_chance = { factor = 50 }
		trigger = {
			adm_tech = 35
			is_subject_other_than_tributary_trigger = yes
		}
		country_event = { id = naturaldisaster.501 days = 5 }
	}
	option = {
		name = "naturaldisaster.003.optd"
		ai_chance = { factor = 5 }
		trigger = {
			adm_tech = 35
		}
	}
	option = {
		name = "naturaldisaster.003.opte"
		trigger = {
			NOT = { adm_tech = 35 }
		}
	}
}

country_event = {
	id = naturaldisaster.101
	title = "naturaldisaster.101.name"
	desc = "naturaldisaster.101.desc"
	picture = EARTHQUAKE_eventPicture
	
	trigger = { owns = 2855 } # Catania
	
	is_triggered_only = yes
	hidden = yes
	
	option = {
		name = "naturaldisaster.101.opta"
		random_list = {
			2 = {   832 = { province_event = { id = naturaldisaster.102 days = 1 random = 200 } } }
			3 = {  2604 = { province_event = { id = naturaldisaster.102 days = 1 random = 200 } } }
			4 = {   793 = { province_event = { id = naturaldisaster.102 days = 1 random = 200 } } }
			16 = { 3402 = { province_event = { id = naturaldisaster.102 days = 1 random = 200 } } }
			7 = {   796 = { province_event = { id = naturaldisaster.102 days = 1 random = 200 } } }
			1 = {  2205 = { province_event = { id = naturaldisaster.102 days = 1 random = 200 } } }
			8 = {  2207 = { province_event = { id = naturaldisaster.102 days = 1 random = 200 } } }
			10 = {  574 = { province_event = { id = naturaldisaster.102 days = 1 random = 200 } } }
			4 = {   649 = { province_event = { id = naturaldisaster.102 days = 1 random = 200 } } }
			41 = { 2586 = { province_event = { id = naturaldisaster.102 days = 1 random = 200 } } }
			1 = {  2097 = { province_event = { id = naturaldisaster.102 days = 1 random = 200 } } }
			1 = {   633 = { province_event = { id = naturaldisaster.102 days = 1 random = 200 } } }
			6 = {  2106 = { province_event = { id = naturaldisaster.102 days = 1 random = 200 } } }
			17 = {  632 = { province_event = { id = naturaldisaster.102 days = 1 random = 200 } } }
			5 = {  2855 = { province_event = { id = naturaldisaster.102 days = 1 random = 200 } } }
			12 = { 2531 = { province_event = { id = naturaldisaster.102 days = 1 random = 200 } } }
			15 = { 2410 = { province_event = { id = naturaldisaster.102 days = 1 random = 200 } } }
			1 = {   773 = { province_event = { id = naturaldisaster.102 days = 1 random = 200 } } }
			3 = {  2339 = { province_event = { id = naturaldisaster.102 days = 1 random = 200 } } }
			2 = {  1034 = { province_event = { id = naturaldisaster.102 days = 1 random = 200 } } }
			1 = {  1103 = { province_event = { id = naturaldisaster.102 days = 1 random = 200 } } }
			2 = {  1240 = { province_event = { id = naturaldisaster.102 days = 1 random = 200 } } }
			2 = {  3946 = { province_event = { id = naturaldisaster.102 days = 1 random = 200 } } }
			1 = {  2277 = { province_event = { id = naturaldisaster.102 days = 1 random = 200 } } }
			3 = {  3972 = { province_event = { id = naturaldisaster.102 days = 1 random = 200 } } }
		}
	}
}

province_event = {
	id = naturaldisaster.102
	title = "naturaldisaster.102.name"
	desc = "naturaldisaster.102.desc"
	picture = EARTHQUAKE_eventPicture
	
	is_triggered_only = yes
	
	option = {
		name = "naturaldisaster.102.opta"
		natural_disaster_volcano_effect = yes
	}
}

# FIXME: Almost no region exists, anymore! Remove `always = no` when fixed.
country_event = {
	id = naturaldisaster.201
	title = "naturaldisaster.201.name"
	desc = "naturaldisaster.201.desc"
	picture = STORM_eventPicture
	
	trigger = {
		always = no
		owns = 90 # Brugge
	}
	
	is_triggered_only = yes
	hidden = yes
	
	option = {
		name = "naturaldisaster.201.opta"
		random_list = {
			10 = { random_province = { limit = { sea_zone = { region  = baltic_sea_region } has_port = yes NOT = { is_empty = yes } has_storm_trigger = no } province_event = { id = naturaldisaster.202 days = 1 random = 200 } } }
			15 = { random_province = { limit = { sea_zone = { region  = north_atlantic_region } has_port = yes NOT = { is_empty = yes } has_storm_trigger = no } province_event = { id = naturaldisaster.202 days = 1 random = 200 } } }
			# 3 = { random_province = { limit = { sea_zone = { region  = central_atlantic_region } has_port = yes NOT = { is_empty = yes } has_storm_trigger = no } province_event = { id = naturaldisaster.202 days = 1 random = 200 } } }
			# 1 = { random_province = { limit = { sea_zone = { region  = mediterrenean_region } has_port = yes NOT = { is_empty = yes } has_storm_trigger = no } province_event = { id = naturaldisaster.202 days = 1 random = 200 } } }
			# 10 = { random_province = { limit = { sea_zone = { region  = american_east_coast_region } has_port = yes NOT = { is_empty = yes } has_storm_trigger = no } province_event = { id = naturaldisaster.203 days = 1 random = 200 } } }
			# 15 = { random_province = { limit = { sea_zone = { region  = caribbean_sea_region } has_port = yes NOT = { is_empty = yes } has_storm_trigger = no } province_event = { id = naturaldisaster.203 days = 1 random = 200 } } }
			# 2 = { random_province = { limit = { sea_zone = { region  = west_african_sea_region } has_port = yes NOT = { is_empty = yes } has_storm_trigger = no } province_event = { id = naturaldisaster.202 days = 1 random = 200 } } }
			3 = { random_province = { limit = { sea_zone = { region  = south_atlantic_region } has_port = yes NOT = { is_empty = yes } has_storm_trigger = no } province_event = { id = naturaldisaster.202 days = 1 random = 200 } } }
			# 10 = { random_province = { limit = { sea_zone = { region  = west_indian_ocean_region } has_port = yes NOT = { is_empty = yes } has_storm_trigger = no } province_event = { id = naturaldisaster.202 days = 1 random = 200 } } }
			# 2 = { random_province = { limit = { sea_zone = { region  = arabian_sea_region } has_port = yes NOT = { is_empty = yes } has_storm_trigger = no } province_event = { id = naturaldisaster.204 days = 1 random = 200 } } }
			# 15 = { random_province = { limit = { sea_zone = { region  = east_indian_ocean_region } has_port = yes NOT = { is_empty = yes } has_storm_trigger = no } province_event = { id = naturaldisaster.204 days = 1 random = 200 } } }
			# 2 = { random_province = { limit = { sea_zone = { region  = south_indian_ocean_region } has_port = yes NOT = { is_empty = yes } has_storm_trigger = no } province_event = { id = naturaldisaster.204 days = 1 random = 200 } } }
			# 10 = { random_province = { limit = { sea_zone = { region  = south_china_sea_region } has_port = yes NOT = { is_empty = yes } has_storm_trigger = no } province_event = { id = naturaldisaster.205 days = 1 random = 200 } } }
			# 15 = { random_province = { limit = { sea_zone = { region  = east_china_sea_region } has_port = yes NOT = { is_empty = yes } has_storm_trigger = no } province_event = { id = naturaldisaster.205 days = 1 random = 200 } } }
			# 2 = { random_province = { limit = { sea_zone = { region  = north_east_pacific_region } has_port = yes NOT = { is_empty = yes } has_storm_trigger = no } province_event = { id = naturaldisaster.202 days = 1 random = 200 } } }
			# 10 = { random_province = { limit = { sea_zone = { region  = south_east_pacific_region } has_port = yes NOT = { is_empty = yes } has_storm_trigger = no } province_event = { id = naturaldisaster.202 days = 1 random = 200 } } }
			# 2 = { random_province = { limit = { sea_zone = { region  = south_west_pacific_region } has_port = yes NOT = { is_empty = yes } has_storm_trigger = no } province_event = { id = naturaldisaster.204 days = 1 random = 200 } } }
			# 10 = { random_province = { limit = { sea_zone = { region  = north_west_pacific_region } has_port = yes NOT = { is_empty = yes } has_storm_trigger = no } province_event = { id = naturaldisaster.205 days = 1 random = 200 } } }
			# 4 = { random_province = { limit = { sea_zone = { region  = pacific_south_america_region } has_port = yes NOT = { is_empty = yes } has_storm_trigger = no } province_event = { id = naturaldisaster.203 days = 1 random = 200 } } }
			# 4 = { random_province = { limit = { sea_zone = { region  = atlantic_south_america_region } has_port = yes NOT = { is_empty = yes } has_storm_trigger = no } province_event = { id = naturaldisaster.202 days = 1 random = 200 } } }
		}
	}
}

province_event = {
	id = naturaldisaster.202
	title = "naturaldisaster.202.name"
	desc = "naturaldisaster.202.desc"
	picture = STORM_eventPicture
	
	is_triggered_only = yes
	hidden = yes
	
	option = {
		name = "naturaldisaster.202.opta"
		random_list = {
			80 = {
				storm_chaos_minor_effect = yes
				hidden_effect = { 90 = { change_variable = { which = minor_storm_around_the_world value = 1 } } }
			}
			20 = {
				storm_chaos_mild_effect = yes
				hidden_effect = { 90 = { change_variable = { which = medium_storm_around_the_world value = 1 } } }
			}
			1 = {
				storm_chaos_major_effect = yes
				random = {
					chance = 10
					set_variable = { which = rural_population_removed value = 0.005 }
					remove_rural_population_DEVS = yes
					set_variable = { which = urban_population_removed value = 0.001 }
					remove_urban_population_DEVS = yes
					update_base_values = yes
				}
				hidden_effect = { 90 = { change_variable = { which = major_storm_around_the_world value = 1 } } }
			}
		}
		every_country = {
			limit = {
				any_owned_province = { OR = { has_province_modifier = storm_chaos_minor has_province_modifier = storm_chaos_mild has_province_modifier = storm_chaos_major } }
			}
			country_event = { id = naturaldisaster.206 days = 0 }
		}
	}
}

province_event = {
	id = naturaldisaster.203
	title = "naturaldisaster.203.name"
	desc = "naturaldisaster.203.desc"
	picture = STORM_eventPicture
	
	is_triggered_only = yes
	hidden = yes
	
	option = {
		name = "naturaldisaster.202.opta"
		random_list = {
			80 = {
				storm_chaos_minor_effect = yes
				hidden_effect = { 90 = { change_variable = { which = minor_hurricane_around_the_world value = 1 } } }
			}
			20 = {
				storm_chaos_mild_effect = yes
				hidden_effect = { 90 = { change_variable = { which = medium_hurricane_around_the_world value = 1 } } }
			}
			1 = {
				storm_chaos_major_effect = yes
				hidden_effect = { 90 = { change_variable = { which = major_hurricane_around_the_world value = 1 } } }
			}
		}
		every_country = {
			limit = {
				any_owned_province = { OR = { has_province_modifier = storm_chaos_minor has_province_modifier = storm_chaos_mild has_province_modifier = storm_chaos_major } }
			}
			country_event = { id = naturaldisaster.207 days = 0 }
		}
	}
}

province_event = {
	id = naturaldisaster.204
	title = "naturaldisaster.204.name"
	desc = "naturaldisaster.204.desc"
	picture = STORM_eventPicture
	
	is_triggered_only = yes
	hidden = yes
	
	option = {
		name = "naturaldisaster.202.opta"
		random_list = {
			80 = {
				storm_chaos_minor_effect = yes
				hidden_effect = { 90 = { change_variable = { which = minor_cyclone_around_the_world value = 1 } } }
			}
			20 = {
				storm_chaos_mild_effect = yes
				hidden_effect = { 90 = { change_variable = { which = medium_cyclone_around_the_world value = 1 } } }
			}
			1 = {
				storm_chaos_major_effect = yes
				hidden_effect = { 90 = { change_variable = { which = major_cyclone_around_the_world value = 1 } } }
			}
		}
		every_country = {
			limit = {
				any_owned_province = { OR = { has_province_modifier = storm_chaos_minor has_province_modifier = storm_chaos_mild has_province_modifier = storm_chaos_major } }
			}
			country_event = { id = naturaldisaster.208 days = 0 }
		}
	}
}

province_event = {
	id = naturaldisaster.205
	title = "naturaldisaster.205.name"
	desc = "naturaldisaster.205.desc"
	picture = STORM_eventPicture
	
	is_triggered_only = yes
	hidden = yes
	
	option = {
		name = "naturaldisaster.202.opta"
		random_list = {
			80 = {
				storm_chaos_minor_effect = yes
				hidden_effect = { 90 = { change_variable = { which = minor_typhoon_around_the_world value = 1 } } }
			}
			20 = {
				storm_chaos_mild_effect = yes
				hidden_effect = { 90 = { change_variable = { which = medium_typhoon_around_the_world value = 1 } } }
			}
			1 = {
				storm_chaos_major_effect = yes
				hidden_effect = { 90 = { change_variable = { which = major_typhoon_around_the_world value = 1 } } }
			}
		}
		every_country = {
			limit = {
				any_owned_province = { OR = { has_province_modifier = storm_chaos_minor has_province_modifier = storm_chaos_mild has_province_modifier = storm_chaos_major } }
			}
			country_event = { id = naturaldisaster.209 days = 0 }
		}
	}
}

country_event = {
	id = naturaldisaster.206
	title = "naturaldisaster.206.name"
	desc = "naturaldisaster.206.desc"
	picture = STORM_eventPicture
	
	is_triggered_only = yes
	
	immediate = {
		hidden_effect = { 90 = { change_variable = { which = total_storms_around_the_world value = 1 } } }
	}
	
	option = {
		name = "naturaldisaster.206.opta"
		ai_chance = { factor = 20 modifier = { NOT = { treasury = 200 } factor = 0 } }
		trigger = { adm_tech = 35 }
		natural_disaster_help_effect = yes
	}
	option = {
		name = "naturaldisaster.206.optb"
		ai_chance = { factor = 75 }
		trigger = { adm_tech = 35 }
		natural_disaster_relief_effect = yes
	}
	option = {
		name = "naturaldisaster.206.optc"
		ai_chance = { factor = 50 }
		trigger = {
			adm_tech = 35
			is_subject_other_than_tributary_trigger = yes
		}
		country_event = { id = naturaldisaster.501 days = 5 }
	}
	option = {
		name = "naturaldisaster.206.optd"
		ai_chance = { factor = 5 }
		trigger = {
			adm_tech = 35
		}
	}
	option = {
		name = "naturaldisaster.206.opte"
		trigger = {
			NOT = { adm_tech = 35 }
		}
	}
}

country_event = {
	id = naturaldisaster.207
	title = "naturaldisaster.207.name"
	desc = "naturaldisaster.207.desc"
	picture = STORM_eventPicture
	
	is_triggered_only = yes
	
	immediate = {
		hidden_effect = { 90 = { change_variable = { which = total_storms_around_the_world value = 1 } } }
	}
	
	option = {
		name = "naturaldisaster.206.opta"
		ai_chance = { factor = 20 modifier = { NOT = { treasury = 200 } factor = 0 } }
		trigger = { adm_tech = 35 }
		natural_disaster_help_effect = yes
	}
	option = {
		name = "naturaldisaster.206.optb"
		ai_chance = { factor = 75 }
		trigger = { adm_tech = 35 }
		natural_disaster_relief_effect = yes
	}
	option = {
		name = "naturaldisaster.206.optc"
		ai_chance = { factor = 50 }
		trigger = {
			adm_tech = 35
			is_subject_other_than_tributary_trigger = yes
		}
		country_event = { id = naturaldisaster.501 days = 5 }
	}
	option = {
		name = "naturaldisaster.206.optd"
		ai_chance = { factor = 5 }
		trigger = {
			adm_tech = 35
		}
	}
	option = {
		name = "naturaldisaster.206.opte"
		trigger = {
			NOT = { adm_tech = 35 }
		}
	}
}

country_event = {
	id = naturaldisaster.208
	title = "naturaldisaster.208.name"
	desc = "naturaldisaster.208.desc"
	picture = STORM_eventPicture
	
	is_triggered_only = yes
	
	immediate = {
		hidden_effect = { 90 = { change_variable = { which = total_storms_around_the_world value = 1 } } }
	}
	
	option = {
		name = "naturaldisaster.206.opta"
		ai_chance = { factor = 20 modifier = { NOT = { treasury = 200 } factor = 0 } }
		trigger = { adm_tech = 35 }
		natural_disaster_help_effect = yes
	}
	option = {
		name = "naturaldisaster.206.optb"
		ai_chance = { factor = 75 }
		trigger = { adm_tech = 35 }
		natural_disaster_relief_effect = yes
	}
	option = {
		name = "naturaldisaster.206.optc"
		ai_chance = { factor = 50 }
		trigger = {
			adm_tech = 35
			is_subject_other_than_tributary_trigger = yes
		}
		country_event = { id = naturaldisaster.501 days = 5 }
	}
	option = {
		name = "naturaldisaster.206.optd"
		ai_chance = { factor = 5 }
		trigger = {
			adm_tech = 35
		}
	}
	option = {
		name = "naturaldisaster.206.opte"
		trigger = {
			NOT = { adm_tech = 35 }
		}
	}
}

country_event = {
	id = naturaldisaster.209
	title = "naturaldisaster.209.name"
	desc = "naturaldisaster.209.desc"
	picture = STORM_eventPicture
	
	is_triggered_only = yes
	
	immediate = {
		hidden_effect = { 90 = { change_variable = { which = total_sortms_around_the_world value = 1 } } }
	}
	
	option = {
		name = "naturaldisaster.206.opta"
		ai_chance = { factor = 20 modifier = { NOT = { treasury = 200 } factor = 0 } }
		trigger = { adm_tech = 35 }
		natural_disaster_help_effect = yes
	}
	option = {
		name = "naturaldisaster.206.optb"
		ai_chance = { factor = 75 }
		trigger = { adm_tech = 35 }
		natural_disaster_relief_effect = yes
	}
	option = {
		name = "naturaldisaster.206.optc"
		ai_chance = { factor = 50 }
		trigger = {
			adm_tech = 35
			is_subject_other_than_tributary_trigger = yes
		}
		country_event = { id = naturaldisaster.501 days = 5 }
	}
	option = {
		name = "naturaldisaster.206.optd"
		ai_chance = { factor = 5 }
		trigger = {
			adm_tech = 35
		}
	}
	option = {
		name = "naturaldisaster.206.opte"
		trigger = {
			NOT = { adm_tech = 35 }
		}
	}
}

country_event = {
	id = naturaldisaster.501
	title = "naturaldisaster.501.name"
	desc = "naturaldisaster.501.desc"
	picture = BURNING_CITY_eventPicture
	
	is_triggered_only = yes
	
	option = {
		name = "naturaldisaster.501.opta"
		ai_chance = { factor = 75 }
		FROM = {
			country_event = { id = naturaldisaster.502 days = 5 }
		}
	}
	option = {
		name = "naturaldisaster.501.optb"
		ai_chance = { factor = 25 }
		FROM = {
			country_event = { id = naturaldisaster.503 days = 5 }
		}
	}
}

country_event = {
	id = naturaldisaster.502
	title = "naturaldisaster.502.name"
	desc = "naturaldisaster.502.desc"
	picture = BURNING_CITY_eventPicture
	
	is_triggered_only = yes
	
	option = {
		name = "naturaldisaster.502.opta"
		natural_disaster_overlord_help_effect = yes
		FROM = { add_opinion = { who = ROOT modifier = disaster_help } }
	}
}

country_event = {
	id = naturaldisaster.503
	title = "naturaldisaster.503.name"
	desc = "naturaldisaster.503.desc"
	picture = BURNING_CITY_eventPicture
	
	is_triggered_only = yes
	
	immediate = {
		FROM = { add_opinion = { who = ROOT modifier = disaster_abandonned } }
	}
	
	option = {
		name = "naturaldisaster.503.opta"
		natural_disaster_help_effect = yes
	}
	option = {
		name = "naturaldisaster.503.optb"
		natural_disaster_relief_effect = yes
	}
	option = {
		name = "naturaldisaster.503.optc"
	}
}
