namespace = flavor_muz

country_event = {
	id = flavor_muz.1
	title = flavor_muz.1.t
	desc = flavor_muz.1.d
	picture = KING_SICK_IN_BED_eventPicture
	
	is_triggered_only = yes
	
	trigger = {
		dynasty = "Muzaffarid"
		has_country_modifier = "obstacle_feuding"
		OR = {
			num_of_states = 3
			num_of_territories = 3
			AND = {
				num_of_states = 2
				num_of_territories = 1
			}
			AND = {
				num_of_states = 1
				num_of_territories = 2
			}
		}
	}
	
	immediate = {
		hidden_effect = {
			random_list = {
				40 = {
					set_variable = { which = num_brothers value = 0 }
				}
				35 = {
					set_variable = { which = num_brothers value = 1 }
				}
				25 = {
					set_variable = { which = num_brothers value = 2 }
				}
			}
		}
	}
	
	option = {
		name = flavor_muz.1.a
		hidden_effect = {
			country_event = {
				id = flavor_muz.2
			}
		}
	}
}

country_event = {
	id = flavor_muz.2
	title = flavor_muz.2.t
	desc = flavor_muz.2.d
	picture = KING_SICK_IN_BED_eventPicture
	
	is_triggered_only = yes
	hidden = yes
	
	option = { # This is where we break apart the Muzaffarids into a bunch of states
		name = EVT_AI
		capital_scope = {
			set_province_flag = capital_brother_0
			every_province = {
				limit = {
					is_city = yes
					owned_by = ROOT
					area = PREV
				}
				set_province_flag = land_brother_0
			}
		}
		set_variable = { which = brother_count_iterator which = num_brothers }
		set_variable = { which = winning_prov_dev value = 0 }
		set_variable = { which = current_prov_check_dev value = 0 }
		while = { # First we dynamically choose highest dev provinces as capitals for each brother
			limit = {
				check_variable = { which = brother_count_iterator value = 1 }
			}
			every_owned_province = {
				limit = {
					NOT = {
						OR = {
							has_province_flag = capital_brother_0
							has_province_flag = land_brother_0
							has_province_flag = capital_brother_1
							has_province_flag = land_brother_1
							has_province_flag = capital_brother_2
							has_province_flag = land_brother_2
						}
					}
				}
				export_to_variable = {
					which = current_prov_check_dev
					value = development
				}
				if = {
					limit = {
						OR = {
							province_id = 1313 # Rey
							province_id = 405 # Golestan
							province_id = 410 # Baghdad
							province_id = 414 # Isfahan
							province_id = 416 # Tabriz
							province_id = 426 # Mazandaran
							province_id = 429 # Fars
							province_id = 435 # Kerman
							province_id = 447 # Herat
							province_id = 551 # Zaranj
						}
					}
					change_variable = { which = current_prov_check_dev value = 3 } # We weigh specific capitals a bit more
				}
				owner = {
					set_variable = { which = current_prov_check_dev which = PREV }
				}
				if = {
					limit = {
						owner = {
							check_variable = { which = current_prov_check_dev which = winning_prov_dev }
						}
					}
					if = {
						limit = {
							owner = {
								is_variable_equal = { which = brother_count_iterator value = 1 }
							}
						}
						ROOT = {
							every_owned_province = {
								limit = {
									has_province_flag = capital_brother_1
								}
								clr_province_flag = capital_brother_1
							}
						}
						set_province_flag = capital_brother_1
						owner = {
							set_variable = { which = winning_prov_dev which = current_prov_check_dev }
						}
					}
					if = {
						limit = {
							owner = {
								is_variable_equal = { which = brother_count_iterator value = 2 }
							}
						}
						ROOT = {
							every_owned_province = {
								limit = {
									has_province_flag = capital_brother_2
								}
								clr_province_flag = capital_brother_2
							}
						}
						set_province_flag = capital_brother_2
						owner = {
							set_variable = { which = winning_prov_dev which = current_prov_check_dev }
						}
					}
				}
			}
			# Need to make sure that we picked the most ideal capital, so we're going to do a tiebreaker if there is a tie.
			
			set_variable = { which = tiebreaker_check_dev value = 0 }
			set_variable = { which = winner_tiebreaker_check_dev value = 0 }
			every_owned_province = {
				limit = {
					NOT = {
						OR = {
							has_province_flag = capital_brother_0
							has_province_flag = land_brother_0
							has_province_flag = capital_brother_1
							has_province_flag = land_brother_1
							has_province_flag = capital_brother_2
							has_province_flag = land_brother_2
						}
					}
				}
				export_to_variable = {
					which = current_prov_check_dev
					value = development
				}
				every_province = {
					limit = {
						is_city = yes
						owned_by = ROOT
						area = PREV
					}
					export_to_variable = {
						which = tiebreaker_check_dev
						value = development
					}
					owner = {
						change_variable = { which = tiebreaker_check_dev which = PREV }
					}
				}
				every_province = {
					limit = {
						is_city = yes
						owned_by = ROOT
						OR = {
							NOT = { is_variable_equal = { which = brother_count_iterator value = 1 } }
							has_province_flag = capital_brother_1
						}
						OR = {
							NOT = { is_variable_equal = { which = brother_count_iterator value = 2 } }
							has_province_flag = capital_brother_2
						}
					}
					every_province = {
						limit = {
							is_city = yes
							owned_by = root
							area = PREV
						}
						export_to_variable = {
							which = winner_tiebreaker_check_dev
							value = development
						}
						owner = {
							change_variable = { which = winner_tiebreaker_check_dev which = PREV }
						}
					}
				}
				if = {
					limit = {
						owner = {
							check_variable = { which = tiebreaker_check_dev which = winner_tiebreaker_check_dev }
						}
					}
					if = {
						limit = {
							owner = {
								is_variable_equal = { which = brother_count_iterator value = 1 }
							}
						}
						ROOT = {
							every_owned_province = {
								limit = {
									has_province_flag = capital_brother_1
								}
								clr_province_flag = capital_brother_1
							}
						}
						set_province_flag = capital_brother_1
					}
					if = {
						limit = {
							owner = {
								is_variable_equal = { which = brother_count_iterator value = 2 }
							}
						}
						ROOT = {
							every_owned_province = {
								limit = {
									has_province_flag = capital_brother_2
								}
								clr_province_flag = capital_brother_2
							}
						}
						set_province_flag = capital_brother_2
					}
				}
				
				set_variable = { which = tiebreaker_check_dev value = 0 }
				set_variable = { which = winner_tiebreaker_check_dev value = 0 }
			}
			if = {
				limit = {
					is_variable_equal = { which = brother_count_iterator value = 1 }
				}
				ROOT = {
					every_owned_province = {
						limit = {
							has_province_flag = capital_brother_1
						}
						every_province = {
							limit = {
								is_city = yes
								owned_by = ROOT
								area = PREV
							}
							set_province_flag = land_brother_1
						}
					}
				}
			}
			if = {
				limit = {
					is_variable_equal = { which = brother_count_iterator value = 2 }
				}
				ROOT = {
					every_owned_province = {
						limit = {
							has_province_flag = capital_brother_2
						}
						every_province = {
							limit = {
								is_city = yes
								owned_by = ROOT
								area = PREV
							}
							set_province_flag = land_brother_2
						}
					}
				}
			}
			change_variable = { which = brother_count_iterator value = -1 }
			set_variable = { which = winning_prov_dev value = 0 }
			set_variable = { which = current_prov_check_dev value = 0 }
		}
		# We now have the properly set capital area for each brother. Now we want the total development under each.
		set_variable = { which = which_brother value = 0 }
		
		set_variable = { which = brother_0_dev value = 0 }
		every_owned_province = {
			limit = {
				has_province_flag = land_brother_0
			}
			export_to_variable = {
				which = brother_0_dev
				value = development
			}
			owner = {
				change_variable = { which = brother_0_dev which = PREV }
			}
		}
		
		if = {
			limit = {
				check_variable = { which = num_brothers value = 1 }
			}
			set_variable = { which = brother_1_dev value = 0 }
			every_owned_province = {
				limit = {
					has_province_flag = land_brother_1
				}
				export_to_variable = {
					which = brother_1_dev
					value = development
				}
				owner = {
					change_variable = { which = brother_1_dev which = PREV }
				}
			}
		}
		if = {
			limit = {
				check_variable = { which = num_brothers value = 2 }
			}
			set_variable = { which = brother_2_dev value = 0 }
			every_owned_province = {
				limit = {
					has_province_flag = land_brother_2
				}
				export_to_variable = {
					which = brother_2_dev
					value = development
				}
				owner = {
					change_variable = { which = brother_2_dev which = PREV }
				}
			}
		}
		
		# find the one with the least dev
		if = {
			limit = {
				check_variable = { which = num_brothers value = 0 }
				any_owned_province = {
					has_province_flag = capital_brother_0
					NOT = { has_province_flag = stop_counting }
				}
				OR = {
					NOT = { check_variable = { which = num_brothers value = 1 } }
					check_variable = { which = brother_1_dev which = brother_0_dev }
				}
				OR = {
					NOT = { check_variable = { which = num_brothers value = 2 } }
					check_variable = { which = brother_2_dev which = brother_0_dev }
				}
			}
			set_variable = { which = which_brother value = 0 }
		}
		if = {
			limit = {
				check_variable = { which = num_brothers value = 1 }
				any_owned_province = {
					has_province_flag = capital_brother_1
					NOT = { has_province_flag = stop_counting }
				}
				check_variable = { which = brother_0_dev which = brother_1_dev }
				OR = {
					NOT = { check_variable = { which = num_brothers value = 2 } }
					check_variable = { which = brother_2_dev which = brother_1_dev }
				}
			}
			set_variable = { which = which_brother value = 1 }
		}
		if = {
			limit = {
				check_variable = { which = num_brothers value = 2 }
				any_owned_province = {
					has_province_flag = capital_brother_2
					NOT = { has_province_flag = stop_counting }
				}
				check_variable = { which = brother_0_dev which = brother_2_dev }
				check_variable = { which = brother_1_dev which = brother_2_dev }
			}
			set_variable = { which = which_brother value = 2 }
		}
		
		set_variable = { which = current_area_check_dev value = 0 }
		set_variable = { which = winning_area_dev value = 0 }
		
		# Now we select areas to give out to each brother, starting with the guy with the lowest dev.
		while = {
			limit = {
				NOT = {
					is_variable_equal = { which = which_brother value = -1 }
				}
			}
			if = {
				limit = {
					is_variable_equal = { which = which_brother value = 0 }
				}
				every_owned_province = {
					limit = {
						has_province_flag = capital_brother_0
					}
					set_province_flag = stop_counting
				}
				every_owned_province = {
					limit = {
						has_province_flag = land_brother_0
					}
					every_neighbor_province = {
						limit = {
							owned_by = ROOT
							NOT = {
								OR = {
									has_province_flag = land_brother_0
									has_province_flag = land_brother_1
									has_province_flag = land_brother_2
								}
							}
						}
						if = {
							limit = {
								ROOT = {
									any_owned_province = {
										has_province_flag = capital_brother_0
										has_province_flag = stop_counting
									}
								}
							}
							every_province = {
								limit = {
									is_city = yes
									has_province_flag = capital_brother_0
									has_province_flag = stop_counting
								}
								clr_province_flag = stop_counting
							}
						}
						every_province = {
							limit = {
								is_city = yes
								owned_by = ROOT
								area = PREV
							}
							export_to_variable = {
								which = current_area_check_dev
								value = development
							}
							owner = {
								change_variable = { which = current_area_check_dev which = PREV }
							}
						}
						if = {
							limit = {
								owner = {
									check_variable = { which = current_area_check_dev which = winning_area_dev }
								}
							}
							ROOT = {
								every_owned_province = {
									limit = {
										has_province_flag = winning_area
									}
									clr_province_flag = winning_area
								}
							}
							set_province_flag = winning_area
							owner = {
								set_variable = { which = winning_area_dev which = current_area_check_dev }
							}
						}
					}
				}
				# Now that we've isolated the bordering area with the biggest dev, we give it to the proper person
				
				every_owned_province = {
					limit = {
						has_province_flag = winning_area
					}
					clr_province_flag = winning_area
					set_province_flag = land_brother_0
					every_province = {
						limit = {
							is_city = yes
							owned_by = ROOT
							area = PREV
						}
						set_province_flag = land_brother_0
					}
				}
			}
			if = {
				limit = {
					is_variable_equal = { which = which_brother value = 1 }
				}
				every_owned_province = {
					limit = {
						has_province_flag = capital_brother_1
					}
					set_province_flag = stop_counting
				}
				every_owned_province = {
					limit = {
						has_province_flag = land_brother_1
					}
					every_neighbor_province = {
						limit = {
							owned_by = ROOT
							NOT = {
								OR = {
									has_province_flag = land_brother_0
									has_province_flag = land_brother_1
									has_province_flag = land_brother_2
								}
							}
						}
						if = {
							limit = {
								ROOT = {
									any_owned_province = {
										has_province_flag = capital_brother_1
										has_province_flag = stop_counting
									}
								}
							}
							every_province = {
								limit = {
									has_province_flag = capital_brother_1
									has_province_flag = stop_counting
								}
								clr_province_flag = stop_counting
							}
						}
						every_province = {
							limit = {
								is_city = yes
								owned_by = ROOT
								area = PREV
							}
							export_to_variable = {
								which = current_area_check_dev
								value = development
							}
							owner = {
								change_variable = { which = current_area_check_dev which = PREV }
							}
						}
						if = {
							limit = {
								owner = {
									check_variable = { which = current_area_check_dev which = winning_area_dev }
								}
							}
							ROOT = {
								every_owned_province = {
									limit = {
										has_province_flag = winning_area
									}
									clr_province_flag = winning_area
								}
							}
							set_province_flag = winning_area
							owner = {
								set_variable = { which = winning_area_dev which = current_area_check_dev }
							}
						}
					}
				}
				# Now that we've isolated the bordering area with the biggest dev, we give it to the proper person
				
				every_owned_province = {
					limit = {
						has_province_flag = winning_area
					}
					clr_province_flag = winning_area
					set_province_flag = land_brother_1
					every_province = {
						limit = {
							owned_by = ROOT
							area = PREV
						}
						set_province_flag = land_brother_1
					}
				}
			}
			if = {
				limit = {
					is_variable_equal = { which = which_brother value = 2 }
				}
				every_owned_province = {
					limit = {
						has_province_flag = capital_brother_2
					}
					set_province_flag = stop_counting
				}
				every_owned_province = {
					limit = {
						has_province_flag = land_brother_2
					}
					every_neighbor_province = {
						limit = {
							owned_by = ROOT
							NOT = {
								OR = {
									has_province_flag = land_brother_0
									has_province_flag = land_brother_1
									has_province_flag = land_brother_2
								}
							}
						}
						if = {
							limit = {
								ROOT = {
									any_owned_province = {
										has_province_flag = capital_brother_2
										has_province_flag = stop_counting
									}
								}
							}
							every_province = {
								limit = {
									has_province_flag = capital_brother_2
									has_province_flag = stop_counting
								}
								clr_province_flag = stop_counting
							}
						}
						every_province = {
							limit = {
								is_city = yes
								owned_by = ROOT
								area = PREV
							}
							export_to_variable = {
								which = current_area_check_dev
								value = development
							}
							owner = {
								change_variable = { which = current_area_check_dev which = PREV }
							}
						}
						if = {
							limit = {
								owner = {
									check_variable = { which = current_area_check_dev which = winning_area_dev }
								}
							}
							ROOT = {
								every_owned_province = {
									limit = {
										has_province_flag = winning_area
									}
									clr_province_flag = winning_area
								}
							}
							set_province_flag = winning_area
							owner = {
								set_variable = { which = winning_area_dev which = current_area_check_dev }
							}
						}
					}
				}
				# Now that we've isolated the bordering area with the biggest dev, we give it to the proper person
				
				every_owned_province = {
					limit = {
						has_province_flag = winning_area
					}
					clr_province_flag = winning_area
					set_province_flag = land_brother_2
					every_province = {
						limit = {
							owned_by = ROOT
							area = PREV
						}
						set_province_flag = land_brother_2
					}
				}
			}
			
			set_variable = { which = which_brother value = -1 }
			set_variable = { which = brother_0_dev value = 0 }
			set_variable = { which = brother_1_dev value = 0 }
			set_variable = { which = brother_2_dev value = 0 }
			# find the one with the least dev
			if = {
				limit = {
					check_variable = { which = num_brothers value = 0 }
					any_owned_province = {
						has_province_flag = capital_brother_0
						NOT = { has_province_flag = stop_counting }
					}
					OR = {
						NOT = { check_variable = { which = num_brothers value = 1 } }
						check_variable = { which = brother_1_dev which = brother_0_dev }
					}
					OR = {
						NOT = { check_variable = { which = num_brothers value = 2 } }
						check_variable = { which = brother_2_dev which = brother_0_dev }
					}
				}
				set_variable = { which = which_brother value = 0 }
			}
			if = {
				limit = {
					check_variable = { which = num_brothers value = 1 }
					any_owned_province = {
						has_province_flag = capital_brother_1
						NOT = { has_province_flag = stop_counting }
					}
					check_variable = { which = brother_0_dev which = brother_1_dev }
					OR = {
						NOT = { check_variable = { which = num_brothers value = 2 } }
						check_variable = { which = brother_2_dev which = brother_1_dev }
					}
				}
				set_variable = { which = which_brother value = 1 }
			}
			if = {
				limit = {
					check_variable = { which = num_brothers value = 2 }
					any_owned_province = {
						has_province_flag = capital_brother_2
						NOT = { has_province_flag = stop_counting }
					}
					check_variable = { which = brother_0_dev which = brother_2_dev }
					check_variable = { which = brother_1_dev which = brother_2_dev }
				}
				set_variable = { which = which_brother value = 2 }
			}
			
			set_variable = { which = current_area_check_dev value = 0 }
			set_variable = { which = winning_area_dev value = 0 }
		}
		
		# Now that we've properly distributed all the areas, we need to gather up tags to distribute. We check capitals first and see if they're specific provinces.
		
		
		# Isfahan
		if = {
			limit = {
				414 = {
					OR = {
						AND = {
							has_province_flag = land_brother_1
							NOT = {
								AND = {
									429 = {
										has_province_flag = land_brother_1
									}
									NOT = { has_province_flag = capital_brother_1 }
									NOT = { exists = MUZ }
								}
								AND = {
									435 = {
										has_province_flag = capital_brother_1
									}
									NOT = { exists = KER }
								}
								AND = {
									1313 = {
										has_province_flag = capital_brother_1
									}
									NOT = { exists = TEH }
								}
								AND = {
									416 = {
										has_province_flag = land_brother_1
									}
									NOT = { has_province_flag = capital_brother_1 }
									NOT = { exists = TAB }
								}
								AND = {
									426 = {
										has_province_flag = capital_brother_1
									}
									NOT = { exists = MZA }
								}
								AND = {
									410 = {
										has_province_flag = land_brother_1
									}
									NOT = { has_province_flag = capital_brother_1 }
									NOT = { exists = IRQ }
								}
								AND = {
									447 = {
										has_province_flag = land_brother_1
									}
									NOT = { has_province_flag = capital_brother_1 }
									NOT = { exists = KTD }
								}
								AND = {
									551 = {
										has_province_flag = capital_brother_1
									}
									NOT = { exists = MIH }
								}
								AND = {
									405 = {
										has_province_flag = capital_brother_1
									}
									NOT = { exists = ATB }
								}
							}
						}
						AND = {
							has_province_flag = land_brother_2
							NOT = {
								AND = {
									429 = {
										has_province_flag = land_brother_2
									}
									NOT = { has_province_flag = capital_brother_2 }
									NOT = { exists = MUZ }
								}
								AND = {
									435 = {
										has_province_flag = capital_brother_2
									}
									NOT = { exists = KER }
								}
								AND = {
									1313 = {
										has_province_flag = capital_brother_2
									}
									NOT = { exists = TEH }
								}
								AND = {
									416 = {
										has_province_flag = land_brother_2
									}
									NOT = { has_province_flag = capital_brother_2 }
									NOT = { exists = TAB }
								}
								AND = {
									426 = {
										has_province_flag = capital_brother_2
									}
									NOT = { exists = MZA }
								}
								AND = {
									410 = {
										has_province_flag = land_brother_2
									}
									NOT = { has_province_flag = capital_brother_2 }
									NOT = { exists = IRQ }
								}
								AND = {
									447 = {
										has_province_flag = land_brother_2
									}
									NOT = { has_province_flag = capital_brother_2 }
									NOT = { exists = KTD }
								}
								AND = {
									551 = {
										has_province_flag = capital_brother_2
									}
									NOT = { exists = MIH }
								}
								AND = {
									405 = {
										has_province_flag = capital_brother_2
									}
									NOT = { exists = ATB }
								}
							}
						}
					}
				}
				NOT = { exists = ISF }
			}
			every_province = {
				limit = {
					is_core = ISF
				}
				remove_core = ISF
			}
			every_province = {
				limit = {
					is_city = yes
					is_core = ROOT
				}
				add_permanent_claim = ISF
			}
			if = {
				limit = {
					414 = {
						has_province_flag = land_brother_1
					}
				}
				every_owned_province = {
					limit = {
						has_province_flag = land_brother_1
					}
					cede_province = ISF
					add_core = ISF
					add_core = ROOT
					clr_province_flag = land_brother_1
				}
			}
			if = {
				limit = {
					414 = {
						has_province_flag = land_brother_2
					}
				}
				every_owned_province = {
					limit = {
						has_province_flag = land_brother_2
					}
					cede_province = ISF
					add_core = ISF
					add_core = ROOT
					clr_province_flag = land_brother_2
				}
			}
			ISF = {
				set_dynasty = PREV
				change_religion = PREV
				change_primary_culture = PREV
				every_owned_province = {
					limit = {
						OR = {
							has_province_flag = capital_brother_1
							has_province_flag = capital_brother_2
						}
					}
					PREV = {
						Effect_set_capital = { target=PREV }
						hidden_effect = {
							country_event = {
								id = miscexpenses.001
							}
						}
					}
					if = {
						limit = {
							has_province_flag = capital_brother_1
						}
						clr_province_flag = capital_brother_1
					}
					if = {
						limit = {
							has_province_flag = capital_brother_2
						}
						clr_province_flag = capital_brother_2
					}
					clr_province_flag = stop_counting
				}
				add_country_modifier = {
					name = "obstacle_feuding"
					duration = -1
				}
				PREV = {
					add_historical_rival = THIS
				}
				add_historical_rival = PREV
			}
		}
		
		# Fars
		if = {
			limit = {
				429 = {
					OR = {
						AND = {
							has_province_flag = land_brother_1
							NOT = {
								AND = {
									414 = {
										has_province_flag = capital_brother_1
									}
									NOT = { exists = ISF }
								}
								AND = {
									435 = {
										has_province_flag = capital_brother_1
									}
									NOT = { exists = KER }
								}
								AND = {
									1313 = {
										has_province_flag = capital_brother_1
									}
									NOT = { exists = TEH }
								}
								AND = {
									416 = {
										has_province_flag = land_brother_1
									}
									NOT = { has_province_flag = capital_brother_1 }
									NOT = { exists = TAB }
								}
								AND = {
									426 = {
										has_province_flag = capital_brother_1
									}
									NOT = { exists = MZA }
								}
								AND = {
									410 = {
										has_province_flag = land_brother_1
									}
									NOT = { has_province_flag = capital_brother_1 }
									NOT = { exists = IRQ }
								}
								AND = {
									447 = {
										has_province_flag = land_brother_1
									}
									NOT = { has_province_flag = capital_brother_1 }
									NOT = { exists = KTD }
								}
								AND = {
									551 = {
										has_province_flag = capital_brother_1
									}
									NOT = { exists = MIH }
								}
								AND = {
									405 = {
										has_province_flag = capital_brother_1
									}
									NOT = { exists = ATB }
								}
							}
						}
						AND = {
							has_province_flag = land_brother_2
							NOT = {
								AND = {
									414 = {
										has_province_flag = capital_brother_2
									}
									NOT = { exists = ISF }
								}
								AND = {
									435 = {
										has_province_flag = capital_brother_2
									}
									NOT = { exists = KER }
								}
								AND = {
									1313 = {
										has_province_flag = capital_brother_2
									}
									NOT = { exists = TEH }
								}
								AND = {
									416 = {
										has_province_flag = land_brother_2
									}
									NOT = { has_province_flag = capital_brother_2 }
									NOT = { exists = TAB }
								}
								AND = {
									426 = {
										has_province_flag = capital_brother_2
									}
									NOT = { exists = MZA }
								}
								AND = {
									410 = {
										has_province_flag = land_brother_2
									}
									NOT = { has_province_flag = capital_brother_2 }
									NOT = { exists = IRQ }
								}
								AND = {
									447 = {
										has_province_flag = land_brother_2
									}
									NOT = { has_province_flag = capital_brother_2 }
									NOT = { exists = KTD }
								}
								AND = {
									551 = {
										has_province_flag = capital_brother_2
									}
									NOT = { exists = MIH }
								}
								AND = {
									405 = {
										has_province_flag = capital_brother_2
									}
									NOT = { exists = ATB }
								}
							}
						}
					}
				}
				NOT = { exists = MUZ }
			}
			every_province = {
				limit = {
					is_city = yes
					is_core = MUZ
				}
				remove_core = MUZ
			}
			every_province = {
				limit = {
					is_city = yes
					is_core = ROOT
				}
				add_permanent_claim = MUZ
			}
			if = {
				limit = {
					429 = {
						has_province_flag = land_brother_1
					}
				}
				every_owned_province = {
					limit = {
						has_province_flag = land_brother_1
					}
					cede_province = MUZ
					add_core = MUZ
					add_core = ROOT
					clr_province_flag = land_brother_1
				}
			}
			if = {
				limit = {
					429 = {
						has_province_flag = land_brother_2
					}
				}
				every_owned_province = {
					limit = {
						has_province_flag = land_brother_2
					}
					cede_province = MUZ
					add_core = MUZ
					add_core = ROOT
					clr_province_flag = land_brother_2
				}
			}
			MUZ = {
				set_dynasty = PREV
				change_religion = PREV
				change_primary_culture = PREV
				every_owned_province = {
					limit = {
						OR = {
							has_province_flag = capital_brother_1
							has_province_flag = capital_brother_2
						}
					}
					PREV = {
						Effect_set_capital = { target=PREV }
						hidden_effect = {
							country_event = {
								id = miscexpenses.001
							}
						}
					}
					if = {
						limit = {
							has_province_flag = capital_brother_1
						}
						clr_province_flag = capital_brother_1
					}
					if = {
						limit = {
							has_province_flag = capital_brother_2
						}
						clr_province_flag = capital_brother_2
					}
					clr_province_flag = stop_counting
				}
				add_country_modifier = {
					name = "obstacle_feuding"
					duration = -1
				}
				PREV = {
					add_historical_rival = THIS
				}
				add_historical_rival = PREV
			}
		}
		
		# Tabriz
		if = {
			limit = {
				416 = {
					OR = {
						AND = {
							has_province_flag = land_brother_1
							NOT = {
								AND = {
									414 = {
										has_province_flag = capital_brother_1
									}
									NOT = { exists = ISF }
								}
								AND = {
									435 = {
										has_province_flag = capital_brother_1
									}
									NOT = { exists = KER }
								}
								AND = {
									1313 = {
										has_province_flag = capital_brother_1
									}
									NOT = { exists = TEH }
								}
								AND = {
									429 = {
										has_province_flag = capital_brother_1
									}
									NOT = { exists = MUZ }
								}
								AND = {
									426 = {
										has_province_flag = capital_brother_1
									}
									NOT = { exists = MZA }
								}
								AND = {
									410 = {
										has_province_flag = land_brother_1
									}
									NOT = { has_province_flag = capital_brother_1 }
									NOT = { exists = IRQ }
								}
								AND = {
									447 = {
										has_province_flag = land_brother_1
									}
									NOT = { has_province_flag = capital_brother_1 }
									NOT = { exists = KTD }
								}
								AND = {
									551 = {
										has_province_flag = capital_brother_1
									}
									NOT = { exists = MIH }
								}
								AND = {
									405 = {
										has_province_flag = capital_brother_1
									}
									NOT = { exists = ATB }
								}
							}
						}
						AND = {
							has_province_flag = land_brother_2
							NOT = {
								AND = {
									414 = {
										has_province_flag = capital_brother_2
									}
									NOT = { exists = ISF }
								}
								AND = {
									435 = {
										has_province_flag = capital_brother_2
									}
									NOT = { exists = KER }
								}
								AND = {
									1313 = {
										has_province_flag = capital_brother_2
									}
									NOT = { exists = TEH }
								}
								AND = {
									429 = {
										has_province_flag = capital_brother_2
									}
									NOT = { exists = MUZ }
								}
								AND = {
									426 = {
										has_province_flag = capital_brother_2
									}
									NOT = { exists = MZA }
								}
								AND = {
									410 = {
										has_province_flag = land_brother_2
									}
									NOT = { has_province_flag = capital_brother_2 }
									NOT = { exists = IRQ }
								}
								AND = {
									447 = {
										has_province_flag = land_brother_2
									}
									NOT = { has_province_flag = capital_brother_2 }
									NOT = { exists = KTD }
								}
								AND = {
									551 = {
										has_province_flag = capital_brother_2
									}
									NOT = { exists = MIH }
								}
								AND = {
									405 = {
										has_province_flag = capital_brother_2
									}
									NOT = { exists = ATB }
								}
							}
						}
					}
				}
				NOT = { exists = TAB }
			}
			every_province = {
				limit = {
					is_city = yes
					is_core = TAB
				}
				remove_core = TAB
			}
			every_province = {
				limit = {
					is_city = yes
					is_core = ROOT
				}
				add_permanent_claim = TAB
			}
			if = {
				limit = {
					416 = {
						has_province_flag = land_brother_1
					}
				}
				every_owned_province = {
					limit = {
						has_province_flag = land_brother_1
					}
					cede_province = TAB
					add_core = TAB
					add_core = ROOT
					clr_province_flag = land_brother_1
				}
			}
			if = {
				limit = {
					416 = {
						has_province_flag = land_brother_2
					}
				}
				every_owned_province = {
					limit = {
						has_province_flag = land_brother_2
					}
					cede_province = TAB
					add_core = TAB
					add_core = ROOT
					clr_province_flag = land_brother_2
				}
			}
			TAB = {
				set_dynasty = PREV
				change_religion = PREV
				change_primary_culture = PREV
				every_owned_province = {
					limit = {
						OR = {
							has_province_flag = capital_brother_1
							has_province_flag = capital_brother_2
						}
					}
					PREV = {
						Effect_set_capital = { target=PREV }
						hidden_effect = {
							country_event = {
								id = miscexpenses.001
							}
						}
					}
					if = {
						limit = {
							has_province_flag = capital_brother_1
						}
						clr_province_flag = capital_brother_1
					}
					if = {
						limit = {
							has_province_flag = capital_brother_2
						}
						clr_province_flag = capital_brother_2
					}
					clr_province_flag = stop_counting
				}
				add_country_modifier = {
					name = "obstacle_feuding"
					duration = -1
				}
				PREV = {
					add_historical_rival = THIS
				}
				add_historical_rival = PREV
			}
		}
		
		# Kerman
		if = {
			limit = {
				435 = {
					OR = {
						AND = {
							has_province_flag = land_brother_1
							NOT = {
								AND = {
									429 = {
										has_province_flag = land_brother_1
									}
									NOT = { has_province_flag = capital_brother_1 }
									NOT = { exists = MUZ }
								}
								AND = {
									414 = {
										has_province_flag = land_brother_1
									}
									NOT = { has_province_flag = capital_brother_1 }
									NOT = { exists = ISF }
								}
								AND = {
									1313 = {
										has_province_flag = capital_brother_1
									}
									NOT = { exists = TEH }
								}
								AND = {
									416 = {
										has_province_flag = land_brother_1
									}
									NOT = { has_province_flag = capital_brother_1 }
									NOT = { exists = TAB }
								}
								AND = {
									426 = {
										has_province_flag = land_brother_1
									}
									NOT = { has_province_flag = capital_brother_1 }
									NOT = { exists = MZA }
								}
								AND = {
									410 = {
										has_province_flag = land_brother_1
									}
									NOT = { has_province_flag = capital_brother_1 }
									NOT = { exists = IRQ }
								}
								AND = {
									447 = {
										has_province_flag = land_brother_1
									}
									NOT = { has_province_flag = capital_brother_1 }
									NOT = { exists = KTD }
								}
								AND = {
									551 = {
										has_province_flag = capital_brother_1
									}
									NOT = { exists = MIH }
								}
								AND = {
									405 = {
										has_province_flag = capital_brother_1
									}
									NOT = { exists = ATB }
								}
							}
						}
						AND = {
							has_province_flag = land_brother_2
							NOT = {
								AND = {
									429 = {
										has_province_flag = land_brother_2
									}
									NOT = { has_province_flag = capital_brother_2 }
									NOT = { exists = MUZ }
								}
								AND = {
									414 = {
										has_province_flag = land_brother_2
									}
									NOT = { has_province_flag = capital_brother_2 }
									NOT = { exists = ISF }
								}
								AND = {
									1313 = {
										has_province_flag = capital_brother_2
									}
									NOT = { exists = TEH }
								}
								AND = {
									416 = {
										has_province_flag = land_brother_2
									}
									NOT = { has_province_flag = capital_brother_2 }
									NOT = { exists = TAB }
								}
								AND = {
									426 = {
										has_province_flag = land_brother_2
									}
									NOT = { has_province_flag = capital_brother_2 }
									NOT = { exists = MZA }
								}
								AND = {
									410 = {
										has_province_flag = land_brother_2
									}
									NOT = { has_province_flag = capital_brother_2 }
									NOT = { exists = IRQ }
								}
								AND = {
									447 = {
										has_province_flag = land_brother_2
									}
									NOT = { has_province_flag = capital_brother_2 }
									NOT = { exists = KTD }
								}
								AND = {
									551 = {
										has_province_flag = capital_brother_2
									}
									NOT = { exists = MIH }
								}
								AND = {
									405 = {
										has_province_flag = capital_brother_2
									}
									NOT = { exists = ATB }
								}
							}
						}
					}
				}
				NOT = { exists = KER }
			}
			every_province = {
				limit = {
					is_city = yes
					is_core = KER
				}
				remove_core = KER
			}
			every_province = {
				limit = {
					is_city = yes
					is_core = ROOT
				}
				add_permanent_claim = KER
			}
			if = {
				limit = {
					435 = {
						has_province_flag = land_brother_1
					}
				}
				every_owned_province = {
					limit = {
						has_province_flag = land_brother_1
					}
					cede_province = KER
					add_core = KER
					add_core = ROOT
					clr_province_flag = land_brother_1
				}
			}
			if = {
				limit = {
					435 = {
						has_province_flag = land_brother_2
					}
				}
				every_owned_province = {
					limit = {
						has_province_flag = land_brother_2
					}
					cede_province = KER
					add_core = KER
					add_core = ROOT
					clr_province_flag = land_brother_2
				}
			}
			KER = {
				set_dynasty = PREV
				change_religion = PREV
				change_primary_culture = PREV
				every_owned_province = {
					limit = {
						OR = {
							has_province_flag = capital_brother_1
							has_province_flag = capital_brother_2
						}
					}
					PREV = {
						Effect_set_capital = { target=PREV }
						hidden_effect = {
							country_event = {
								id = miscexpenses.001
							}
						}
					}
					if = {
						limit = {
							has_province_flag = capital_brother_1
						}
						clr_province_flag = capital_brother_1
					}
					if = {
						limit = {
							has_province_flag = capital_brother_2
						}
						clr_province_flag = capital_brother_2
					}
					clr_province_flag = stop_counting
				}
				add_country_modifier = {
					name = "obstacle_feuding"
					duration = -1
				}
				PREV = {
					add_historical_rival = THIS
				}
				add_historical_rival = PREV
			}
		}
		
		# Tehran
		if = {
			limit = {
				1313 = {
					OR = {
						AND = {
							has_province_flag = land_brother_1
							NOT = {
								AND = {
									429 = {
										has_province_flag = land_brother_1
									}
									NOT = { has_province_flag = capital_brother_1 }
									NOT = { exists = MUZ }
								}
								AND = {
									414 = {
										has_province_flag = land_brother_1
									}
									NOT = { has_province_flag = capital_brother_1 }
									NOT = { exists = ISF }
								}
								AND = {
									435 = {
										has_province_flag = land_brother_1
									}
									NOT = { has_province_flag = capital_brother_1 }
									NOT = { exists = KER }
								}
								AND = {
									416 = {
										has_province_flag = land_brother_1
									}
									NOT = { has_province_flag = capital_brother_1 }
									NOT = { exists = TAB }
								}
								AND = {
									426 = {
										has_province_flag = land_brother_1
									}
									NOT = { has_province_flag = capital_brother_1 }
									NOT = { exists = MZA }
								}
								AND = {
									410 = {
										has_province_flag = land_brother_1
									}
									NOT = { has_province_flag = capital_brother_1 }
									NOT = { exists = IRQ }
								}
								AND = {
									447 = {
										has_province_flag = land_brother_1
									}
									NOT = { has_province_flag = capital_brother_1 }
									NOT = { exists = KTD }
								}
								AND = {
									551 = {
										has_province_flag = land_brother_1
									}
									NOT = { has_province_flag = capital_brother_1 }
									NOT = { exists = MIH }
								}
								AND = {
									405 = {
										has_province_flag = land_brother_1
									}
									NOT = { has_province_flag = capital_brother_1 }
									NOT = { exists = ATB }
								}
							}
						}
						AND = {
							has_province_flag = land_brother_2
							NOT = {
								AND = {
									429 = {
										has_province_flag = land_brother_2
									}
									NOT = { has_province_flag = capital_brother_2 }
									NOT = { exists = MUZ }
								}
								AND = {
									414 = {
										has_province_flag = land_brother_2
									}
									NOT = { has_province_flag = capital_brother_2 }
									NOT = { exists = ISF }
								}
								AND = {
									435 = {
										has_province_flag = land_brother_2
									}
									NOT = { has_province_flag = capital_brother_2 }
									NOT = { exists = KER }
								}
								AND = {
									416 = {
										has_province_flag = land_brother_2
									}
									NOT = { has_province_flag = capital_brother_2 }
									NOT = { exists = TAB }
								}
								AND = {
									426 = {
										has_province_flag = land_brother_2
									}
									NOT = { has_province_flag = capital_brother_2 }
									NOT = { exists = MZA }
								}
								AND = {
									410 = {
										has_province_flag = land_brother_2
									}
									NOT = { has_province_flag = capital_brother_2 }
									NOT = { exists = IRQ }
								}
								AND = {
									447 = {
										has_province_flag = land_brother_2
									}
									NOT = { has_province_flag = capital_brother_2 }
									NOT = { exists = KTD }
								}
								AND = {
									551 = {
										has_province_flag = land_brother_2
									}
									NOT = { has_province_flag = capital_brother_2 }
									NOT = { exists = MIH }
								}
								AND = {
									405 = {
										has_province_flag = land_brother_2
									}
									NOT = { has_province_flag = capital_brother_2 }
									NOT = { exists = ATB }
								}
							}
						}
					}
				}
				NOT = { exists = TEH }
			}
			every_province = {
				limit = {
					is_city = yes
					is_core = TEH
				}
				remove_core = TEH
			}
			every_province = {
				limit = {
					is_city = yes
					is_core = ROOT
				}
				add_permanent_claim = TEH
			}
			if = {
				limit = {
					1313 = {
						has_province_flag = land_brother_1
					}
				}
				every_owned_province = {
					limit = {
						has_province_flag = land_brother_1
					}
					cede_province = TEH
					add_core = TEH
					add_core = ROOT
					clr_province_flag = land_brother_1
				}
			}
			if = {
				limit = {
					1313 = {
						has_province_flag = land_brother_2
					}
				}
				every_owned_province = {
					limit = {
						has_province_flag = land_brother_2
					}
					cede_province = TEH
					add_core = TEH
					add_core = ROOT
					clr_province_flag = land_brother_2
				}
			}
			TEH = {
				set_dynasty = PREV
				change_religion = PREV
				change_primary_culture = PREV
				every_owned_province = {
					limit = {
						OR = {
							has_province_flag = capital_brother_1
							has_province_flag = capital_brother_2
						}
					}
					PREV = {
						Effect_set_capital = { target=PREV }
						hidden_effect = {
							country_event = {
								id = miscexpenses.001
							}
						}
					}
					if = {
						limit = {
							has_province_flag = capital_brother_1
						}
						clr_province_flag = capital_brother_1
					}
					if = {
						limit = {
							has_province_flag = capital_brother_2
						}
						clr_province_flag = capital_brother_2
					}
					clr_province_flag = stop_counting
				}
				add_country_modifier = {
					name = "obstacle_feuding"
					duration = -1
				}
				PREV = {
					add_historical_rival = THIS
				}
				add_historical_rival = PREV
			}
		}
		# If we got here and there's still unallocated capitals, we give them to pretender rebels
		every_owned_province =
		{
			limit = {
				OR = {
					has_province_flag = capital_brother_1
					has_province_flag = capital_brother_2
				}
			}
			spawn_rebels = {
				type = pretender_rebels
				size = 3
			}
			if = {
				limit = {
					has_province_flag = capital_brother_1
				}
				clr_province_flag = capital_brother_1
			}
			if = {
				limit = {
					has_province_flag = capital_brother_2
				}
				clr_province_flag = capital_brother_2
			}
			clr_province_flag = stop_counting
		}
		
		
		#after we're done, clean up all the stray flags
		
		every_province = {
			limit = {
				OR = {
					has_province_flag = capital_brother_0
					has_province_flag = land_brother_0
					has_province_flag = capital_brother_1
					has_province_flag = land_brother_1
					has_province_flag = capital_brother_2
					has_province_flag = land_brother_2
				}
			}
			set_variable = { which = current_prov_check_dev value = 0 }
			set_variable = { which = current_prov_check_dev value = 0 }
			set_variable = { which = tiebreaker_check_dev value = 0 }
			set_variable = { which = winner_tiebreaker_check_dev value = 0 }
			set_variable = { which = brother_0_dev value = 0 }
			set_variable = { which = brother_1_dev value = 0 }
			set_variable = { which = brother_2_dev value = 0 }
			if = {
				limit = {
					has_province_flag = capital_brother_0
				}
				clr_province_flag = capital_brother_0
				clr_province_flag = stop_counting
			}
			if = {
				limit = {
					has_province_flag = land_brother_0
				}
				clr_province_flag = land_brother_0
			}
			if = {
				limit = {
					has_province_flag = capital_brother_1
				}
				clr_province_flag = capital_brother_1
				clr_province_flag = stop_counting
			}
			if = {
				limit = {
					has_province_flag = land_brother_1
				}
				clr_province_flag = land_brother_1
			}
			if = {
				limit = {
					has_province_flag = capital_brother_2
				}
				clr_province_flag = capital_brother_2
				clr_province_flag = stop_counting
			}
			if = {
				limit = {
					has_province_flag = land_brother_2
				}
				clr_province_flag = land_brother_2
			}
		}
	}
}

country_event = {
	id = flavor_muz.3
	title = flavor_muz.3.t
	desc = flavor_muz.3.d
	picture = KING_SICK_IN_BED_eventPicture
	
	fire_only_once = yes
	hidden = yes
	
	trigger = {
		tag = MUZ
		ai = yes
		ISF = {
			ai = yes
		}
		offensive_war_with = ISF
		war_score_against = {
			who = ISF
			value = 100
		}
		NOT = { is_year = 1358 }
	}
	
	mean_time_to_happen = { months = 1 }
	
	option = {
		name = EVT_AI
		ISF = {
			every_owned_province = {
				limit = {
					is_core = ISF
				}
				cede_province = MUZ
			}
		}
	}
}