namespace = POP_Plague

### By Demian, with considerable revision work by Dezuman

country_event = { ### This event initiates a plague wave
	id = POP_Plague.001
	title = "POP_Plague.001.t"
	desc = "POP_Plague.001.d"
	picture = CITY_DEVELOPMENT_AU_eventPicture
	hidden = yes
	
	#mean_time_to_happen = {
	#    days = 900
	#}
	
	trigger = {
		has_country_flag = center_of_universe
		NOT = { has_country_modifier = plague_triggered }
		NOT = { has_global_flag = plague_begun }
	}
	
	mean_time_to_happen = { months = 1 }
	
	immediate = {
		random_list = {
			10 = {
				country_event = {
					id = POP_Plague.002
					days = 5475
				}
				add_country_modifier = {
					name = plague_imminent
					duration = 5475
				}
			}
			20 = {
				country_event = {
					id = POP_Plague.002
					days = 7300
				}
				add_country_modifier = {
					name = plague_imminent
					duration = 7300
				}
			}
			30 = {
				country_event = {
					id = POP_Plague.002
					days = 9125
				}
				add_country_modifier = {
					name = plague_imminent
					duration = 9125
				}
			}
			20 = {
				country_event = {
					id = POP_Plague.002
					days = 10950
				}
				add_country_modifier = {
					name = plague_imminent
					duration = 10950
				}
			}
			10 = {
				country_event = {
					id = POP_Plague.002
					days = 12775
				}
				add_country_modifier = {
					name = plague_imminent
					duration = 12775
				}
			}
		}
	}
	
	option = {
		name = "POP_Plague.001.a"
		
		add_country_modifier = {
			name = plague_triggered
			duration = 13300
		}
	}
}

country_event = { ### This event initiates a plague wave
	id = POP_Plague.002
	title = "POP_Plague.002.t"
	desc = "POP_Plague.002.d"
	picture = CITY_DEVELOPMENT_AU_eventPicture
	is_triggered_only = yes ### Deactivated for hands off
	hidden = yes
	
	trigger = {
		
	}
	
	immediate = {
		every_country = {
			limit = {
				any_owned_province = {
					is_city = yes
					OR = {
						continent = europe
						continent = mena
					}
				}
			}
			set_country_flag = 0_plague_percent
			set_variable = {   which = plague_death_rural_count  		   value = 0.01 }
			set_variable = {   which = plague_death_urban_count  		   value = 0.01 }
			set_variable = {   which = plague_death_total_count			   value = 0.01 }
			set_variable = {   which = plague_pop_at_start				   value = 0 }
			set_variable = {   which = plague_pop_at_start				   which = country_total_population }
			set_variable = {   which = plague_death_percentage			   value = 0.01 }
			
			country_event = {
				id = POP_Plague.003
			}
		}
		
		hidden_effect = {
			
			country_event = {
				id = POP_Plague.006
				days = 30
			}
			country_event = {
				id = POP_Plague.050
				days = 1825
			}
		}
		
		### Section responsible for plague diminishing through time ###
		set_variable = { which = plague_time_diminish value = 0 }
		if = {
			limit = {
				is_year = 1356
				NOT = { is_year = 1400 }
			}
			set_variable = { which = plague_time_diminish value = 1 }
		}
		if = {
			limit = {
				is_year = 1400
				NOT = { is_year = 1450 }
			}
			set_variable = { which = plague_time_diminish value = 0.85 }
		}
		if = {
			limit = {
				is_year = 1450
				NOT = { is_year = 1500 }
			}
			set_variable = { which = plague_time_diminish value = 0.75 }
		}
		if = {
			limit = {
				is_year = 1500
				NOT = { is_year = 1550 }
			}
			set_variable = { which = plague_time_diminish value = 0.60 }
		}
		if = {
			limit = {
				is_year = 1550
				NOT = { is_year = 1600 }
			}
			set_variable = { which = plague_time_diminish value = 0.50 }
		}
		if = {
			limit = {
				is_year = 1600
				NOT = { is_year = 1650 }
			}
			set_variable = { which = plague_time_diminish value = 0.40 }
		}
		# Might as well
		if = {
			limit = {
				is_year = 1650
			}
			set_variable = { which = plague_time_diminish value = 0.30 }
		}
		every_province = {
			limit = {
				is_city = yes
			}
			set_variable = { which = plague_time_diminish value = 0 }
			set_variable = { which = plague_time_diminish which = PREV }
			set_variable = { which = plague_vulnerability value = 0 }
			set_variable = { which = plague_vulnerability which = base_plague_vulnerability }
			trigger_switch = {
				on_trigger = has_building
				road_network = {
					multiply_variable = { which = plague_vulnerability value = 1.10 }
				}
				paved_road_network = {
					multiply_variable = { which = plague_vulnerability value = 1.2 }
				}
				highway_network = {
					multiply_variable = { which = plague_vulnerability value = 1.25 }
				}
				road_and_rail_network = {
					multiply_variable = { which = plague_vulnerability value = 1.3 }
				}
			}
			trigger_switch = {
				on_trigger = has_building
				harbour_infrastructure_1 = {
					multiply_variable = { which = plague_vulnerability value = 1.05 }
					set_province_flag = plague_port_potential
				}
				harbour_infrastructure_2 = {
					multiply_variable = { which = plague_vulnerability value = 1.05 }
					set_province_flag = plague_port_potential
				}
				harbour_infrastructure_3 = {
					multiply_variable = { which = plague_vulnerability value = 1.1 }
					set_province_flag = plague_port_potential
				}
				harbour_infrastructure_4 = {
					multiply_variable = { which = plague_vulnerability value = 1.15 }
					set_province_flag = plague_port_potential
				}
				harbour_infrastructure_5 = {
					multiply_variable = { which = plague_vulnerability value = 1.15 }
					set_province_flag = plague_port_potential
				}
			}
			trigger_switch = {
				on_trigger = has_province_modifier
				minor_center_of_trade = {
					multiply_variable = { which = plague_vulnerability value = 1.1 }
				}
				important_center_of_trade = {
					multiply_variable = { which = plague_vulnerability value = 1.125 }
				}
				major_center_of_trade = {
					multiply_variable = { which = plague_vulnerability value = 1.15 }
				}
				dominant_center_of_trade = {
					multiply_variable = { which = plague_vulnerability value = 1.175 }
				}
			}
			trigger_switch = {
				on_trigger = has_province_modifier
				minor_center_of_transport = {
					multiply_variable = { which = plague_vulnerability value = 1.025 }
				}
				important_center_of_transport = {
					multiply_variable = { which = plague_vulnerability value = 1.05 }
				}
				major_center_of_transport = {
					multiply_variable = { which = plague_vulnerability value = 1.075 }
				}
				dominant_center_of_transport = {
					multiply_variable = { which = plague_vulnerability value = 1.1 }
				}
			}
			set_variable = { 	  which = plague_population value = 0 }
			set_variable = { 	  which = plague_rural	    value = 0 }
			set_variable = { 	  which = plague_rural	    which = rural_population }
			multiply_variable = { which = plague_rural 		value = 0.007 }
			multiply_variable = { which = plague_rural 		which = rural_density }
			set_variable = { 	  which = plague_population which = urban_population }
			multiply_variable = { which = plague_population value = 0.025 }
			
			# Reduces urban pop impact on plague strength, also reduce casualties later!
			trigger_switch = {
				on_trigger = has_building
				town_hall = {
					multiply_variable = { which = plague_population value = 0.9 }
				}
				urban_infrastructure_1 = {
					multiply_variable = { which = plague_population value = 0.8 }
				}
				urban_infrastructure_2 = {
					multiply_variable = { which = plague_population value = 0.7 }
				}
				urban_infrastructure_3 = {
					multiply_variable = { which = plague_population value = 0.6 }
				}
				urban_infrastructure_4 = {
					multiply_variable = { which = plague_population value = 0.5 }
				}
				urban_infrastructure_5 = {
					multiply_variable = { which = plague_population value = 0.4 }
				}
			}
			
			change_variable = {   which = plague_population which = plague_rural }
			change_variable = {   which = plague_population value = 1 }
		}
	}
	
	option = {
		name = "POP_Plague.002.a"
		
		set_global_flag = plague_begun
		country_event = {
			id = POP_Plague.004
			days = 2
		}
		random_list = {
			75 = {
				random_province = {
					limit = {
						is_city = yes
						continent = europe
						NOT = { has_province_flag = plague_attacked }
						OR = {
							has_province_modifier = major_center_of_trade
							has_province_modifier = dominant_center_of_trade
							has_province_modifier = important_center_of_trade
						}
					}
					
					plague_calculate_province_strength_seed = yes
					plague_assign_plague_modifier = yes
					
					province_event = {
						id = POP_Plague.021
						days = 5
					}
				}
			}
			25 = {
				random_province = {
					limit = {
						is_city = yes
						continent = europe
						NOT = { has_province_flag = plague_attacked }
						has_province_modifier = minor_center_of_trade
					}
					
					plague_calculate_province_strength_seed = yes
					plague_assign_plague_modifier = yes
					
					province_event = {
						id = POP_Plague.021
						days = 5
					}
				}
			}
		}
		random_list = {
			75 = {
				random_province = {
					limit = {
						is_city = yes
						continent = mena
						NOT = { has_province_flag = plague_attacked }
						OR = {
							has_province_modifier = major_center_of_trade
							has_province_modifier = dominant_center_of_trade
							has_province_modifier = important_center_of_trade
						}
					}
					
					plague_calculate_province_strength_seed = yes
					plague_assign_plague_modifier = yes
					
					province_event = {
						id = POP_Plague.021
						days = 5
					}
				}
			}
			25 = {
				random_province = {
					limit = {
						is_city = yes
						continent = mena
						NOT = { has_province_flag = plague_attacked }
						has_province_modifier = minor_center_of_trade
					}
					
					plague_calculate_province_strength_seed = yes
					plague_assign_plague_modifier = yes
					
					province_event = {
						id = POP_Plague.021
						days = 5
					}
				}
			}
		}
	}
}

country_event = { ### This event announces to countries that have the potential to be affected that a plague wave has begun
	id = POP_Plague.003
	title = "POP_Plague.003.t"
	desc = "POP_Plague.003.d"
	picture = PLAGUE_eventPicture
	is_triggered_only = yes
	hidden = no
	
	immediate = {
		
		hidden_effect = {
			clr_country_flag = ports_burghers_understanding
			clr_country_flag = trade_burghers_understanding
			clr_country_flag = plague_measures_understanding
			clr_country_flag = plague_bad_port
			clr_country_flag = plague_okay_port
			clr_country_flag = plague_good_port
			
			set_variable = { which = ports_burghers_resistance 		value = 0 }
			set_variable = { which = trade_burghers_resistance 		value = 0 }
			set_variable = { which = plague_measures_resistance 	value = 0 }
			
			random_list = {
				15 = { set_variable = { which = ports_burghers_resistance 		value = 2 } }
				20 = { set_variable = { which = ports_burghers_resistance 		value = 1.5 } }
				30 = { set_variable = { which = ports_burghers_resistance 		value = 1 } }
				20 = { set_variable = { which = ports_burghers_resistance 		value = 0.5 } }
				15 = { set_country_flag = ports_burghers_understanding }
			}
			random_list = {
				15 = { set_variable = { which = trade_burghers_resistance 		value = 2 } }
				20 = { set_variable = { which = trade_burghers_resistance 		value = 1.5 } }
				30 = { set_variable = { which = trade_burghers_resistance 		value = 1 } }
				20 = { set_variable = { which = trade_burghers_resistance 		value = 0.5 } }
				15 = { set_country_flag = trade_burghers_understanding }
			}
			random_list = {
				15 = { set_variable = { which = plague_measures_resistance 		value = 2 } }
				20 = { set_variable = { which = plague_measures_resistance 		value = 1.5 } }
				30 = { set_variable = { which = plague_measures_resistance 		value = 1 } }
				20 = { set_variable = { which = plague_measures_resistance 		value = 0.5 } }
				15 = { set_country_flag = plague_measures_understanding }
			}
			random_list = {
				33 = { set_country_flag = plague_bad_port }
				34 = { set_country_flag = plague_okay_port }
				33 = { set_country_flag = plague_good_port }
			}
		}
	}
	option = { ### It is in God's hands
		name = "POP_Plague.003.a"
	}
}

country_event = { ### Second plague innitiation component
	id = POP_Plague.004
	title = "POP_Plague.004.t"
	desc = "POP_Plague.004.d"
	picture = CITY_DEVELOPMENT_AU_eventPicture
	is_triggered_only = yes
	hidden = yes
	
	immediate = {
		
	}
	option = {
		name = "POP_Plague.004.a"
		
		random_list = {
			75 = {
				random_province = {
					limit = {
						is_city = yes
						continent = europe
						NOT = { has_province_flag = plague_attacked }
						OR = {
							has_province_modifier = major_center_of_trade
							has_province_modifier = dominant_center_of_trade
							has_province_modifier = important_center_of_trade
						}
					}
					
					plague_calculate_province_strength_seed = yes
					plague_assign_plague_modifier = yes
					
					province_event = {
						id = POP_Plague.021
						days = 5
					}
				}
			}
			25 = {
				random_province = {
					limit = {
						is_city = yes
						continent = europe
						NOT = { has_province_flag = plague_attacked }
						has_province_modifier = minor_center_of_trade
					}
					
					plague_calculate_province_strength_seed = yes
					plague_assign_plague_modifier = yes
					
					province_event = {
						id = POP_Plague.021
						days = 5
					}
				}
			}
		}
	}
}

country_event = {
	id = POP_Plague.006
	title = "POP_Plague.006.t"
	desc = "POP_Plague.006.d"
	picture = CITY_DEVELOPMENT_AU_eventPicture
	is_triggered_only = yes
	hidden = yes
	
	trigger = {
		has_global_flag = plague_begun
	}
	
	immediate = {
	}
	
	option = {
		name = "POP_Plague.006.a"
		every_province = {
			limit = {
				has_province_flag = plague_attacked
				OR = {
					has_province_modifier = plague_devastating
					has_province_modifier = plague_terrible
				}
			}
			plague_spread_effect = yes
		}
		
		country_event = {
			id = POP_Plague.007
			days = 5
		}
	}
}
country_event = {
	id = POP_Plague.007
	title = "POP_Plague.007.t"
	desc = "POP_Plague.007.d"
	picture = CITY_DEVELOPMENT_AU_eventPicture
	is_triggered_only = yes
	hidden = yes
	
	trigger = {
		has_global_flag = plague_begun
	}
	
	immediate = {
	}
	
	option = {
		name = "POP_Plague.007.a"
		every_province = {
			limit = {
				has_province_flag = plague_attacked
				OR = {
					has_province_modifier = plague_severe
					has_province_modifier = plague_moderate
				}
			}
			plague_spread_effect = yes
		}
		
		country_event = {
			id = POP_Plague.008
			days = 5
		}
	}
}

country_event = {
	id = POP_Plague.008
	title = "POP_Plague.008.t"
	desc = "POP_Plague.008.d"
	picture = CITY_DEVELOPMENT_AU_eventPicture
	is_triggered_only = yes
	hidden = yes
	
	trigger = {
		has_global_flag = plague_begun
	}
	
	immediate = {
	}
	
	option = {
		name = "POP_Plague.008.a"
		every_province = {
			limit = {
				has_province_flag = plague_attacked
				has_province_modifier = plague_mild
			}
			plague_spread_effect = yes
		}
		
		country_event = {
			id = POP_Plague.009
			days = 5
		}
	}
}

country_event = {
	id = POP_Plague.009
	title = "POP_Plague.009.t"
	desc = "POP_Plague.009.d"
	picture = CITY_DEVELOPMENT_AU_eventPicture
	is_triggered_only = yes
	hidden = yes
	
	trigger = {
		has_global_flag = plague_begun
	}
	
	immediate = {
	}
	
	option = {
		name = "POP_Plague.009.a"
		every_province = {
			plague_spread_port_effect = yes
		}
		
		country_event = {
			id = POP_Plague.011
			days = 5
		}
	}
}

#id = POP_Plague.010

country_event = {
	id = POP_Plague.011
	title = "POP_Plague.011.t"
	desc = "POP_Plague.011.d"
	picture = CITY_DEVELOPMENT_AU_eventPicture
	is_triggered_only = yes
	hidden = yes
	
	trigger = {
		has_global_flag = plague_begun
	}
	
	immediate = {
		
	}
	
	option = {
		name = "POP_Plague.011.a"
		
		every_province = {
			limit = {
				has_province_flag = plague_attacked_set
				NOT = { has_province_flag = plague_attacked }
			}
			
			plague_calculate_province_strength = yes
			
			plague_assign_plague_modifier = yes
			
			if = {
				limit = {
					OR = {
						has_province_modifier = minor_center_of_trade
						has_province_modifier = important_center_of_trade
						has_province_modifier = major_center_of_trade
						has_province_modifier = dominant_center_of_trade
					}
				}
				plague_trade_center_spread = yes
			}
			clr_province_flag = plague_evaded
		}
		country_event = {
			id = POP_Plague.012
			days = 6
		}
	}
}

country_event = { ### This event causes the death and damage from plague
	id = POP_Plague.012
	title = "POP_Plague.012.t"
	desc = "POP_Plague.012.d"
	picture = CITY_DEVELOPMENT_AU_eventPicture
	is_triggered_only = yes
	hidden = yes
	
	trigger = {
		has_global_flag = plague_begun
	}
	
	immediate = {
		every_province = {
			limit = {
				is_city = yes
				has_province_flag = plague_attacked
				NOT = { has_province_flag = plague_population_death_applied }
			}
			set_province_flag = plague_population_death_applied
			set_variable = { which = plague_province_trauma    			value = 0 }
			set_variable = { which = plague_urban_death					value = 0 }
			set_variable = { which = plague_rural_death 				value = 0 }
			if = {
				limit = {
					check_variable = { which = plague_strength_local value = 150 }
				}
				set_variable = { 	  which = plague_urban_death 				value = 150 }
				set_variable = { 	  which = plague_rural_death 				value = 150 }
				set_variable = {      which = plague_province_trauma			value = 150 }
			}
			if = {
				limit = {
					NOT = { check_variable = { which = plague_strength_local value = 150 } }
				}
				set_variable = {  		which = plague_urban_death 					which = plague_strength_local }
				set_variable = {  		which = plague_rural_death 					which = plague_strength_local }
				set_variable = {        which = plague_province_trauma				which = plague_strength_local }
			}
			divide_variable = { which = plague_province_trauma    value = 30 }
			if = {
				limit = {
					check_variable = { which = province_trauma value = 0.01 }
				}
				change_variable = { which = province_trauma which = plague_province_trauma }
			}
			else = {
				set_variable = { which = province_trauma value = 0 }
				change_variable = { which = province_trauma which = plague_province_trauma }
			}
			if = {
				limit = {
					check_variable = { which = urban_population value = 1 }
				}
				trigger_switch = {
					on_trigger = has_building
					town_hall = {
						multiply_variable = { which = plague_urban_death value = 0.975 }
					}
					urban_infrastructure_1 = {
						multiply_variable = { which = plague_urban_death value = 0.95 }
					}
					urban_infrastructure_2 = {
						multiply_variable = { which = plague_urban_death value = 0.9 }
					}
					urban_infrastructure_3 = {
						multiply_variable = { which = plague_urban_death value = 0.85 }
					}
					urban_infrastructure_4 = {
						multiply_variable = { which = plague_urban_death value = 0.80 }
					}
					urban_infrastructure_5 = {
						multiply_variable = { which = plague_urban_death value = 0.75 }
					}
				}
			}
			divide_variable = {   which = plague_urban_death 		value = 300 }
			divide_variable = {   which = plague_rural_death 		value = 700 }
			set_variable = { 	  which = plague_urban_density		which = urban_density }
			set_variable = { 	  which = plague_rural_density		which = rural_density }
			if = {
				limit = {
					check_variable = { which = plague_urban_density value = 1 }
				}
				subtract_variable = { which = plague_urban_density   value = 1 }
				divide_variable = {   which = plague_urban_density   value = 2 }
				change_variable = {   which = plague_urban_density   value = 1 }
			}
			if = {
				limit = {
					check_variable = { which = plague_rural_density value = 1 }
				}
				subtract_variable = { which = plague_rural_density   value = 1 }
				divide_variable = {   which = plague_rural_density   value = 2 }
				change_variable = {   which = plague_rural_density   value = 1 }
			}
			multiply_variable = {     which = plague_urban_death           which = plague_urban_density }
			multiply_variable = {     which = plague_rural_death           which = plague_rural_density }
			set_variable = {    	  which = urban_percentage_removed     which = plague_urban_death }
			set_variable = {    	  which = rural_percentage_removed     which = plague_rural_death }
			set_variable = { 		  which = plague_death_rural_count     value = 0 }
			set_variable = { 		  which = plague_death_urban_count     value = 0 }
			set_variable = {		  which = plague_death_total_count	   value = 0 }
			change_variable = { 	  which = plague_death_rural_count	   which = rural_population }
			#change_variable = { 	  which = plague_death_rural_count	   which = rural_population_growing }
			change_variable = { 	  which = plague_death_urban_count	   which = urban_population }
			#change_variable = { 	  which = plague_death_urban_count	   which = urban_population_growing }
			multiply_variable = { 	  which = plague_death_rural_count	   which = rural_percentage_removed }
			multiply_variable = { 	  which = plague_death_urban_count	   which = urban_percentage_removed }
			change_variable = { 	  which = plague_death_total_count	   which = plague_death_rural_count }
			change_variable = { 	  which = plague_death_total_count	   which = plague_death_urban_count }
			remove_urban_population_DEVS = yes
			remove_rural_population_DEVS = yes
			update_base_values = yes
			
			owner = { change_variable = { which = plague_death_rural_count	which = PREV } }
			owner = { change_variable = { which = plague_death_urban_count	which = PREV } }
			owner = { change_variable = { which = plague_death_total_count	which = PREV } }
			
			set_variable = { 		  which = plague_death_rural_count     value = 0 }
			set_variable = { 		  which = plague_death_urban_count     value = 0 }
			set_variable = {		  which = plague_death_total_count	   value = 0 }
		}
	}
	option = {
		name = "POP_Plague.012.a"
		country_event = {
			id = POP_Plague.006
			days = 6
		}
	}
}

province_event = {
	id = POP_Plague.020
	title = "POP_Plague.020.t"
	desc = "POP_Plague.020.d"
	picture = CITY_DEVELOPMENT_AU_eventPicture
	is_triggered_only = yes
	hidden = yes
	
	trigger = {
		NOT = { has_province_flag = plague_attacked }
		NOT = { has_province_flag = plague_attacked_set }
	}
	
	immediate = {
		
	}
	
	option = {
		name = "POP_Plague.020.a"
		
		set_province_flag = plague_from_abroad_attacked
		set_province_flag = plague_attacked_set
		set_variable = { which = plague_strength value = 0 }
		set_variable = { which = plague_strength which = plague_strength_dormant }
		
		plague_calculate_province_strength = yes
		
		plague_assign_plague_modifier = yes
		
		province_event = {
			id = POP_Plague.021
		}
	}
}

province_event = { ### Quarentine ###
	id = POP_Plague.021
	title = "POP_Plague.021.t"
	desc = "POP_Plague.021.d"
	picture = CITY_DEVELOPMENT_AU_eventPicture
	is_triggered_only = yes
	hidden = no
	
	trigger = {
		NOT = {
			owner = {
				check_variable = { which = plague_death_percentage 	value = 5 }
			}
		}
		#	num_of_cities = 4
	}
	
	immediate = {
		
	}
	
	option = { ### Take Quarentine Measures in infected area ###
		name = "POP_Plague.021.a"
		ai_chance = {
			factor = 0
		}
		
		owner = { add_mil_power = -25 }
		custom_tooltip = quarantine_a
		hidden_effect = {
			set_province_flag = plague_population_death_applied
			set_variable = { which = plague_urban_death					value = 0 }
			set_variable = { which = plague_rural_death 				value = 0 }
			if = {
				limit = {
					check_variable = { which = plague_strength_local value = 150 }
				}
				set_variable = { 	  which = plague_urban_death 				value = 150 }
				set_variable = { 	  which = plague_rural_death 			    value = 150 }
				set_variable = {      which = plague_province_trauma    		value = 150 }
			}
			if = {
				limit = {
					NOT = { check_variable = { which = plague_strength_local value = 150 } }
				}
				set_variable = {  		which = plague_urban_death 					which = plague_strength_local }
				set_variable = {  		which = plague_rural_death 					which = plague_strength_local }
				set_variable = {        which = plague_province_trauma				which = plague_strength_local }
			}
			multiply_variable = { which = plague_urban_death				value = 1.35 }
			multiply_variable = { which = plague_rural_death				value = 1.35 }
			multiply_variable = { which = plague_province_trauma			value = 1.35 }
			divide_variable = { which = plague_province_trauma    value = 30 }
			if = {
				limit = {
					check_variable = { which = province_trauma value = 0.01 }
				}
				change_variable = { which = province_trauma which = plague_province_trauma }
			}
			else = {
				set_variable = { which = province_trauma value = 0 }
				change_variable = { which = province_trauma which = plague_province_trauma }
			}
			if = {
				limit = {
					check_variable = { which = urban_population value = 1 }
				}
				trigger_switch = {
					on_trigger = has_building
					town_hall = {
						multiply_variable = { which = plague_urban_death value = 0.975 }
					}
					urban_infrastructure_1 = {
						multiply_variable = { which = plague_urban_death value = 0.95 }
					}
					urban_infrastructure_2 = {
						multiply_variable = { which = plague_urban_death value = 0.9 }
					}
					urban_infrastructure_3 = {
						multiply_variable = { which = plague_urban_death value = 0.85 }
					}
					urban_infrastructure_4 = {
						multiply_variable = { which = plague_urban_death value = 0.80 }
					}
					urban_infrastructure_5 = {
						multiply_variable = { which = plague_urban_death value = 0.75 }
					}
				}
			}
			divide_variable = {   which = plague_urban_death 		value = 300 }
			divide_variable = {   which = plague_rural_death 		value = 700 }
			set_variable = { 	  which = plague_urban_density	    which = urban_density }
			set_variable = { 	  which = plague_rural_density	    which = rural_density }
			if = {
				limit = {
					check_variable = { which = plague_urban_density value = 1 }
				}
				subtract_variable = { which = plague_urban_density   value = 1 }
				divide_variable = {   which = plague_urban_density   value = 2 }
				change_variable = {   which = plague_urban_density   value = 1 }
			}
			if = {
				limit = {
					check_variable = { which = plague_rural_density value = 1 }
				}
				subtract_variable = { which = plague_rural_density   value = 1 }
				divide_variable = {   which = plague_rural_density   value = 2 }
				change_variable = {   which = plague_rural_density   value = 1 }
			}
			multiply_variable = {     which = plague_urban_death           which = plague_urban_density }
			multiply_variable = {     which = plague_rural_death           which = plague_rural_density }
			set_variable = {    	  which = urban_percentage_removed     which = plague_urban_death }
			set_variable = {    	  which = rural_percentage_removed     which = plague_rural_death }
			set_variable = { 		  which = plague_death_rural_count     value = 0 }
			set_variable = { 		  which = plague_death_urban_count     value = 0 }
			set_variable = {		  which = plague_death_total_count	   value = 0 }
			change_variable = { 	  which = plague_death_rural_count	   which = rural_population }
			#change_variable = { 	  which = plague_death_rural_count	   which = rural_population_growing }
			change_variable = { 	  which = plague_death_urban_count	   which = urban_population }
			#change_variable = { 	  which = plague_death_urban_count	   which = urban_population_growing }
			multiply_variable = { 	  which = plague_death_rural_count	   which = rural_percentage_removed }
			multiply_variable = { 	  which = plague_death_urban_count	   which = urban_percentage_removed }
			change_variable = { 	  which = plague_death_total_count	   which = plague_death_rural_count }
			change_variable = { 	  which = plague_death_total_count	   which = plague_death_urban_count }
			remove_urban_population_DEVS = yes
			remove_rural_population_DEVS = yes
			update_base_values = yes
			
			owner = { change_variable = { which = plague_death_rural_count	which = PREV } }
			owner = { change_variable = { which = plague_death_urban_count	which = PREV } }
			owner = { change_variable = { which = plague_death_total_count	which = PREV } }
			
			random_list = {
				5 = { multiply_variable = { which = plague_strength 	value = 0.5 } }
				10 = { multiply_variable = { which = plague_strength 	value = 0.7 } }
				20 = { multiply_variable = { which = plague_strength 	value = 0.75 } }
				30 = { multiply_variable = { which = plague_strength 	value = 0.85 } }
				20 = { multiply_variable = { which = plague_strength 	value = 0.9 } }
				10 = { multiply_variable = { which = plague_strength 	value = 0.95 } }
				5 = { multiply_variable = { which = plague_strength 	value = 1 } }
			}
			
			plague_assign_plague_modifier = yes
		}
	}
	
	option = { ### Kill anyone leaving the province! ### 
		name = "POP_Plague.021.b"
		ai_chance = {
			factor = 0
		}
		
		owner = { add_mil_power = -50 }
		custom_tooltip = quarantine_b
		hidden_effect = {
			set_province_flag = plague_population_death_applied
			set_variable = { which = plague_urban_death					value = 0 }
			set_variable = { which = plague_rural_death 				value = 0 }
			if = {
				limit = {
					check_variable = { which = plague_strength_local value = 150 }
				}
				set_variable = {	which = plague_urban_death 				value = 150 }
				set_variable = {	which = plague_rural_death 				value = 150 }
				set_variable = {	which = plague_province_trauma			value = 150 }
			}
			if = {
				limit = {
					NOT = { check_variable = { which = plague_strength_local value = 150 } }
				}
				set_variable = {		which = plague_urban_death					which = plague_strength_local }
				set_variable = {		which = plague_rural_death					which = plague_strength_local }
				set_variable = {		which = plague_province_trauma				which = plague_strength_local }
			}
			multiply_variable = { which = plague_urban_death				value = 1.70 }
			multiply_variable = { which = plague_rural_death				value = 1.70 }
			multiply_variable = { which = plague_province_trauma			value = 1.70 }
			divide_variable = { which = plague_province_trauma	value = 30 }
			if = {
				limit = {
					check_variable = { which = province_trauma value = 0.01 }
				}
				change_variable = { which = province_trauma which = plague_province_trauma }
			}
			else = {
				set_variable = { which = province_trauma value = 0 }
				change_variable = { which = province_trauma which = plague_province_trauma }
			}
			if = {
				limit = {
					check_variable = { which = urban_population value = 1 }
				}
				trigger_switch = {
					on_trigger = has_building
					town_hall = {
						multiply_variable = { which = plague_urban_death value = 0.975 }
					}
					urban_infrastructure_1 = {
						multiply_variable = { which = plague_urban_death value = 0.95 }
					}
					urban_infrastructure_2 = {
						multiply_variable = { which = plague_urban_death value = 0.9 }
					}
					urban_infrastructure_3 = {
						multiply_variable = { which = plague_urban_death value = 0.85 }
					}
					urban_infrastructure_4 = {
						multiply_variable = { which = plague_urban_death value = 0.80 }
					}
					urban_infrastructure_5 = {
						multiply_variable = { which = plague_urban_death value = 0.75 }
					}
				}
			}
			divide_variable = {   which = plague_urban_death 		value = 300 }
			divide_variable = {   which = plague_rural_death 		value = 700 }
			set_variable = { 	  which = plague_urban_density	    which = urban_density }
			set_variable = { 	  which = plague_rural_density	    which = rural_density }
			if = {
				limit = {
					check_variable = { which = plague_urban_density value = 1 }
				}
				subtract_variable = { which = plague_urban_density   value = 1 }
				divide_variable = {   which = plague_urban_density   value = 2 }
				change_variable = {   which = plague_urban_density   value = 1 }
			}
			if = {
				limit = {
					check_variable = { which = plague_rural_density value = 1 }
				}
				subtract_variable = { which = plague_rural_density   value = 1 }
				divide_variable = {   which = plague_rural_density   value = 2 }
				change_variable = {   which = plague_rural_density   value = 1 }
			}
			multiply_variable = {     which = plague_urban_death           which = plague_urban_density }
			multiply_variable = {     which = plague_rural_death           which = plague_rural_density }
			set_variable = {    	  which = urban_percentage_removed     which = plague_urban_death }
			set_variable = {    	  which = rural_percentage_removed     which = plague_rural_death }
			set_variable = { 		  which = plague_death_rural_count     value = 0 }
			set_variable = { 		  which = plague_death_urban_count     value = 0 }
			set_variable = {		  which = plague_death_total_count	   value = 0 }
			change_variable = { 	  which = plague_death_rural_count	   which = rural_population }
			#change_variable = { 	  which = plague_death_rural_count	   which = rural_population_growing }
			change_variable = { 	  which = plague_death_urban_count	   which = urban_population }
			#change_variable = { 	  which = plague_death_urban_count	   which = urban_population_growing }
			multiply_variable = { 	  which = plague_death_rural_count	   which = rural_percentage_removed }
			multiply_variable = { 	  which = plague_death_urban_count	   which = urban_percentage_removed }
			change_variable = { 	  which = plague_death_total_count	   which = plague_death_rural_count }
			change_variable = { 	  which = plague_death_total_count	   which = plague_death_urban_count }
			remove_urban_population_DEVS = yes
			remove_rural_population_DEVS = yes
			update_base_values = yes
			
			owner = { change_variable = { which = plague_death_rural_count	which = PREV } }
			owner = { change_variable = { which = plague_death_urban_count	which = PREV } }
			owner = { change_variable = { which = plague_death_total_count	which = PREV } }
			
			set_variable = { 		  which = plague_death_rural_count     value = 0 }
			set_variable = { 		  which = plague_death_urban_count     value = 0 }
			set_variable = {		  which = plague_death_total_count	   value = 0 }
			
			random_list = {
				5 = { multiply_variable = { which = plague_strength 	value = 0.3 } }
				10 = { multiply_variable = { which = plague_strength 	value = 0.55 } }
				20 = { multiply_variable = { which = plague_strength 	value = 0.65 } }
				30 = { multiply_variable = { which = plague_strength 	value = 0.75 } }
				20 = { multiply_variable = { which = plague_strength 	value = 0.85 } }
				10 = { multiply_variable = { which = plague_strength 	value = 0.9 } }
				5 = { multiply_variable = { which = plague_strength 	value = 0.95 } }
			}
			plague_assign_plague_modifier = yes
		}
	}
	
	option = { ### Do Nothing ###
		name = "POP_Plague.021.c"
		
		custom_tooltip = quarantine_c
	}
}






country_event = { ### Stability hit due to plague ###
	id = POP_Plague.030
	title = "POP_Plague.030.t"
	desc = "POP_Plague.030.d"
	picture = CITY_DEVELOPMENT_AU_eventPicture
	is_triggered_only = no
	hidden = yes
	
	trigger = {
		has_country_flag = center_of_universe
		
		has_global_flag = plague_begun
	}
	
	mean_time_to_happen = { months = 1 }
	
	immediate = {
		
		every_country = {
			limit = {
				NOT = { has_country_modifier = plague_percent_already_hit }
				check_variable = { which = plague_death_total_count value = 0.1 }
			}
			set_variable = { 	  which = plague_death_percentage 	value = 0 }
			set_variable = { 	  which = plague_death_percentage	which = plague_death_total_count }
			if = {
				limit = {
					is_variable_equal = {
						which = plague_pop_at_start
						value = 0
					}
				}
				
				# log = "<ERROR><58D05CE0><THIS:[This.GetName]><PREV:[Prev.GetName]><ROOT:[Root.GetName]><FROM:[From.GetName]> Division by zero!"
				
			}
			else = {
				divide_variable = {
					which = plague_death_percentage
					which = plague_pop_at_start
				}
			}
			multiply_variable = { which = plague_death_percentage	value = 100 }
			
			if = {
				limit = {
					has_country_flag = 0_plague_percent
					check_variable = { which = plague_death_percentage 	value = 5 }
					NOT = { has_country_modifier = plague_percent_already_hit }
				}
				clr_country_flag = 0_plague_percent
				set_country_flag = 5_plague_percent
				add_country_modifier = {
					name = plague_percent_already_hit
					duration = 30
					hidden = yes
				}
				country_event = {
					id = POP_Plague.040
				}
			}
			if = {
				limit = {
					has_country_flag = 5_plague_percent
					check_variable = { which = plague_death_percentage 	value = 10 }
					NOT = { has_country_modifier = plague_percent_already_hit }
				}
				clr_country_flag = 5_plague_percent
				set_country_flag = 10_plague_percent
				add_country_modifier = {
					name = plague_percent_already_hit
					duration = 30
					hidden = yes
				}
				country_event = {
					id = POP_Plague.041
				}
			}
			if = {
				limit = {
					has_country_flag = 10_plague_percent
					check_variable = { which = plague_death_percentage 	value = 15 }
					NOT = { has_country_modifier = plague_percent_already_hit }
				}
				clr_country_flag = 10_plague_percent
				set_country_flag = 15_plague_percent
				add_country_modifier = {
					name = plague_percent_already_hit
					duration = 30
					hidden = yes
				}
				country_event = {
					id = POP_Plague.042
				}
			}
			if = {
				limit = {
					has_country_flag = 15_plague_percent
					check_variable = { which = plague_death_percentage 	value = 25 }
					NOT = { has_country_modifier = plague_percent_already_hit }
				}
				clr_country_flag = 15_plague_percent
				set_country_flag = 25_plague_percent
				add_country_modifier = {
					name = plague_percent_already_hit
					duration = 30
					hidden = yes
				}
				country_event = {
					id = POP_Plague.043
				}
			}
			if = {
				limit = {
					has_country_flag = 25_plague_percent
					check_variable = { which = plague_death_percentage 	value = 35 }
					NOT = { has_country_modifier = plague_percent_already_hit }
				}
				clr_country_flag = 25_plague_percent
				set_country_flag = 35_plague_percent
				add_country_modifier = {
					name = plague_percent_already_hit
					duration = 30
					hidden = yes
				}
				country_event = {
					id = POP_Plague.044
				}
			}
		}
	}
	
	option = {
		name = "POP_Plague.030.a"
	}
}

country_event = { ### stability loss, 5 percent
	id = POP_Plague.040
	title = "POP_Plague.040.t"
	desc = "POP_Plague.040.d"
	picture = CITY_DEVELOPMENT_AU_eventPicture
	is_triggered_only = yes
	hidden = no
	
	immediate = {
		
	}
	
	option = {
		name = "POP_Plague.040.a"
		add_yearly_manpower = -2
		random_list = {
			25 = { subtract_stability_1 = yes }
			75 = { }
		}
	}
}

country_event = { ### stability loss, 10 percent
	id = POP_Plague.041
	title = "POP_Plague.041.t"
	desc = "POP_Plague.041.d"
	picture = CITY_DEVELOPMENT_AU_eventPicture
	is_triggered_only = yes
	hidden = no
	
	immediate = {
		
	}
	
	option = {
		name = "POP_Plague.041.a"
		add_yearly_manpower = -2
		random_list = {
			35 = { subtract_stability_1 = yes }
			65 = { }
		}
	}
}

country_event = { ### stability loss, 15 percent
	id = POP_Plague.042
	title = "POP_Plague.042.t"
	desc = "POP_Plague.042.d"
	picture = CITY_DEVELOPMENT_AU_eventPicture
	is_triggered_only = yes
	hidden = no
	
	immediate = {
		
	}
	
	option = {
		name = "POP_Plague.042.a"
		add_yearly_manpower = -2
		random_list = {
			50 = { subtract_stability_1 = yes }
			50 = { }
		}
	}
}

country_event = { ### stability loss, 25 percent
	id = POP_Plague.043
	title = "POP_Plague.043.t"
	desc = "POP_Plague.043.d"
	picture = CITY_DEVELOPMENT_AU_eventPicture
	is_triggered_only = yes
	hidden = no
	
	immediate = {
		
	}
	
	option = {
		name = "POP_Plague.043.a"
		add_yearly_manpower = -2
		random_list = {
			75 = { subtract_stability_1 = yes }
			25 = { }
		}
	}
}

country_event = { ### stability loss, 35
	id = POP_Plague.044
	title = "POP_Plague.044.t"
	desc = "POP_Plague.044.d"
	picture = CITY_DEVELOPMENT_AU_eventPicture
	is_triggered_only = yes
	hidden = no
	
	immediate = {
		
	}
	
	option = {
		name = "POP_Plague.044.a"
		add_yearly_manpower = -2
		subtract_stability_1 = yes
	}
}




country_event = { ### This event ends a plague wave
	id = POP_Plague.050
	title = "POP_Plague.050.t"
	desc = "POP_Plague.050.d"
	picture = CITY_DEVELOPMENT_AU_eventPicture
	is_triggered_only = yes ### Deactivated for hands off
	hidden = no
	
	#   trigger = {
	#
	#	}
	
	#    mean_time_to_happen = {
	#        days = 1825
	#    }
	
	immediate = {
		clr_global_flag = plague_begun
		every_country = {
			remove_country_modifier = plague_triggered
			clr_country_flag = plague_ports_closed
			clr_country_flag = trade_restricted
			clr_country_flag = plague_doctors_hired
			clr_country_flag = ports_closing_checked
			clr_country_flag = ports_diplomacy_checked
			clr_country_flag = ports_closed_relent
			clr_country_flag = ports_burghers_understanding
			clr_country_flag = restrict_trade_checked
			clr_country_flag = plague_doctors_hired
			set_variable = { which = country_trade_centers_percent	value = 0 }
			set_variable = { which = ports_burghers_resistance		value = 0 }
			set_variable = { which = country_port_percentage 		value = 0 }
		}
		every_province = {
			clr_country_flag = plague_bad_port
			clr_country_flag = plague_okay_port
			clr_country_flag = plague_good_port
			clr_province_flag = plague_attacked
			clr_province_flag = plague_attacked_set
			clr_province_flag = plague_from_abroad_attacked
			clr_province_flag = plague_population_death_applied
			clr_province_flag = plague_load_shot
			clr_province_flag = plague_port_potential
			set_variable = { which = country_trade_centers_weight	value = 0 }
			set_variable = { which = country_port_percentage 		value = 0 }
			
			sea_zone = {
				clr_province_flag = plague_infected_waters
			}
		}
		
		country_event = {
			id = POP_population_growth.100
		}
	}
	
	option = {
		name = "POP_Plague.050.a"
	}
}
