607 = "Shenghua"
610 = "Qinghua"
613 = "Xinan"
616 = "Xuanhua"
708 = "Shuntian"
723 = "Yichun"
725 = "Acheng"
726 = "Nenjiang"
727 = "Aihui"
728 = "Tilan"
730 = "Baozhou"
732 = "Shuangcheng"
733 = "Haixi"
734 = "Lingxi"
735 = "Yangguang"
736 = "Lingnan"
737 = "Quanluo"
877 = "Hainan"
889 = "Jinchang"
1012 = "Qiandao"
1013 = "Chongsheng"
1014 = "Tianhai"
1015 = "Sama"
1016 = "Rixiang"
1017 = "Feihou"
1018 = "Fenghou"
1020 = "Feiqian"
1021 = "Duima"
1022 = "Tuzuo"
1023 = "Yiyu"
1024 = "Zanqi"
1026 = "Anyun"
1027 = "Zhangmen"
1028 = "Chuyun"
1029 = "Beizhong"
1030 = "Meizuo"
1031 = "Danma"
1032 = "Bomo"
1033 = "Dango"
1058 = "Yakesa"
1822 = "Dongning"
2233 = "Gonghong"
2258 = "Anding"
2276 = "Danluo"
2277 = "Xiangmo"
2278 = "Fengqian"
2279 = "Shejin"
2280 = "Dahe"
2281 = "Qiyi"
2282 = "Yishi"
2283 = "Shancheng"
2284 = "Yueqian"
2285 = "Yuezhong"
2286 = "Feituo"
2287 = "Weizhang"
2288 = "Yuanjiang"
2289 = "Jiafei"
2290 = "Xinnong"
2291 = "Yuehou"
2292 = "Xiaye"
2293 = "Wuzang"
2294 = "Rili"
2295 = "Yandai"
2296 = "Luzhong"
2297 = "Luao"
2298 = "Yuqian"
2303 = "Kelang" #??
2304 = "Shizi" #??
2305 = "Dayuan"
2325 = "Jiaxing"
2328 = "Tumen"
2393 = "Liangshan"
2394 = "Jingan"
2395 = "Jiaozhou"
2396 = "Yian"
2418 = "Shunhua"
2419 = "Xinping"
2424 = "Menggen"
2435 = "Meinong"
2461 = "Qingzhou"
2730 = "Pengmang"
2731 = "Ningyuan"
2743 = "Hami"
2753 = "Cheli"
2796 = "Jinjiang"
2800 = "Changbai"
2801 = "Huangzhou"
2803 = "Huxi"
2804 = "Hunan"
2805 = "Andong"
2806 = "Lingdong"
2808 = "Kaicheng"
3254 = "Jingqili"
3256 = "Heihe"
3314 = "Guihua"
3244 = "Ning'an"
3245 = "Haishenwai"
3246 = "Xingkai"
3257 = "Da Xing'an"
3936 = "Changan"
3937 = "Sanjiang"
3938 = "Taiyuan"
3943 = "Luqian"
3944 = "Yancheng"
3945 = "Yuhou"
3946 = "Shangye"
3947 = "Zuodu"
3948 = "Xiazong"
3949 = "Shangzong"
3950 = "Anfang"
3951 = "Yidou"
3952 = "Nengdeng"
3953 = "Jiahe"
3954 = "Ruoxia"
3955 = "Junhe"
3956 = "Sanhe"
3957 = "Zhimo"
3958 = "Yihe"
3959 = "Henei"
3960 = "Hequan"
3961 = "Danbo"
3962 = "Yinfan"
3963 = "Baiqi"
3964 = "Beiqian"
3965 = "Shijian"
3966 = "Beihou"
3967 = "Zhoufang"
3968 = "Abo"
3969 = "Danlu"
3970 = "Zhuqian"
3971 = "Zhuhou"
3973 = "Qiye"
3974 = "Zoufang"
3982 = "Daiyu"
4211 = "Nanjing"
4212 = "Yuma"
