name = "Red Turban Rebellion"
war_goal = {
	type = unify_china
	casus_belli = cb_chinese_civil_war
	province = 2793 #Jiading
}

1356.1.1   = {
	add_attacker = SHU
	add_defender = DXI
}
1392.1.1   = {
	rem_attacker = SHU
	rem_defender = DXI
}