name = "Red Turban Rebellion"
war_goal = {
	type = unify_china
	casus_belli = cb_chinese_civil_war
	province = 1337 #Chengdu
}

1356.1.1   = {
	add_attacker = XIA
	add_defender = SHU
}
1392.1.1   = {
	rem_attacker = XIA
	rem_defender = SHU
}