# 1214 - Aswan

owner = MAM
controller = MAM
add_core = MAM

capital = "Aswan"
trade_goods = sugar
culture = nubian
religion = sunni

hre = no

base_tax = 9
base_production = 2
base_manpower = 0

is_city = yes
town_hall = yes
temple = yes

discovered_by = east_african
discovered_by = western
discovered_by = muslim
discovered_by = eastern
discovered_by = turkishtech

450.1.1 = {
	set_province_flag = tribals_control_province
	set_variable = { which = tribals_ratio	value = 42 }
}
1356.1.1 = {
	add_core = MKU
	#add_core = EGY
}
1500.3.3 = {
	base_production = 1
}
#1516.1.1 = {
#	add_core = TUR
#	remove_core = MAM
#} # Mamluks fall to Ottomans, Ottomans do not advance up Nile
1530.1.1 = {
	owner = TUR
	controller = TUR
	add_core = TUR
	#remove_core = MAM
	fort_14th = yes
} # Invaded by the Ottomans
1530.1.3 = {
	road_network = no
	paved_road_network = yes
}
1530.1.5 = {
	owner = MAM
	controller = MAM
}
1531.1.1 = {
	owner = TUR
	controller = TUR
	add_core = TUR
}
1571.1.1 = {
	unrest = 8
} # Local Beja revolt against Ottoman governors
1572.1.1 = {
	unrest = 0
} #Ottomans crush Beja revolt
1802.5.13 = {
	controller = TUR
	unrest = 8
} # Turkish rule is restored but a few troublesome years follow
1805.1.1 = {
	unrest = 0
	owner = EGY
	controller = EGY
}
1811.6.1 = {
	owner = TUR
	controller = TUR
} # Order is restored
