# 1226 - Boina

owner = BNA
controller = BNA
add_core = BNA

capital = "Tsimiheky"
trade_goods = rice
culture = vazimba
religion = animism

hre = no

base_tax = 3
base_production = 0
base_manpower = 0

is_city = yes

discovered_by = malagasy_tech

450.1.1 = {
	set_province_flag = tribals_control_province
}
1521.1.1 = {
	base_tax = 4
}
1817.1.1 = {
	owner = MER
	controller = MER
	add_core = MER
}
1885.12.17 = {
	add_core = FRA
}
1897.2.28 = {
	owner = FRA
	controller = FRA
}
