# 1760 - guangxi_area Xingbin

owner = YUA
controller = YUA

capital = "Guiping"
trade_goods = rice
culture = zhuang
religion = animism

hre = no

base_tax = 9
base_production = 0
base_manpower = 0

is_city = yes
road_network = yes

discovered_by = chinese
discovered_by = steppestech

450.1.1 = {
	set_province_flag = tribals_control_province
}
985.1.1 = {
	owner = SNG
	controller = SNG
	add_core = SNG
}
1320.1.1 = {
	remove_core = SNG
}
1351.1.1 = {
	owner = ZHN
	controller = ZHN
	add_core = ZHN
}
1368.1.1 = {
	owner = MNG
	controller = MNG
	add_core = MNG
	remove_core = ZHN
	remove_core = YUA
}
1513.1.1 = {
	unrest = 5
} # Peasant rebellion, Jiangxi
1514.1.1 = {
	unrest = 0
}
1520.2.2 = {
	base_tax = 13
	base_manpower = 1
}
1645.6.25 = {
	owner = QNG
	controller = QNG
	add_core = QNG
} # The Qing Dynasty
#1662.1.1 = {
#	owner = QNG
#	controller = QNG
#	add_core = QNG
#	remove_core = MNG
#} # The Qing Dynasty
1662.1.1 = {
	remove_core = MNG
}
