# 2107 - Priangan

owner = GLH
controller = GLH
add_core = GLH

capital = "Bandung"
trade_goods = rice
culture = sundanese
religion = hinduism

hre = no

base_tax = 24
base_production = 0
base_manpower = 1

is_city = yes

discovered_by = chinese
discovered_by = indian
discovered_by = austranesian

1478.1.1 = {
	owner = SUN
	controller = SUN
	religion = sunni
	add_core = SUN
	discovered_by = DEM
} # Sunda and Galuh merge
1501.1.1 = {
	base_tax = 30
}
1512.1.1 = {
	discovered_by = POR
} # FB - Antonio de Abreu
1579.1.1 = {
	owner = BAN
	controller = BAN
	religion = sunni
	remove_core = SUN
	add_core = BAN
} # Cirebon sultanate expands
1599.1.1 = {
	discovered_by = NED
}
1617.1.1 = {
	owner = MTR
	controller = MTR
	add_core = MTR
} # The Sultanate of Mataram
1741.7.1 = {
	unrest = 1
} # FB - Mataram joins forces with Chinese - revolt becomes war
1743.11.1 = {
	owner = NED
	controller = NED
	unrest = 1
}
1800.1.1 = {
	add_core = NED
	unrest = 0
}
1811.9.1 = {
	owner = GBR
	controller = GBR
} # British take over
1816.1.1 = {
	owner = NED
	controller = NED
	remove_core = GBR
} # Returned to the Dutch
