# 2141 - Taizhou

owner = CEN
controller = CEN

capital = "Huangyan"
trade_goods = tea
culture = wunan
religion = confucianism

hre = no

base_tax = 66
base_production = 0
base_manpower = 3

is_city = yes
road_network = yes

discovered_by = steppestech
discovered_by = chinese

985.1.1 = {
	owner = SNG
	controller = SNG
	add_core = SNG
}
1276.1.1 = {
	owner = YUA
	controller = YUA
	add_core = YUA
}
1320.1.1 = {
	remove_core = SNG
}
1351.1.1 = {
	owner = CEN
	controller = CEN
	add_core = CEN
}
1369.3.17 = {
	owner = MNG
	controller = MNG
	add_core = MNG
	remove_core = YUA
	remove_core = CEN
}
1520.2.2 = {
	base_tax = 100
	base_manpower = 6
}
1645.6.25 = {
	owner = QNG
	controller = QNG
	add_core = QNG
} # The Qing Dynasty
#1662.1.1 = {
#	owner = QNG
#	controller = QNG
#	add_core = QNG
#	remove_core = MNG
#} # The Qing Dynasty
1662.1.1 = {
	remove_core = MNG
}
