# 2245 - Pondicherry

owner = GNG
controller = GNG

capital = "Puducherry"
trade_goods = pepper
culture = tamil
religion = hinduism

hre = no

base_tax = 6
base_production = 0
base_manpower = 0

is_city = yes
harbour_infrastructure_1 = yes

discovered_by = indian
discovered_by = muslim

1356.1.1 = {
	owner = MAD
	controller = MAD
	add_core = GNG
}
1378.1.1 = {
	owner = VIJ
	controller = VIJ
}
1428.1.1 = {
	add_core = VIJ
}
1505.1.1 = {
	discovered_by = POR
}
1511.1.1 = {
	base_tax = 7
}
1530.1.1 = {
	#owner = GNG
	#controller = GNG
	add_core = GNG
	#remove_core = VIJ
}
1530.3.17 = {
	marketplace = yes
	road_network = yes
}
1565.7.1 = {
	owner = GNG
	controller = GNG
} # The Vijayanagar empire collapses, the Nayaks proclaimed themselves rulers
1600.1.1 = {
	discovered_by = ENG
	discovered_by = FRA
	discovered_by = NED
}
1649.1.1 = {
	controller = BIJ
} # Conquered by Bijapur
1649.12.1 = {
	owner = BIJ
} # Conquered by Bijapur
1650.1.1 = {
	discovered_by = turkishtech
}
1673.1.1 = {
	owner = FRA
	controller = FRA
	change_province_name = "Pondichéry"
	rename_capital = "Pondichéry"
	fort_17th = yes
}
1685.1.1 = {
	add_core = FRA
}
1693.1.1 = {
	controller = NED
}
1699.1.1 = {
	controller = FRA
} # Treaty of Ryswick
1707.5.12 = {
	discovered_by = GBR
}
1761.1.15 = {
	controller = GBR
} #the French commander, the Count de Lally, surrendered the town, ending French hopes of establishing a trading empire in India, and leaving the British East India Company triumphant
1763.1.1 = {
	controller = FRA
} # Treaty of Paris, allows the French to use Puducherry as a trading post, it did nor reinstate french rule
1793.1.1 = {
	controller = GBR
}
1797.10.17 = {
	controller = FRA
} # End of the First Coalition
1797.10.18 = {
	controller = GBR
}
1802.10.1 = {
	controller = FRA
} # End of the Second Coalition
1803.5.18 = {
	controller = GBR
}
1805.12.26 = {
	controller = FRA
} # End of the Third Coalition
1806.10.9 = {
	controller = GBR
}
1807.10.24 = {
	controller = FRA
} # End of the Fourth Coalition
1809.4.10 = {
	controller = GBR
}
1809.10.14 = {
	controller = FRA
} # End of the Fifth Coalition
1812.6.21 = {
	controller = GBR
}
1814.4.11 = {
	controller = FRA
} # Treaty of Fontainebleau, Napoleon abdicates unconditionally
