# 2424 - Kengtong

owner = SST
controller = SST
add_core = SST

capital = "Kengtong"
trade_goods = tin
culture = lanna
religion = buddhism

hre = no

base_tax = 4
base_production = 0
base_manpower = 0

is_city = yes

discovered_by = chinese
discovered_by = indian

450.1.1 = {
	set_province_flag = tribals_control_province
}
1501.1.1 = {
	base_tax = 6
}
1557.1.1 = {
	owner = TAU
	controller = TAU
	add_core = TAU
	rename_capital = "Chiang Tung"
	change_province_name = "Chiang Tung"
} # The Shan dynasty is overthrown
1581.1.1 = {
	owner = SST
	controller = SST
	remove_core = TAU
} # Very loosely controlled
1605.1.1 = {
	owner = TAU
	controller = TAU
}
1732.1.1 = {
	owner = QNG
	controller = QNG
	add_core = QNG
}
1739.1.1 = {
	unrest = 5
} # Rebellion
1740.1.1 = {
	unrest = 0
}
1752.2.28 = {
	owner = BRM
	controller = BRM
	add_core = BRM
	remove_core = TAU
}
1852.1.1 = {
	unrest = 7
} # out of control after Burmese defeated by British
1885.1.1 = {
	owner = GBR
	controller = REB
}
1890.1.1 = {
	controller = GBR
}
