# 2449 - Gelder

owner = GEL
controller = GEL
add_core = GEL

capital = "Remunj" #Roermund
trade_goods = wheat #beer
culture = dutch
religion = catholic

hre = yes

base_tax = 2
base_production = 0
base_manpower = 0

is_city = yes
local_fortification_1 = yes
road_network = yes

discovered_by = eastern
discovered_by = western
discovered_by = muslim

#500.1.1 = {
#	add_permanent_province_modifier = {
#		name = urban_goods_beer
#		duration = -1
#	}
#}
1453.1.1 = {
	add_core = BUR
	add_core = UTR
}
1473.2.23 = {
	owner = BUR
	controller = BUR
} # Charles the Bold annexes Gelre
1477.1.5 = {
	unrest = 10
} # death of Charles the Bold
1477.8.18 = {
	unrest = 0
} # Personal Union with HAS (marriage of Mary of Burgondy & Maximmilian of Hasburg)
1482.3.27 = {
	owner = HAB
	controller = HAB
	add_core = HAB
	remove_core = BUR
} # Mary of burgondy dies, Lowlands to Austria
1492.1.1 = {
	owner = GEL
	controller = GEL
}
1500.1.1 = {
	road_network = yes
}
1505.1.1 = {
	owner = HAB
	controller = HAB
	unrest = 20
}
1513.1.1 = {
	owner = GEL
	controller = GEL
	unrest = 0
}
1520.5.5 = {
	base_tax = 2
	base_production = 1
	base_manpower = 0
}
1530.1.1 = {
	fort_14th = yes
	remove_core = HAB
}
1530.1.4 = {
	remove_core = UTR
	#add_permanent_claim = SPA
}
1543.9.7 = {
	owner = HAB
	controller = HAB
} # Charles V annexes Gelre
1549.11.4 = {
	add_core = NED
	remove_core = GEL
}
1550.1.1 = {
	add_core = NED
}
1556.1.14 = {
	owner = SPA
	controller = SPA
	add_core = SPA
	remove_core = HAB
}
1559.5.12 = {
	unrest = 3
} # New bishoprics in the Lowlands create an outrage
1565.1.1 = {
	unrest = 5
} # Letters of Segovia, Philip I orders the harsh persecution of Calvinists
1566.4.5 = {
	unrest = 3
} # 'Eedverbond der Edelen', Margaretha of Parma promises leniency
1567.9.10 = {
	unrest = 4
} # Counts of Egmont & Hoorne arrested
1568.6.5 = {
	unrest = 6
} # Counts of Egmont & Hoorne beheaded
1569.1.1 = {
	unrest = 12
} # The Duke of Alba reforms the taxation system ('tiende penning')
1570.1.1 = {
	unrest = 20
} # The Duke of Alba reforms the penal system, 'Blood Council' (Bloedraad) established
1572.1.1 = {
	religion = reformed
}
1572.6.5 = {
	controller = REB
} # Rebels rise up in Gelre & Zutphen
1572.9.1 = {
	controller = SPA
} # Don Frederique takes control of Gelre for Spain again
1577.2.12 = {
	unrest = 16
} # Eeuwig Edict accepted by Don Juan
1579.1.23 = {
	owner = NED
	controller = NED
	remove_core = SPA
	unrest = 0
} # Union of Utrecht, Gelre joins
1583.9.1 = {
	controller = SPA
	unrest = 15
} # Alessandro Farnese captures Zutphen and the surrounding lands
1592.7.4 = {
	controller = NED
	unrest = 0
} # The Republic takes back Zutphen and surrounding areas
1648.10.24 = {
	hre = no
} # Treaty of Westphalia, ending the Thirty Years' War
1672.5.20 = {
	controller = FRA
} # France blitzes through the Lowlands in the Franco-Dutch War
1678.8.10 = {
	controller = NED
} # Peace of Nijmegen (Netherlands-France)
1810.7.10 = {
	owner = FRA
	controller = FRA
	add_core = FRA
} # Annexed by France
1813.11.30 = {
	owner = NED
	controller = NED
	remove_core = FRA
} # William returns to the Netherlands
