# 2494 - Jinhua

owner = YUA
controller = YUA

capital = "Jinhua"
trade_goods = lumber #naval_supplies # bamboo
culture = wunan
religion = confucianism

hre = no

base_tax = 89
base_production = 0
base_manpower = 3

is_city = yes
road_network = yes

discovered_by = chinese
discovered_by = steppestech

1276.1.1 = {
	owner = YUA
	controller = YUA
	add_core = YUA
}
1351.1.1 = {
	owner = ZOU
	controller ZOU
	add_core = ZOU
	add_core = MNG
}
1356.1.1 = {
	owner = MNG
	controller = MNG
}
1369.3.17 = {
	remove_core = ZOU
}
1520.2.2 = {
	base_tax = 138
	base_manpower = 5
}
1630.1.1 = {
	unrest = 6
} # Li Zicheng rebellion
1645.5.27 = {
	unrest = 0
} # The rebellion is defeated
1645.6.25 = {
	owner = QNG
	controller = QNG
	add_core = QNG
} # The Qing Dynasty
#1644.1.1 = {
#	controller = MCH
#}
#1644.6.6 = {
#	owner = QNG
#	controller = QNG
#	add_core = QNG
#	remove_core = MNG
#} # The Qing Dynasty
1662.1.1 = {
	remove_core = MNG
}
