# 2823 - Bassein

owner = PEG
controller = PEG
add_core = PEG

capital = "Bassein"
trade_goods = lumber
culture = monic
religion = buddhism

hre = no

base_tax = 26
base_production = 0
base_manpower = 0

is_city = yes
fort_14th = yes

discovered_by = chinese
discovered_by = indian
discovered_by = muslim

1385.1.1 = {
	controller = REB
}
1390.1.1 = {
	controller = PEG
}
1501.1.1 = {
	base_tax = 34
}
1509.1.1 = {
	discovered_by = POR
}
1539.3.1 = {
	owner = TAU
	controller = TAU
	add_core = TAU
} # Annexed to the Kingdom of Taungoo
1574.1.1 = {
	owner = AYU
	controller = AYU
} # Siamese occupation
1575.1.1 = {
	owner = TAU
	controller = TAU
}
1740.1.1 = {
	controller = REB
} # Pegu rebellion
1752.2.28 = {
	owner = PEG
	controller = PEG
	remove_core = TAU
} # Pegu is sacked & returned to Burmese control
1759.1.1 = {
	owner = BRM
	controller = BRM
	add_core = BRM
	culture = burmese
} # Annexed by Burma
#1824.1.1 = {
#	controller = GRB
#}
#1826.1.1 = {
#	controller = BRM
#}
1852.12.20 = {
	owner = GBR
	controller = GBR
}
