# 2826 - Strung Treng

owner = KHM
controller = KHM
add_core = KHM

capital = "Strung Treng"
trade_goods = rice
culture = bahnar
religion = animism

hre = no

base_tax = 1
base_production = 0
base_manpower = 0

is_city = yes
temple = yes

discovered_by = chinese
discovered_by = indian

450.1.1 = {
	set_province_flag = tribals_control_province
}
1501.1.1 = {
	base_tax = 2
}
1535.1.1 = {
	discovered_by = POR
}
1594.1.1 = {
	owner = LXA
	controller = LXA
	add_core = LXA
}
1694.1.1 = {
	add_core = ANN
} # Vietnamese Intervention
1707.1.1 = {
	owner = VIE
	controller = VIE
	add_core = VIE
	remove_core = LXA
} # Lan Xangs declared itself independent, partitioned into three kingdoms; Vientiane, Champasak & Luang Prabang
1713.1.1 = {
	owner = CHK
	controller = CHK
	add_core = CHK
	remove_core = VIE
}
1811.1.1 = {
	unrest = 5
} # The Siamese-Cambodian Rebellion
1812.1.1 = {
	unrest = 0
}
1829.1.1 = {
	owner = SIA
	controller = SIA
	add_core = SIA
	unrest = 0
} # Annexed by Siam
1893.1.1 = {
	owner = FRA
	controller = FRA
	unrest = 0
}
