# No previous file for Bengaluru

owner = VIJ
controller = VIJ
add_core = VIJ

capital = "Devarayanagara"
trade_goods = rice
culture = kannada
religion = hinduism

hre = no

base_tax = 60
base_production = 0
base_manpower = 3

is_city = yes

discovered_by = indian
discovered_by = muslim

1356.1.1 = {
	add_core = MYS
}
1498.1.1 = {
	discovered_by = POR
}
1511.1.1 = {
	base_tax = 60
	base_production = 3
}
1530.3.17 = {
	marketplace = yes
}
1537.1.1 = {
	fort_14th = yes
}
1638.1.1 = {
	owner = BIJ
	controller = BIJ
	remove_core = VIJ
}
1685.1.1 = {
	controller = MUG
} # Conquered by the Mughal emperor Aurangzeb
1686.1.1 = {
	owner = MYS	#Beaten by the Mughals and sold to Mysore
	controller = MYS
}
1761.1.1 = {
	fort_14th = no
	fort_18th = yes
}