# No previous file for Nagqu

owner = UTS
controller = UTS
add_core = UTS

capital = "Nagqu"
trade_goods = wool
culture = tibetan
religion = vajrayana

hre = no

base_tax = 11
base_production = 0
base_manpower = 1

is_city = yes

discovered_by = chinese
discovered_by = steppestech

1511.1.1 = {
	base_tax = 12
}
1642.6.1 = {
	controller = KSD
	owner = KSD
	add_core = KSD
}
1717.1.1 = {
	owner = ZUN
	controller = ZUN
} # Zunghar invasion of Tibet
1720.1.1 = {
	owner = UTS
	controller = UTS
	add_core = UTS
}
1721.1.1 = {
	discovered_by = SPA
}
1755.10.4 = {
	unrest = 7
} # Rebellion against the Chinese
1757.10.4 = {
	unrest = 0
}
1792.11.1 = {
	owner = QNG
	controller = QNG
	add_core = QNG
} # U-tsang integrated into Qing empire after Sino-nepalese war
