# 3423 - Aymara

capital = "Aymara"
trade_goods = unknown
culture = quechuan
religion = inti

hre = no

base_tax = 9
base_production = 0
base_manpower = 0

native_size = 20
native_ferocity = 1
native_hostileness = 8

discovered_by = south_american

450.1.1 = {
	set_province_flag = tribals_control_province
}
1356.1.1 = {
	owner = CZC
	add_core = CZC
}
1463.1.1 = {
	owner = CZC
	controller = CZC
	add_core = CZC
}
1480.1.1 = {
	owner = INC
	controller = INC
	add_core = INC
	remove_core = CZC
	trade_goods = gold
	is_city = yes
	marketplace = yes
}
1501.1.1 = {
	base_tax = 3
	native_size = 5
}
1529.1.1 = {
	owner = CZC
	controller = CZC
	add_core = QUI
	add_core = CZC
	remove_core = INC
}
1535.1.1 = {
	discovered_by = SPA
	add_core = SPA
	owner = SPA
	controller = SPA
	religion = catholic
	culture = castillian
}
1750.1.1 = {
	add_core = PEU
	culture = peruvian
}
1810.9.18 = {
	owner = PEU
	controller = PEU
}
1818.2.12 = {
	remove_core = SPA
}
