# 3427 - Cana

owner = AYM
controller = AYM
add_core = AYM

capital = "Cana"
trade_goods = cacao
culture = aimara
religion = inti

hre = no

base_tax = 18
base_production = 1
base_manpower = 1

is_city = yes
road_network = yes

discovered_by = south_american

450.1.1 = {
	set_province_flag = tribals_control_province
}
#1356.1.1 = {
#	add_permanent_province_modifier = {
#		name = "coalition_member"
#		duration = -1
#	}
#}
1463.1.1 = {
	owner = CZC
	controller = CZC
	add_core = CZC
}
1480.1.1 = {
	owner = INC
	controller = INC
	add_core = INC
	remove_core = CZC
	paved_road_network = yes
	marketplace = yes
}
1501.1.1 = {
	base_tax = 5
	native_size = 5
}
1529.1.1 = {
	owner = CZC
	controller = CZC
	add_core = QUI
	add_core = CZC
	remove_core = INC
}
1535.1.1 = {
	discovered_by = SPA
	add_core = SPA
	owner = SPA
	controller = SPA
	religion = catholic
	culture = castillian
}
1750.1.1 = {
	add_core = PEU
	culture = peruvian
}
1810.9.18 = {
	owner = PEU
	controller = PEU
}
1818.2.12 = {
	remove_core = SPA
}
