# 3779 - Melnik

owner = BUL
controller = BUL
add_core = BUL

capital = "Melnik"
trade_goods = lumber
culture = bulgarian
religion = orthodox

hre = no

base_tax = 4
base_production = 0
base_manpower = 0

is_city = yes

discovered_by = western
discovered_by = eastern
discovered_by = muslim
discovered_by = turkishtech
discovered_by = steppestech

1356.1.1 = {
	add_permanent_claim = BYZ
}
1371.2.17 = {
	owner = TAR
	controller = TAR
	add_core = TAR
	remove_core = BUL
}
1371.9.27 = {
	owner = OTT
	controller = OTT
	add_core = OTT
	capital = "Menlik"
	change_province_name = "Menlik"
}
1390.1.1 = {
	owner = TUR
	controller = TUR
	add_core = TUR
	remove_core = OTT
}
1393.7.17 = {
	add_core = BUL
	remove_core = TAR
}
1400.1.1 = {
	remove_core = BYZ
	add_permanent_claim = BYZ
}
1598.1.1 = {
	controller = REB
} # First Tarnovo Uprising
1600.1.1 = {
	controller = TUR
}
1686.1.1 = {
	revolt = {
		type = nationalist_rebels
		size = 1
	}
	controller = REB
} # Second Tarnovo Uprising
1690.1.1 = {
	revolt = { }
	controller = TUR
}
