# No previous file for Ganja

owner = SHI
controller = SHI
add_core = SHI

capital = "Shamaki"
trade_goods = wool
culture = azerbadjani
religion = sunni

hre = no

base_tax = 2
base_production = 0
base_manpower = 0

is_city = yes

discovered_by = western
discovered_by = muslim
discovered_by = eastern
discovered_by = steppestech
discovered_by = turkishtech

1444.1.1 = {
	remove_core = JAI
	add_core = KAK
}
1467.1.1 = {
	controller = AKK
}
1470.1.1 = {
	owner = AKK
	add_core = AKK
	remove_core = QAR
}
1493.1.1 = {
	owner = SAM
	controller = SAM
	add_core = SAM
	remove_core = AKK
} #The Safawid Order
1501.1.1 = {
	base_tax = 2
	base_production = 1
}
1504.1.1 = {
	remove_core = TIM
	add_core = PER
}
1512.1.1 = {
	owner = PER
	controller = PER
	add_core = PER
	remove_core = SAM
	courthouse = yes
	marketplace = yes
} # The Safavids took over
1538.1.1 = {
	owner = PER
	controller = PER
	unrest = 1
} # Weakened by internal conflicts, Shirvan is an easy prey for the Shah
1588.1.1 = {
	controller = TUR
} # Ottoman conquest
1590.3.21 = {
	owner = TUR
	add_core = TUR
} # Peace of Istanbul
1605.1.1 = {
	controller = PER
}
1612.11.20 = {
	owner = PER
}
1722.1.1 = {
	controller = REB
	revolt = {
		type = pretender_rebels
	}
} # Anti Ghilzai
1730.1.1 = {
	controller = PER
	revolt = { }
} # Afghans Ousted
1747.1.1 = {
	controller = REB
	revolt = {
		type = pretender_rebels
	}
} # Anti Ghilzai
1760.1.1 = {
	controller = PER
	revolt = { }
} # Afghans Ousted
1805.1.1 = {
	controller = RUS
}
1813.10.24 = {
	owner = RUS
	add_core = RUS
	remove_core = PER
} # The Treaty of Gulistan
