# No previous file for Baku

owner = SHI
controller = SHI
add_core = SHI

capital = "Baku"
trade_goods = olive
culture = azerbadjani
religion = sunni

hre = no

base_tax = 3
base_production = 1
base_manpower = 0

is_city = yes
marketplace = yes
town_hall = yes
temple = yes
local_fortification_1 = yes
fort_14th = yes
harbour_infrastructure_1 = yes

discovered_by = western
discovered_by = muslim
discovered_by = eastern
discovered_by = steppestech
discovered_by = turkishtech

1100.1.1 = {
	set_province_flag = pocket_province
	set_province_flag = silk_road_town
	set_province_flag = good_natural_place
	add_permanent_province_modifier = {
		name = "baku_silk_road"
		duration = -1
	}
}
1467.1.1 = {
	controller = AKK
}
1470.1.1 = {
#	owner = AKK
#	add_core = AKK
#	remove_core = QAR
	controller = SHI
}
1501.1.1 = {
	base_tax = 4
}
1504.1.1 = {
	remove_core = TIM
	add_permanent_claim = PER
	religion = shiite
}
1538.1.1 = {
	owner = PER
	controller = PER
	add_core = PER
	unrest = 1
} # Weakened by internal conflicts, Shirvan is an easy prey for the Shah
1588.1.1 = {
	controller = TUR
} # Ottoman conquest
1590.3.21 = {
	owner = TUR
	add_core = TUR
} # Peace of Istanbul
1605.1.1 = {
	controller = PER
}
1612.11.20 = {
	owner = PER
}
1722.1.1 = {
	controller = REB
	revolt = {
		type = pretender_rebels
	}
} # Anti Ghilzai
1730.1.1 = {
	controller = PER
	revolt = { }
} # Afghans Ousted
1747.1.1 = {
	controller = REB
	revolt = {
		type = pretender_rebels
	}
} # Anti Ghilzai
1760.1.1 = {
	controller = PER
	revolt = { }
} # Afghans Ousted
1805.1.1 = {
	controller = RUS
}
1813.10.24 = {
	owner = RUS
	add_core = RUS
	remove_core = PER
} # The Treaty of Gulistan
