# 3886 - al Ladhiqiyah

owner = MAM
controller = MAM
add_core = MAM

capital = "al Ladhiqiyah"
trade_goods = cotton
culture = shami
religion = sunni

hre = no

base_tax = 10
base_production = 1
base_manpower = 1

is_city = yes
temple = yes
road_network = yes
harbour_infrastructure_1 = yes
town_hall = yes
fort_14th = yes

discovered_by = muslim
discovered_by = eastern
discovered_by = western
discovered_by = turkishtech

1356.1.1 = {
	add_core = SYR
}
1500.3.3 = {
	base_tax = 12
}
1516.1.1 = {
	add_core = TUR
}
1516.8.28 = {
	controller = TUR
}
1517.4.13 = {
	owner = TUR
	remove_core = MAM
} # Conquered by Ottoman troops
1530.1.3 = {
	road_network = no
	paved_road_network = yes
}
1530.1.5 = {
	owner = SYR
	controller = SYR
	remove_core = TUR
}
1531.1.1 = {
	owner = TUR
	controller = TUR
	add_core = TUR
}
1831.1.1 = {
	controller = EGY
}
1833.6.1 = {
	owner = EGY
}
1841.2.1 = {
	owner = TUR
	controller = TUR
} # Part of the Ottoman Empire
