# 4028 - Bitlis

owner = CHU
controller = CHU
add_core = CHU

capital = "Bitlis"
trade_goods = wool
culture = ge_armenian
religion = coptic

hre = no

base_tax = 9
base_production = 0
base_manpower = 0

is_city = yes
workshop = yes

discovered_by = steppestech
discovered_by = western
discovered_by = eastern
discovered_by = muslim
discovered_by = turkishtech

500.1.1 = {
	add_permanent_province_modifier = {
		name = urban_goods_linen
		duration = -1
	}
	set_province_flag = tribals_control_province
	set_variable = { which = tribals_ratio	value = 49 }
}
1356.1.1 = {
	add_core = KRD
	add_permanent_province_modifier = {
		name = "kurdish_princelings"
		duration = -1
	}
	add_core = QAR
}
1360.1.1 = {
	owner = QAR
	controller = QAR
}
1393.1.1 = {
	owner = TIM
	controller = TIM
}
1406.1.1 = {
	owner = AKK
	controller = AKK
} # Independence granted by Tamerlane
1444.1.1 = {
	remove_core = JAI
}
1453.1.1 = {
	discovered_by = western
}
1500.3.3 = {
	base_tax = 10
	base_production = 0
	base_manpower = 1
}
1501.1.1 = {
	controller = SAM
}
1508.1.1 = {
	owner = SAM
}
1512.1.1 = {
	owner = PER
	controller = PER
	add_core = PER
	remove_core = SAM
	fort_14th = yes
	courthouse = yes
} # Safawids "form persia"
#1514.8.23 = {
#	add_core = TUR
#} # Diyarbakir conquered by Ottomans, Van remains Persian
1530.1.1 = {
	add_permanent_claim = TUR
} #As Caliph, duty to rescue Baghdad
1534.7.1 = {
	controller = TUR
} # Wartime occupation
1535.1.1 = {
	controller = PER
} # Persians recapture Van
1548.8.25 = {
	controller = TUR
}
1549.12.1 = {
	owner = TUR
	remove_core = PER
	add_core = TUR
	remove_claim = TUR
} # Part of the Ottoman empire
1556.1.1 = {
	culture = kurdish
	religion = sunni
}
1722.1.1 = {
	unrest = 5
} # Rebellion against the Ottomans
1730.1.1 = {
	unrest = 0
}
