# 523 - Kumaon

owner = DLH
controller = DLH
add_core = DLH

capital = "Champawat"
trade_goods = cotton
culture = pahari
religion = hinduism

hre = no

base_tax = 30
base_production = 1
base_manpower = 2

is_city = yes
temple = yes
#fort_14th = yes

discovered_by = indian
discovered_by = muslim
discovered_by = steppestech
discovered_by = turkishtech

450.1.1 = {
	add_permanent_province_modifier = {
		name = kutlehar_state #now Kumaon
		duration = -1
	}
}
1356.1.1 = {
	add_core = AHM
}
1399.1.1 = {
	owner = AHM
	controller = AHM
	unrest = 0
} # Guessed date for independence from Delhi Sultanate
1483.1.1 = {
	controller = DLH
	owner = DLH
}
1511.1.1 = {
	base_tax = 38
}
1526.2.1 = {
	controller = TIM
} # Babur's invasion
1526.4.21 = {
	owner = MUG
	controller = MUG
	add_core = MUG
	remove_core = DLH
} # Battle of Panipat
1530.1.2 = {
	add_core = TRT
}
1540.1.1 = {
	owner = BNG
	controller = BNG
	add_core = BNG
} # Sher Shah Conquers Delhi
1553.1.1 = {
	owner = DLH
	controller = DLH
	remove_core = BNG
} # Death of Islam Shah Sur, Suri empire split
1555.7.23 = {
	owner = MUG
	controller = MUG
} # Humayun Returns
1568.1.1 = {
	capital = "Almora"
}
1690.1.1 = {
	discovered_by = ENG
}
1707.5.12 = {
	discovered_by = GBR
}
1790.1.1 = {
	owner = NPL
	controller = NPL
}
1814.11.1 = {
	controller = GBR
}
1816.12.2 = {
	owner = GBR
	add_core = GBR
}
