# 5372 - hebei_area Ji

owner = YUA
controller = YUA

capital = "Shenzhou"
trade_goods = indigo
culture = jilu
religion = confucianism

hre = no

base_tax = 29
base_production = 0
base_manpower = 1

is_city = yes
road_network = yes
temple = yes

discovered_by = chinese
discovered_by = steppestech

1276.1.1 = {
	owner = YUA
	controller = YUA
	add_core = YUA
}
1351.1.1 = {
	owner = CYU
	controller = CYU
	add_core = CYU
}
1369.3.17 = {
	owner = MNG
	controller = MNG
	add_core = MNG
	remove_core = YUA
}
1520.2.2 = {
	base_tax = 46
	base_production = 0
	base_manpower = 2
}
1645.6.25 = {
	owner = QNG
	controller = QNG
	add_core = QNG
} # The Qing Dynasty
1662.1.1 = {
	remove_core = MNG
}
