# 581 - Mong Yang

owner = SST
controller = SST
add_core = SST

capital = "Meng Mit"
trade_goods = rice
culture = shan
religion = buddhism

hre = no

base_tax = 2
base_production = 0
base_manpower = 0

is_city = yes

discovered_by = chinese
discovered_by = indian

450.1.1 = {
	set_province_flag = tribals_control_province
}
1356.1.1 = {
	add_core = DLI
}
1557.1.1 = {
	owner = TAU
	controller = TAU
	add_core = TAU
	remove_core = SST
	remove_core = PEG
	remove_core = DLI
}
1599.1.1 = {
	owner = SST
	controller = SST
}
1605.1.1 = {
	owner = TAU
	controller = TAU
}
1752.1.1 = {
	owner = SST
	controller = SST
}
1754.1.1 = {
	owner = TAU
	controller = TAU
}
1769.1.1 = {
	owner = BRM
	controller = BRM
}
1852.1.1 = {
	unrest = 7
} # out of control after Burmese defeated by British
1885.1.1 = {
	owner = GBR
	controller = REB
}
1890.1.1 = {
	controller = GBR
}
