# 588 - Mengmit

owner = SST
controller = SST
add_core = SST

capital = "Mongnai"
trade_goods = opium
culture = shan
religion = buddhism

hre = no

base_tax = 5
base_production = 0
base_manpower = 0

is_city = yes
fort_14th = yes

discovered_by = chinese
discovered_by = indian

450.1.1 = {
	set_province_flag = tribals_control_province
}
1501.1.1 = {
	base_tax = 6
}
1557.1.1 = {
	owner = TAU
	controller = TAU
	add_core = TAU
	remove_core = AVA
	remove_core = PEG
} # The Shan dynasty is overthrown
1581.1.1 = {
	owner = SST
	controller = SST
	remove_core = TAU
} # Very loosely controlled
1599.1.1 = {
	controller = REB
} #Shan states revolt after Burmese dynasty's crisis
1605.1.1 = {
	controller = TAU
}
1752.2.28 = {
	owner = BRM
	controller = BRM
	add_core = BRM
	remove_core = TAU
}
1852.1.1 = {
	unrest = 7
} # out of control after burmese defeated by british
1885.1.1 = {
	owner = GBR
	controller = REB
}
1890.1.1 = {
	controller = GBR
}
