# 684 - Huguang Shashi

owner = YUA
controller = YUA

capital = "Guizhou"
trade_goods = tea
culture = jingchu
religion = confucianism

hre = no

base_tax = 10
base_production = 0
base_manpower = 0

is_city = yes

discovered_by = chinese
discovered_by = steppestech

985.1.1 = {
	owner = SNG
	controller = SNG
	add_core = SNG
}
1276.1.1 = {
	owner = YUA
	controller = YUA
	add_core = YUA
}
1320.1.1 = {
	remove_core = SNG
}
1351.1.1 = {
	owner = XIA
	controller = XIA
	add_core = XIA
}
1365.1.1 = {
	owner = MNG
	controller = MNG
	add_core = MNG
}
1371.1.1 = {
	remove_core = YUA
	remove_core = XIA
}
1521.1.1 = {
	base_tax = 10
	base_production = 5
	base_manpower = 1
}
1643.11.1 = {
	owner = DXI
	controller = DXI
	add_core = DXI
}
1646.1.1 = {
	owner = QNG
	controller = QNG
	add_core = QNG
	remove_core = DXI
} # The Qing Dynasty
#1662.1.1 = {
#	owner = QNG
#	controller = QNG
#	add_core = QNG
#	remove_core = MNG
#} # The Qing Dynasty
1662.1.1 = {
	remove_core = MNG
}
