# 750 - Kuruya

capital = "Kuruya"
trade_goods = unknown
culture = ge
religion = pantheism

hre = no

base_tax = 3
base_production = 0
base_manpower = 0

native_size = 20
native_ferocity = 1
native_hostileness = 6

450.1.1 = {
	set_province_flag = tribals_control_province
}
1500.1.1 = {
	base_tax = 1
	native_size = 5
}
1600.1.1 = {
	discovered_by = POR
	add_core = POR
}
1661.1.1 = {
	owner = POR
	controller = POR
	capital = "Imperatriz"
	citysize = 560
	culture = portugese
	religion = catholic
	trade_goods = sugar
	set_province_flag = trade_good_set
	base_tax = 1
}
1700.1.1 = {
	is_city = yes
}
1750.1.1 = {
	add_core = BRZ
	culture = brazilian
}
1822.9.7 = {
	owner = BRZ
	controller = BRZ
}
1825.1.1 = {
	remove_core = POR
}
