# Persian Unification
cb_persian_unification = {
	war_goal = unify_persia
	
	is_triggered_only = yes # See cb_types.1
	valid_for_subject = no
	
	months = 12000
	
	prerequisites = {
		OR = {
			tag = PER
			tag = TIM
		}
		FROM = {
			culture_group = persian_group
			OR = {
				khorasan_region = {
					owned_by = PREV
				}
				persia_region = {
					owned_by = PREV
				}
				afghanistan_region = {
					owned_by = PREV
				}
			}
		}
		is_neighbor_of = FROM
		NOT = { overlord_of = FROM }
		singleplayer_or_ai_country_trigger = yes
	}
}

cb_moroccan_unification = {
	war_goal = unify_morocco
	
	is_triggered_only = yes # See cb_types.1
	valid_for_subject = no
	
	months = 12000
	
	prerequisites = {
		OR = {
			tag = MOR
			tag = FEZ
			tag = TFL
			tag = SOS
		}
		is_neighbor_of = FROM
		FROM = {
			OR = {
				owns = 1533 # Sabta
				owns = 334 # Tanja
				owns = 2971 # Tingitania
				tafilalt_area = {
					owned_by = PREV
				}
				sus_area = {
					owned_by = PREV
				}
				anfa_area = {
					owned_by = PREV
				}
				marrekesh_area = {
					owned_by = PREV
				}
				fez_area = {
					owned_by = PREV
				}
			}
		}
		NOT = { overlord_of = FROM }
		singleplayer_or_ai_country_trigger = yes
	}
}
