# Nomadic CB's
cb_nomadic_conquest = {
	war_goal = nomad_conquest
	
	is_triggered_only = yes # See cb_types.1
	valid_for_subject = no
	
	months = 12000
	
	prerequisites = {
		is_nomad = yes
		OR = {
			AND = {
				NOT = { government = tribal_nomads }
				NOT = { government = tribal_nomads_hereditary }
				NOT = {
					OR = {
						AND = {
							horde_unity = 95
							mil = 5
						}
						AND = {
							horde_unity = 85
							mil = 6
						}
					}
				}
				OR = {
					horde_unity = 50
					mil = 3
				}
			}
			AND = {
				OR = {
					government = tribal_nomads
					government = tribal_nomads_hereditary
				}
				OR = {
					AND = {
						horde_unity = 95
						mil = 4
					}
					AND = {
						horde_unity = 85
						mil = 6
					}
				}
			}
		}
		is_neighbor_of = FROM
		NOT = { overlord_of = FROM }
	}
}

cb_nomadic_conquest_mil = {
	war_goal = nomad_conquest_mil
	
	is_triggered_only = yes # See cb_types.1
	valid_for_subject = no
	
	months = 12000
	
	prerequisites = {
		is_nomad = yes
		NOT = { government = tribal_nomads }
		NOT = { government = tribal_nomads_hereditary }
		OR = {
			AND = {
				horde_unity = 95
				mil = 5
			}
			AND = {
				horde_unity = 85
				mil = 6
			}
		}
		is_neighbor_of = FROM
		NOT = { overlord_of = FROM }
	}
}

cb_nomadic_submission = {
	war_goal = nomad_submission
	
	is_triggered_only = yes # See cb_types.1
	valid_for_subject = no
	
	months = 12000
	
	prerequisites = {
		is_nomad = yes
		NOT = { government = tribal_nomads }
		NOT = { government = tribal_nomads_hereditary }
		horde_unity = 80
		mil = 5
		FROM = {
			is_nomad = yes
		}
		is_neighbor_of = FROM
		NOT = { overlord_of = FROM }
	}
}

cb_nomadic_tribute = {
	war_goal = nomad_tribute
	
	is_triggered_only = yes # See cb_types.1
	valid_for_subject = no
	
	months = 12000
	
	prerequisites = {
		is_nomad = yes
		OR = {
			AND = {
				NOT = { government = tribal_nomads }
				NOT = { government = tribal_nomads_hereditary }
				horde_unity = 25
				mil = 2
			}
			AND = {
				OR = {
					government = tribal_nomads
					government = tribal_nomads_hereditary
				}
				horde_unity = 50
				OR = {
					mil = 4
					horde_unity = 85
				}
			}
		}
		is_neighbor_of = FROM
		NOT = { overlord_of = FROM }
	}
}