# Tribal CB's
cb_tribal_raid = {
	war_goal = tribal_raid
	
	is_triggered_only = yes # See cb_types.1
	valid_for_subject = no
	
	months = 12000
	
	prerequisites = {
		is_tribal = yes
		
		is_neighbor_of = FROM
		NOT = { overlord_of = FROM }
	}
}