# Claiming the Caliphate
cb_caliphate = {
	war_goal = take_caliphate
	
	ai_peace_desire = -20
	is_triggered_only = yes # See cb_types.1
	valid_for_subject = no
	
	months = 12000
	
	prerequisites = {
		tag = TUR
		owns = 1402 # Konstantinoupolis
		FROM = {
			tag = MAM
			OR = {
				egypt_region = {
					owned_by = PREV
				}
				west_maghreb_region = {
					owned_by = PREV
				}
				central_maghreb_region = {
					owned_by = PREV
				}
				east_maghreb_region = {
					owned_by = PREV
				}
			}
		}
		NOT = { overlord_of = FROM }
		singleplayer_or_ai_country_trigger = yes
	}
}

# Claiming the Sultanate of Rum
cb_rum_sultanate = {
	war_goal = take_rum_sultanate
	
	is_triggered_only = yes # See cb_types.1
	valid_for_subject = no
	months = 12000
	
	prerequisites = {
		has_country_flag = rum_sultanate_claimed
		FROM = {
			OR = {
				east_balkan_region = {
					owned_by = PREV
					NOT = {
						AND = {
							province_id = 1402 # Konstantinoupolis
							owned_by = BYZ
						}
					}
				}
				central_balkan_region = {
					owned_by = PREV
				}
				north_anatolia_region = {
					owned_by = PREV
				}
				south_anatolia_region = {
					owned_by = PREV
				}
				greece_region = {
					owned_by = PREV
				}
			}
		}
		NOT = { overlord_of = FROM }
		singleplayer_or_ai_country_trigger = yes
	}
	attacker_disabled_po = {
		po_become_vassal
	}
}

# Dominate Anatolia
cb_anatolian_supremacy = {
	war_goal = take_anatolia
	
	is_triggered_only = yes # See cb_types.1
	valid_for_subject = no
	months = 12000
	
	prerequisites = {
		NOT = { has_country_flag = rum_sultanate_claimed }
		OR = {
			primary_culture = turkish
			primary_culture = yorouk
		}
		FROM = {
			OR = {
				north_anatolia_region = {
					owned_by = PREV
				}
				south_anatolia_region = {
					owned_by = PREV
				}
				cilicia_area = {
					owned_by = PREV
				}
				dulkadir_area = {
					owned_by = PREV
				}
				erzurum_area = {
					owned_by = PREV
				}
			}
		}
		NOT = { overlord_of = FROM }
		singleplayer_or_ai_country_trigger = yes
	}
}

cb_rum_sultanate_gp = {
	war_goal = take_rum_sultanate_gp
	
	ai_peace_desire = 0
	is_triggered_only = yes
	valid_for_subject = no
	
	attacker_disabled_po = {
		po_become_vassal
	}
}
