administrative_reform = {
	category = 3 		# same category = 90% less likely
	
	allow = {
		num_of_owned_provinces_with = {
			value = 3
			local_autonomy = 20
		}
		NOT = { government = republic }
	}
	
	effect = {
		
	}
	
	modifier = {
		global_autonomy = -0.05
	}
	
	chance = {
		factor = 1
	}
	
	ai_will_do = {
		factor = 1
		modifier = {
			factor = 2
			average_home_autonomy = 25
		}
		modifier = {
			factor = 0
			NOT = { average_home_autonomy = 10 }
		}
	}
}