country_decisions = {
	
	crusader_kingdom_of_egypt = {
		major = yes
		potential = {
			NOT = { exists = KEG }
			religion = catholic
			NOT = { government = republic }
			owns = 358 # Al Iskandariyya
			NOT = { is_religion_enabled = protestant }
		}
		allow = {
			is_at_war = no
		}
		effect = {
			clr_country_flag = holy_land_jerusalem
			custom_tooltip = church_settlement_explained
			set_country_flag = church_settlement
			clr_country_flag = dispensation_denied
			set_country_flag = dispensation_granted
			add_papal_influence = 50
			add_prestige = 25
			358 = {
				add_core = KEG
				remove_core = ROOT
				change_province_name = "Alexandria"
				rename_capital = "Alexandria"
				every_neighbor_province = {
					limit = { owned_by = ROOT }
					cede_province = KEG
				}
			}
			release = KEG
			vassalize = KEG
			KEG = {
				change_primary_culture = ROOT
				set_dynasty = ROOT
				Effect_set_capital = { target=358 }
			}
			every_country = {
				limit = {
					any_owned_province = { region = egypt_region is_core = PREV }
					NOT = { tag = ROOT }
				}
				add_historical_rival = KEG
			}
		}
		ai_will_do = {
			factor = 0
		}
	}
	
	become_crusader_kingdom_of_egypt = {
		major = yes
		potential = {
			OR = {
				tag = CYP
				tag = KNI
			}
			NOT = { exists = KEG }
			religion = catholic
			egypt_region = { owned_by = ROOT }
		}
		allow = {
			owns = 358 # Al Iskandariyya
			is_at_war = no
			OR = {
				check_variable = { which = "Demesne_in_Egypt" value = 8 }
				check_variable = { which = "Cores_on_Egypt" value = 5 }
			}
		}
		effect = {
			egypt_region = { limit = { owned_by = ROOT } remove_core = KEG add_core = KEG }
			egypt_region = { limit = { NOT = { owned_by = ROOT } } add_permanent_claim = KEG }
			every_country = {
				limit = {
					any_owned_province = { region = egypt_region is_core = PREV }
					NOT = { tag = ROOT }
				}
				add_historical_rival = KEG
			}
			add_prestige = 15
			if = {
				limit = { NOT = { has_country_modifier = title_5 has_country_modifier = title_6 } }
				change_title_5 = yes
			}
			if = {
				limit = { OR = { government = theocratic_government	government = monastic_order_government } }
				if = {
					limit = { NOT = { adm_tech = 35 } }
					change_government = feudal_monarchy
				}
				if = {
					limit = { adm_tech = 35 }
					change_government = absolute_monarchy
				}
			}
			change_tag = KEG
			add_absolutism = 10
			358 = {
				change_province_name = "Alexandria"
				rename_capital = "Alexandria"
			}
			Effect_set_capital = { target=358 }
			if = {
				limit = {
					has_custom_ideas = no
					NOT = { has_idea_group = KEG_ideas }
				}
				swap_national_ideas_effect = yes
			}
		}
		ai_will_do = {
			factor = 0
		}
	}
	
#	repopulate_alexandria = {
#		potential = {
#			tag = KEG
#			capital = 358
#			358 = {
#				NOT = { has_province_modifier = major_city }
#			}
#		}
#		allow = {
#			358 = {
#				controlled_by = owner
#				has_siege = no
#				NOT = { has_province_modifier = major_city }
#				development = 40
#			}
#			NOT = { num_of_loans = 1 }
#			total_development = 150
#			treasury = 1000
#			adm_power = 200
#			OR = {
#				ADM = 4
#				architect = 2
#			}
#		}
#		effect = {
#			add_adm_power = -200
#			add_treasury = -1000
#			358 = { add_permanent_province_modifier = { name = major_city duration = -1 } }
#		}
#		ai_will_do = {
#			factor = 1
#			modifier = {
#				NOT = { treasury = 1100 }
#				factor = 0
#			}
#		}
#	}
	
}
