country_decisions = {
	
	form_colonial_assembly = {
		major = yes
		potential = {
			government = colonial_government
			NOT = { has_country_flag = colonial_assembly }
		}
		allow = {
			adm_tech = 25
			liberty_desire = 25
		}
		effect = {
			set_country_flag = colonial_assembly
			add_adm_power = -25
			add_liberty_desire = -5
			add_country_modifier = {
				name = "colonial_assembly"
				duration = -1
			}
			hidden_effect = {
				colonial_parent = {
					country_event = { id = elections.711 days = 3 }
				}
			}
		}
		ai_will_do = {
			factor = 1
		}
	}
	
	demand_governor_election = {
		major = yes
		potential = {
			government = colonial_government
			NOT = { has_country_flag = colonial_election }
		}
		allow = {
			has_country_modifier = colonial_assembly
			liberty_desire = 50
		}
		effect = {
			set_country_flag = colonial_election
			custom_tooltip = "colonial_election"
			add_liberty_desire = -25
			hidden_effect = {
				colonial_parent = {
					country_event = { id = elections.712 days = 3 }
				}
			}
		}
		ai_will_do = {
			factor = 1
			modifier = {
				factor = 0
				NOT = { num_of_cities = 10 }
			}
		}
	}
	
	move_capital_to_mexico_city = {
		major = yes
		potential = {
			owns = 1471 # Mexihco
			NOT = { capital = 1471 }
			OR = {
				government = colonial_government
				government = population_colonial_government
				government = trader_colonial_government
				government = feudal_colonial_government
			}
			NOT = { has_country_flag = move_capital_to_mexico_city }
		}
		allow = {
			adm_power = 5
		}
		effect = {
			set_country_flag = move_capital_to_mexico_city
			add_adm_power = -5
			Effect_set_capital = { target=1471 }
			1471 = {
				rename_capital = "Mexico City"
			}
		}
		ai_will_do = {
			factor = 1
		}
	}
	move_capital_to_silver_river = {
		major = yes
		potential = {
			owns = 3454 # Querandi
			NOT = { capital = 3454 }
			OR = {
				government = colonial_government
				government = population_colonial_government
				government = trader_colonial_government
				government = feudal_colonial_government
			}
			NOT = { has_country_flag = move_capital_to_silver_river }
		}
		allow = {
			adm_power = 5
		}
		effect = {
			set_country_flag = move_capital_to_silver_river
			add_adm_power = -5
			Effect_set_capital = { target=3454 }
		}
		ai_will_do = {
			factor = 1
		}
	}
	
}
