country_decisions = {
	
	check_italian_policies = {
		potential = {
			check_variable = { which = italian_nations value = 5 }
			check_variable = { which = italian_power value = 1 }
		}
		allow = {
			check_variable = { which = italian_nations value = 5 }
			check_variable = { which = italian_power value = 1 }
		}
		effect = {
			country_event = { id = internal_policies.101 days = 0 }
		}
		ai_will_do = {
			factor = 0
		}
	}
	
	decentralise_the_state_stab = {
		potential = {
			absolutism = 10
			NOT = { stability = 1 }
		}
		allow = {
			OR = {
				ADM = 3
				advisor = statesman
			}
			is_at_war = no
			NOT = { has_country_modifier = stability_cooldown_decent }
			OR = {
				AND = {
					government = enlightened_despotism
					absolutism = 30
				}
				AND = {
					government = absolute_monarchy
					absolutism = 50
				}
				AND = {
					NOT = { government = enlightened_despotism }
					NOT = { government = absolute_monarchy }
				}
			}
		}
		effect = {
			#	country_event = { id = centralisation.101 days = 100 }
			add_absolutism = -10
			add_stability_1 = yes
			add_country_modifier = {
				name = "appeased_with_decentralization"
				duration = 1825
			}
			#add_ruler_modifier = { name = "decentralisation_efforts" }
			hidden_effect = {
				add_country_modifier = {
					name = "stability_cooldown_decent"
					duration = 1825
				}
			}
			if = { limit = { ai = no } add_adm_power = -100 }
		}
		ai_will_do = { ### Moved AI decision making for this event to a pulse instead
			factor = 0
			#		modifier = {
			#			factor = 0
			#			stability = 0
			#		}
		}
		#	ai_importance = 1000
	}
	
}
