##############################################
# Barbary Pirates
##############################################
barbary_pirates = {
	
	color = { 200 150 80 }
	area = nation
	government = any
	defection = none				# Does not defect
	independence = none				# Does not strive for independence
	unit_transfer = yes
	gfx_type = culture_province
	
	resilient = yes
	reinforcing = no
	general = yes
	smart = yes
	
	artillery = 0.1
	infantry = 0.6
	cavalry = 0.0
	
	morale = 0.8
	
	# Possible handle actions
	handle_action_negotiate = no
	handle_action_stability = yes
	handle_action_build_core = yes
	handle_action_send_missionary = yes
	
	# The rebel type with the highest modifier for this province gets picked
	spawn_chance = {
		factor = 1
		modifier = {
			factor = 0
			has_port = no
		}
		modifier = {
			factor = 0
			NOT = { region = provence_region }
			NOT = { region = languedoc_region }
			NOT = { superregion = iberia_superregion }
			NOT = { superregion = italy_superregion }
			NOT = { superregion = balkan_superregion }
		}
		modifier = {
			factor = 0
			religion_group = muslim
		}
		modifier = {
			factor = 0.5
			is_overseas = yes
		}
		modifier = {
			factor = 0.01
			owner = {
				has_country_flag = barbary_pirates_defeated
			}
		}
		modifier = {
			has_province_modifier = peasants_organizing
			factor = 1.4
		}
	}
	
	#This is checked for EACH province in the Area of Operations
	movement_evaluation = {
		factor = 1
		modifier = {
			factor = 0.1
			units_in_province = 1
		}
		modifier = {
			factor = 0.001
			controlled_by = REB
		}
		modifier = {
			factor = 1.5
			unrest = 2
		}
		modifier = {
			factor = 1.5
			unrest = 4
		}
		modifier = {
			factor = 1.5
			unrest = 6
		}
	}
	
	# Province Scope
	siege_won_trigger = {
	}
	siege_won_effect = {
	}
	
	# Country scope
	can_negotiate_trigger = {
		always = no
	}
	
	# Country scope
	can_enforce_trigger = {
		always = yes
	}
	
	# Localisation for their demands
	demands_description = "barbary_pirates_demand"
	
	# Country Scope
	demands_enforced_effect = {
		# change_religion = REB
		# force_converted = yes
		define_ruler = {
			rebel = yes
		}
	}
}