# Country: Bangkalan
# file name: BSM - Bangkalan
# MEIOU-FB Indonesia mod v3 - for IN+JV
# for performance reasons BSM represents all the city-states on Madura island
# FB-TODO - more rulers

government = eastern_monarchy government_rank = 1
mercantilism = 0.0
primary_culture = javan
religion = hinduism
technology_group = austranesian
capital = 2104	# Madura

1000.1.1 = {
	add_country_modifier = { name = title_4 duration = -1 }
	set_country_flag = title_4
	#set_variable = { which = "centralization_decentralization" value = 0 }
	add_absolutism = -100
	add_absolutism = 30
}
1478.1.1 = {
	monarch = {
		name = "Ario Lembu Peteng"
		dynasty = "Rajasanagara"
		ADM = 3
		DIP = 3
		MIL = 3
	}
} # First ruler of Madura

1485.1.1 = {
	monarch = {
		name = "Ario Menger"
		dynasty = "Rajasanagara"
		ADM = 3
		DIP = 3
		MIL = 3
	}
} # Successor, date invented

1499.1.1 = {
	monarch = {
		name = "Ario Patikal"
		dynasty = "Rajasanagara"
		ADM = 3
		DIP = 3
		MIL = 3
	}
} # Successor, date invented

1513.1.1 = {
	monarch = {
		name = "Nyai Ageng Boedo"
		dynasty = "Rajasanagara"
		ADM = 3
		DIP = 3
		MIL = 3
	}
} # Successor, date invented

1531.1.1 = {
	monarch = {
		name = "Kiai Demong"
		dynasty = "Rajasanagara"
		ADM = 3
		DIP = 3
		MIL = 3
	}
} # Last independent ruler

# 1625 - Conquered by Mataram
