government = tribal_monarchy government_rank = 1
primary_culture = lunda
religion = animism
technology_group = central_african
unit_type = sub_saharan
capital = 4267

1000.1.1 = {
	add_country_modifier = { name = title_1 duration = -1 }
	set_country_flag = title_1
	#set_variable = { which = "centralization_decentralization" value = 5 }
	add_absolutism = -100
	add_absolutism = 0
	set_country_flag = no_cavalry
}

1430.1.1 = {
	monarch = {
		name = "Kinguri"
		dynasty = "Imbangala"
		adm = 2
		dip = 3
		mil = 3
	}
} #An ancestor of the Kasanje state.

1480.1.1 = {
	monarch = {
		name = "Kasanje ka Imbe"
		dynasty = "Imbangala"
		adm = 3
		dip = 2
		mil = 4
	}
}

1505.1.1 = {
	monarch = {
		name = "Kabuku"
		dynasty = "Imbangala"
		adm = 2
		dip = 2
		mil = 4
	}
}

1565.1.1 = {
	monarch = {
		name = "Kasa"
		dynasty = "Imbangala"
		adm = 5
		dip = 2
		mil = 5
	}
}

1625.1.1 = {
	monarch = {
		name = "Kasanje Kalunga"
		dynasty = "Kasanje"
		adm = 5
		dip = 2
		mil = 5
	}
} #Around the time of the founding of the Kingdom

1690.1.1 = {
	monarch = {
		name = "Kasa II"
		dynasty = "Kasanje"
		adm = 5
		dip = 2
		mil = 5
	}
} #Fictional

1755.1.1 = {
	monarch = {
		name = "Kabuku II"
		dynasty = "Kasanje"
		adm = 5
		dip = 2
		mil = 5
	}
} #Fictional