# MXI - Uriankhai

government = tribal_nomads_altaic government_rank = 1
mercantilism = 0.0
technology_group = steppestech
primary_culture = uriankhai
religion = tengri_pagan_reformed
capital = 3256	# Heihe

1000.1.1 = {
	add_country_modifier = { name = title_3 duration = -1 }
	set_country_flag = title_3
	#set_variable = { which = "centralization_decentralization" value = 5 }
	add_absolutism = -100
	add_absolutism = 0
}
1356.1.1 = {
	monarch = {
		name = "Naghacu"
		dynasty = "Jalayirid"
		adm = 3
		dip = 2
		mil = 4
	}
}

1389.1.1 = {
	monarch = {
		name = "Ajasiri"
		dynasty = "Odchigin"
		adm = 3
		dip = 2
		mil = 4
	}
}