# NOV - Republic of Novgorod

government = merchant_republic government_rank = 1
mercantilism = 25
primary_culture = novgorodian
add_accepted_culture = pomor
add_accepted_culture = ingrian
religion = orthodox
technology_group = eastern
capital = 309	# Novgorod
fixed_capital = 309
historical_rival = SWE
historical_rival = RSW
historical_rival = LIT

1000.1.1 = {
	add_country_modifier = { name = title_4 duration = -1 }
	set_country_flag = title_4
	set_variable = { which = "centralization_decentralization" value = 3 }
}

1350.1.1 = {
	monarch = {
		name = "Ontsifor Lukinich"
		ADM = 5
		DIP = 2
		MIL = 6
	}
}

1392.11.27 = {
	monarch = {
		name = "Yeufimei II"
		ADM = 4
		DIP = 5
		MIL = 3
	}
}

1399.1.1 = {
	set_country_flag = hanseatic_league
	historical_rival = MOS
	historical_rival = RUS
}

1459.1.1 = {
	monarch = {
		name = "Iona"
		ADM = 4
		DIP = 3
		MIL = 3
	}
}

1470.11.1 = {
	monarch = {
		name = "Feodosi"
		ADM = 4
		DIP = 3
		MIL = 1
	}
}

1557.7.12 = {
} # Civil War in Novgorod
