# Nazca
# Tag : NZC

government = tribal_monarchy government_rank = 1
mercantilism = 0.0
primary_culture = nazca
religion = inti
technology_group = south_american
capital = 2066	# Nazca

1000.1.1 = {
	add_country_modifier = { name = title_1 duration = -1 }
	set_country_flag = title_1
	#set_variable = { which = "centralization_decentralization" value = 3 }
	add_absolutism = -100
	add_absolutism = 20
}

1352.1.1 = {
	monarch = {
		name = "Huama"
		dynasty = "Nazca"
		ADM = 3
		DIP = 3
		MIL = 3
	}
}
