dip_idea_modifiers = {
	category = DIP
	
	custom_idea_num_accepted_cultures = {
		num_accepted_cultures = 1 # accepted_culture_threshold = -0.05
		max_level = 1
		level_cost_1 = 22
	}
	#unsure about this one being used
	custom_idea_culture_conversion_cost = {
		culture_conversion_cost = -0.05
		max_level = 2
		level_cost_1 = 5
		level_cost_2 = 10
	}
	custom_idea_naval_morale = {
		naval_morale = 0.05
		default = 4
		max_level = 4
		level_cost_1 = 6
		level_cost_2 = 12
		level_cost_3 = 18
		level_cost_4 = 24
		# Used for random generation
		chance = {
			factor = 1
			modifier = {
				factor = 0
				NOT = { num_of_ports = 1 }
			}
			modifier = {
				factor = 1.5
				num_of_ports = 10
			}
		}
	}
	#remember this has some downsides
	custom_idea_trade_efficiency = {
		trade_efficiency = 0.05
		default = 7
		max_level = 2
		level_cost_1 = 4
		level_cost_2 = 8
	}
	custom_idea_global_trade_power = {
		global_trade_power = 0.05
		max_level = 2
		level_cost_1 = 9
		level_cost_2 = 18
		default = 9
	}
	custom_idea_global_prov_trade_power_modifier = {
		global_prov_trade_power_modifier = 0.05
		max_level = 2
		level_cost_1 = 5
		level_cost_2 = 10
	}
	#do not use without very special consideration, generates magic money!
	custom_idea_trade_steering = {
		trade_steering = 0.05
		max_level = 1
		level_cost_1 = 1000
	}
	#interacts oddly with colonies, remember that
	custom_idea_global_tariffs = {
		global_tariffs = 0.05
		max_level = 2
		level_cost_1 = 7
		level_cost_2 = 14
	}
	#this is very very nice
	custom_idea_diplomatic_reputation = {
		diplomatic_reputation = 1
		max_level = 2
		level_cost_1 = 16
		level_cost_2 = 32
	}
	#not too crazy to hand out
	custom_idea_diplomatic_upkeep = {
		diplomatic_upkeep = 1
		max_level = 2
		level_cost_1 = 7
		level_cost_2 = 14
	}
	custom_idea_merchants = {
		merchants = 1
		max_level = 1
		level_cost_1 = 20
	}
	custom_idea_colonists = {
		colonists = 1
		max_level = 3
		level_cost_1 = 9
		level_cost_2 = 18
		level_cost_3 = 27
		
		# Used for random generation
		chance = {
			factor = 0.1
			modifier = {
				factor = 0
				NOT = { any_owned_province = { has_port = yes } }
			}
		}
	}
	custom_idea_diplomats = {
		diplomats = 1
		max_level = 1
		level_cost_1 = 20
	}
	#as with all maint modifiers, go light
	custom_idea_naval_maintenance_modifier = {
		naval_maintenance_modifier = -0.05
		max_level = 2
		level_cost_1 = 12
		level_cost_2 = 24
		# Used for random generation
		chance = {
			factor = 1
			modifier = {
				factor = 0
				NOT = { any_owned_province = { has_port = yes } }
			}
		}
	}
	custom_idea_naval_forcelimit_modifier = {
		naval_forcelimit_modifier = 0.1
		max_level = 2
		level_cost_1 = 5
		level_cost_2 = 10
		# Used for random generation
		chance = {
			factor = 1
			modifier = {
				factor = 0
				NOT = { any_owned_province = { has_port = yes } }
			}
		}
	}
	custom_idea_ship_durability = {
		ship_durability = 0.05
		max_level = 2
		level_cost_1 = 10
		level_cost_2 = 20
		# Used for random generation
		chance = {
			factor = 1
			modifier = {
				factor = 0
				NOT = { any_owned_province = { has_port = yes } }
			}
		}
	}
	custom_idea_war_exhaustion = {
		war_exhaustion = -0.01
		max_level = 3
		level_cost_1 = 14
		level_cost_2 = 28
		level_cost_3 = 42
	}
	custom_idea_war_exhaustion_cost = {
		war_exhaustion_cost = -0.05
		level_cost_2 = 3
		level_cost_3 = 9
		level_cost_4 = 18
	}
	#Do not use, use decay reduction
	custom_idea_navy_tradition = {
		navy_tradition = 0.25
		max_level = 1
		level_cost_1 = 20000
		
		# Used for random generation
		chance = {
			factor = 0
		}
	}
	#no more than 0.030 across all basic ideas, let me know if you use less.
	custom_idea_navy_tradition_decay = {
		navy_tradition_decay = -0.005
		max_level = 3
		level_cost_1 = 9
		level_cost_2 = 18
		level_cost_3 = 27
		
		# Used for random generation
		chance = {
			factor = 1
			modifier = {
				factor = 0
				NOT = { any_owned_province = { has_port = yes } }
			}
		}
	}
	custom_idea_naval_tradition_from_battle = {
		naval_tradition_from_battle = 0.25
		max_level = 4
		level_cost_1 = 3
		level_cost_2 = 6
		level_cost_3 = 9
		level_cost_4 = 12
	}
	custom_idea_leader_naval_fire = {
		leader_naval_fire = 1
		max_level = 1
		level_cost_1 = 20
		
		# Used for random generation
		chance = {
			factor = 1
			modifier = {
				factor = 0
				NOT = { any_owned_province = { has_port = yes } }
			}
		}
	}
	custom_idea_leader_naval_shock = {
		leader_naval_shock = 1
		max_level = 1
		level_cost_1 = 18
		
		# Used for random generation
		chance = {
			factor = 1
			modifier = {
				factor = 0
				NOT = { any_owned_province = { has_port = yes } }
			}
		}
	}
	custom_idea_leader_naval_maneuver = {
		leader_naval_manuever = 1
		max_level = 1
		level_cost_1 = 24
		
		# Used for random generation
		chance = {
			factor = 1
			modifier = {
				factor = 0
				NOT = { any_owned_province = { has_port = yes } }
			}
		}
	}
	custom_idea_spy_offence = {
		spy_offence = 0.05
		max_level = 4
		level_cost_1 = 6
		level_cost_2 = 12
		level_cost_3 = 18
		level_cost_4 = 24
	}
	custom_idea_spy_defense = {
		global_spy_defence = 0.05
		max_level = 4
		level_cost_1 = 4
		level_cost_2 = 8
		level_cost_3 = 12
		level_cost_4 = 16
	}
	custom_idea_ship_recruit_speed = {
		global_ship_recruit_speed = -0.10
		max_level = 5
		level_cost_1 = 3
		level_cost_2 = 6
		level_cost_3 = 9
		level_cost_4 = 12
		level_cost_5 = 15
		
		# Used for random generation
		chance = {
			factor = 1
			modifier = {
				factor = 0
				NOT = { any_owned_province = { has_port = yes } }
			}
		}
	}
	custom_idea_blockade_efficiency = {
		blockade_efficiency = 0.1
		max_level = 3
		level_cost_1 = 3
		level_cost_2 = 6
		level_cost_3 = 9
		
		# Used for random generation
		chance = {
			factor = 1
			modifier = {
				factor = 0
				NOT = { any_owned_province = { has_port = yes } }
			}
		}
	}
	custom_idea_embargo_efficiency = {
		embargo_efficiency = 0.10
		max_level = 3
		level_cost_1 = 3
		level_cost_2 = 6
		level_cost_3 = 9
	}
	custom_idea_prestige_from_naval = {
		prestige_from_naval = 0.25
		max_level = 4
		level_cost_1 = 1
		level_cost_2 = 2
		level_cost_3 = 3
		level_cost_4 = 4
		
		# Used for random generation
		chance = {
			factor = 1
			modifier = {
				factor = 0
				NOT = { any_owned_province = { has_port = yes } }
			}
		}
	}
	custom_idea_range = {
		range = 0.1
		max_level = 5
		level_cost_1 = 3
		level_cost_2 = 6
		level_cost_3 = 9
		level_cost_4 = 12
		level_cost_5 = 15
		
		# Used for random generation
		chance = {
			factor = 0.1
			modifier = {
				factor = 0
				NOT = { any_owned_province = { has_port = yes } }
			}
		}
	}
	custom_idea_global_colonial_growth = {
		global_colonial_growth = 1
		max_level = 5
		level_cost_1 = 2
		level_cost_2 = 4
		level_cost_3 = 6
		level_cost_4 = 8
		level_cost_5 = 10
		
		# Used for random generation
		chance = {
			factor = 1
			modifier = {
				factor = 0
				NOT = { any_owned_province = { has_port = yes } }
			}
		}
	}
	custom_idea_ae_impact = {
		ae_impact = -0.05
		max_level = 2
		level_cost_1 = 3
		level_cost_2 = 6
	}
	custom_idea_privateer_efficiency = {
		privateer_efficiency = 0.1
		max_level = 3
		level_cost_1 = 3
		level_cost_2 = 6
		level_cost_3 = 9
		
		# Used for random generation
		chance = {
			factor = 1
			modifier = {
				factor = 0
				NOT = { any_owned_province = { has_port = yes } }
			}
		}
	}
	custom_idea_diplomatic_annexation_cost = {
		diplomatic_annexation_cost = -0.05
		max_level = 4
		level_cost_1 = 2
		level_cost_2 = 4
		level_cost_3 = 6
		level_cost_4 = 8
	}
	custom_idea_heavy_ship_cost = {
		heavy_ship_cost = -0.05
		max_level = 2
		level_cost_1 = 6
		level_cost_2 = 12
		
		# Used for random generation
		chance = {
			factor = 1
			modifier = {
				factor = 0
				NOT = { any_owned_province = { has_port = yes } }
			}
		}
	}
	custom_idea_light_ship_cost = {
		light_ship_cost = -0.05
		max_level = 2
		level_cost_1 = 5
		level_cost_2 = 10
		
		# Used for random generation
		chance = {
			factor = 1
			modifier = {
				factor = 0
				NOT = { any_owned_province = { has_port = yes } }
			}
		}
	}
	custom_idea_galley_cost = {
		galley_cost = -0.05
		max_level = 2
		level_cost_1 = 4
		level_cost_2 = 8
		
		# Used for random generation
		chance = {
			factor = 1
			modifier = {
				factor = 0
				NOT = { any_owned_province = { has_port = yes } }
			}
		}
	}
	custom_idea_transport_cost = {
		transport_cost = -0.05
		max_level = 2
		level_cost_1 = 2
		level_cost_2 = 4
		
		# Used for random generation
		chance = {
			factor = 1
			modifier = {
				factor = 0
				NOT = { any_owned_province = { has_port = yes } }
			}
		}
	}
	custom_idea_heavy_ship_power = {
		heavy_ship_power = 0.05
		max_level = 2
		level_cost_1 = 8
		level_cost_2 = 16
		
		# Used for random generation
		chance = {
			factor = 1
			modifier = {
				factor = 0
				NOT = { any_owned_province = { has_port = yes } }
			}
		}
	}
	custom_idea_light_ship_power = {
		light_ship_power = 0.05
		max_level = 2
		level_cost_1 = 6
		level_cost_2 = 12
		
		# Used for random generation
		chance = {
			factor = 1
			modifier = {
				factor = 0
				NOT = { any_owned_province = { has_port = yes } }
			}
		}
	}
	#pretty useless
	custom_idea_transport_power = {
		transport_power = 0.05
		max_level = 2
		level_cost_1 = 2
		level_cost_2 = 4
		
		# Used for random generation
		chance = {
			factor = 1
			modifier = {
				factor = 0
				NOT = { any_owned_province = { has_port = yes } }
			}
		}
	}
	custom_idea_galley_power = {
		galley_power = 0.05
		max_level = 2
		level_cost_1 = 7
		level_cost_2 = 14
		
		# Used for random generation
		chance = {
			factor = 1
			modifier = {
				factor = 0
				NOT = { any_owned_province = { has_port = yes } }
			}
		}
	}
	#like trade steering, don't use this in normal ideas
	custom_idea_caravan_power = {
		caravan_power = 0.05
		max_level = 1
		level_cost_1 = 2000
	}
	custom_idea_cb_on_overseas = {
		cb_on_overseas = yes
		max_level = 1
		level_cost_1 = 25
	}
	custom_idea_cb_on_primitives = {
		cb_on_primitives = yes
		max_level = 1
		level_cost_1 = 20
	}
	custom_idea_global_own_trade_power = {
		global_own_trade_power = 0.1
		max_level = 2
		level_cost_1 = 5
		level_cost_2 = 10
	}
	custom_idea_global_foreign_trade_power = {
		global_foreign_trade_power = 0.1
		max_level = 2
		level_cost_1 = 7
		level_cost_2 = 14
	}
	custom_idea_global_ship_cost = {
		global_ship_cost = -0.05
		max_level = 2
		level_cost_1 = 12
		level_cost_2 = 24
	}
	custom_idea_global_ship_repair = {
		global_ship_repair = 0.1
		max_level = 4
		level_cost_1 = 4
		level_cost_2 = 8
		level_cost_3 = 12
		level_cost_4 = 16
	}
	custom_idea_global_trade_goods_size_modifier = {
		global_trade_goods_size_modifier = 0.05
		max_level = 2
		level_cost_1 = 16
		level_cost_2 = 32
	}
	custom_idea_fabricate_claims_cost = {
		fabricate_claims_cost = -0.05
		max_level = 5
		level_cost_1 = 4
		level_cost_2 = 8
		level_cost_3 = 12
		level_cost_4 = 16
		level_cost_5 = 20
	}
	custom_idea_envoy_travel_time = {
		envoy_travel_time = -0.10
		max_level = 3
		level_cost_1 = 1
		level_cost_2 = 2
		level_cost_3 = 3
	}
	custom_idea_dip_tech_cost_modifier = {
		dip_tech_cost_modifier = -0.05
		max_level = 2
		level_cost_1 = 7
		level_cost_2 = 14
	}
	custom_idea_discovered_relations_impact = {
		discovered_relations_impact = -0.25
		max_level = 1
		level_cost_1 = 7
	}
	custom_idea_auto_explore_adjacent_to_colony = {
		auto_explore_adjacent_to_colony = yes
		max_level = 1
		level_cost_1 = 2
	}
	custom_idea_improve_relation_modifier = {
		improve_relation_modifier = 0.1
		max_level = 4
		level_cost_1 = 2
		level_cost_2 = 4
		level_cost_3 = 6
		level_cost_4 = 8
	}
	custom_idea_justify_trade_conflict_cost = {
		justify_trade_conflict_cost = -0.10
		max_level = 3
		level_cost_1 = 2
		level_cost_2 = 4
		level_cost_3 = 6
	}
	custom_idea_may_agitate_for_liberty = {
		may_agitate_for_liberty = yes
		max_level = 1
		level_cost_1 = 6
	}
	custom_idea_may_explore = {
		may_explore = yes
		max_level = 1
		level_cost_1 = 30
	}
	custom_idea_may_infiltrate_administration = {
		may_infiltrate_administration = yes
		max_level = 1
		level_cost_1 = 6
	}
	custom_idea_may_sabotage_reputation = {
		may_sabotage_reputation = yes
		max_level = 1
		level_cost_1 = 6
	}
	custom_idea_may_sow_discontent = {
		may_sow_discontent = yes
		max_level = 1
		level_cost_1 = 6
	}
	custom_idea_may_study_technology = {
		may_study_technology = yes
		max_level = 1
		level_cost_1 = 6
	}
	custom_idea_idea_claim_colonies = {
		idea_claim_colonies = yes
		max_level = 1
		level_cost_1 = 6
	}
	custom_idea_province_warscore_cost = {
		province_warscore_cost = -0.05
		max_level = 2
		level_cost_1 = 15
		level_cost_2 = 30
	}
	custom_idea_trade_range_modifier = {
		trade_range_modifier = 0.1
		max_level = 5
		level_cost_1 = 3
		level_cost_2 = 6
		level_cost_3 = 9
		level_cost_4 = 12
		level_cost_5 = 15
	}
	custom_idea_recover_navy_morale_speed = {
		recover_navy_morale_speed = 0.02
		max_level = 4
		level_cost_1 = 4
		level_cost_2 = 8
		level_cost_3 = 12
		level_cost_4 = 16
	}
	custom_idea_unjustified_demands = {
		unjustified_demands = -0.2
		max_level = 2
		level_cost_1 = 7
		level_cost_2 = 14
	}
	custom_idea_sea_repair = {
		sea_repair = yes
		max_level = 1
		level_cost_1 = 30
	}
	custom_idea_reduced_stab_impacts = {
		reduced_stab_impacts = yes
		max_level = 1
		level_cost_1 = 16
	}
	custom_idea_naval_attrition = {
		naval_attrition = -0.25
		max_level = 1
		level_cost_1 = 13
	}
	#I don't think we use this
	custom_idea_native_assimilation = {
		native_assimilation = 0.25
		max_level = 1
		level_cost_1 = 2000
	}
	#I don't think we use this
	custom_idea_native_native_uprising_chance = {
		native_uprising_chance = 0.25
		max_level = 1
		level_cost_1 = 2000
	}
	
	custom_idea_colonist_placement_chance = {
		colonist_placement_chance = 0.0125
		max_level = 2
		level_cost_1 = 6
		level_cost_2 = 12
	}
	custom_idea_global_sailors_modifier = {
		global_sailors_modifier = 0.1
		max_level = 2
		level_cost_1 = 9
		level_cost_2 = 18
	}
	custom_idea_sailors_recovery_speed = {
		sailors_recovery_speed = 0.05
		max_level = 2
		level_cost_1 = 15
		level_cost_2 = 30
	}
	custom_idea_may_steal_maps = {
		may_steal_maps = yes
		max_level = 1
		level_cost_1 = 6
	}
	custom_idea_may_slander_merchants = {
		may_slander_merchants = yes
		max_level = 1
		level_cost_1 = 6
	}
	custom_idea_may_sabotage_recruitment = {
		may_sabotage_recruitment = yes
		max_level = 1
		level_cost_1 = 6
	}
	# apparently not valid for custom_ideas, says the error.log
	#custom_idea_slave_raid = {
	#	may_perform_slave_raid = yes
	#	max_level = 1
	#	level_cost_1 = 5
	#}
	custom_idea_claim_duration = {
		claim_duration = 0.05
		max_level = 5
		level_cost_1 = 1
		level_cost_2 = 2
		level_cost_3 = 3
		level_cost_4 = 4
		level_cost_5 = 5
	}
	custom_idea_capture_ship_chance = {
		capture_ship_chance = 0.05
		max_level = 3
		level_cost_1 = 2
		level_cost_2 = 4
		level_cost_3 = 6
	}
	custom_idea_global_naval_engagement_modifier = {
		global_naval_engagement_modifier = 0.05
		max_level = 2
		level_cost_1 = 11
		level_cost_2 = 22
	}
	custom_idea_global_ship_trade_power = {
		global_ship_trade_power = 0.05
		max_level = 4
		level_cost_1 = 4
		level_cost_2 = 8
		level_cost_3 = 12
		level_cost_4 = 16
	}
	custom_idea_placed_merchant_power = {
		placed_merchant_power = 0.10
		max_level = 3
		level_cost_1 = 4
		level_cost_2 = 8
		level_cost_3 = 12
	}
	custom_idea_ship_power_propagation = {
		ship_power_propagation = 0.05
		max_level = 4
		level_cost_1 = 4
		level_cost_2 = 8
		level_cost_3 = 12
		level_cost_4 = 16
	}
	custom_idea_siege_blockade_progress = {
		siege_blockade_progress = 1
		max_level = 1
		level_cost_1 = 18
	}
	custom_idea_sailor_maintenance_modifer = {
		sailor_maintenance_modifer = -0.05
		max_level = 3
		level_cost_1 = 8
		level_cost_2 = 16
		level_cost_3 = 24
	}
}
